EESchema Schematic File Version 2
LIBS:hpr-telem-board-rescue
LIBS:power
LIBS:device
LIBS:transistors
LIBS:conn
LIBS:linear
LIBS:regul
LIBS:74xx
LIBS:cmos4000
LIBS:adc-dac
LIBS:memory
LIBS:xilinx
LIBS:microcontrollers
LIBS:dsp
LIBS:microchip
LIBS:analog_switches
LIBS:motorola
LIBS:texas
LIBS:intel
LIBS:audio
LIBS:interface
LIBS:digital-audio
LIBS:philips
LIBS:display
LIBS:cypress
LIBS:siliconi
LIBS:opto
LIBS:atmel
LIBS:contrib
LIBS:valves
LIBS:stm32
LIBS:w_analog
LIBS:sprk_rfm69hcw
LIBS:gy-gps6mv2
LIBS:ESP8266
LIBS:bme280
LIBS:si1401edh
LIBS:hpr-telem-board-cache
EELAYER 25 0
EELAYER END
$Descr A4 11693 8268
encoding utf-8
Sheet 8 8
Title ""
Date ""
Rev ""
Comp ""
Comment1 ""
Comment2 ""
Comment3 ""
Comment4 ""
$EndDescr
Text HLabel 8050 3700 2    60   Output ~ 0
RF_TX
Text HLabel 8050 3800 2    60   Input ~ 0
RF_RX
$Comp
L VDD #PWR023
U 1 1 58C2808A
P 7200 2600
AR Path="/58C23733/58C2808A" Ref="#PWR023"  Part="1" 
AR Path="/58C23733/58C23733/58C2808A" Ref="#PWR019"  Part="1" 
F 0 "#PWR023" H 7200 2450 50  0001 C CNN
F 1 "VDD" H 7200 2750 50  0000 C CNN
F 2 "" H 7200 2600 50  0000 C CNN
F 3 "" H 7200 2600 50  0000 C CNN
	1    7200 2600
	1    0    0    -1  
$EndComp
$Comp
L GND #PWR024
U 1 1 58C280A0
P 6900 4900
AR Path="/58C23733/58C280A0" Ref="#PWR024"  Part="1" 
AR Path="/58C23733/58C23733/58C280A0" Ref="#PWR020"  Part="1" 
F 0 "#PWR024" H 6900 4650 50  0001 C CNN
F 1 "GND" H 6900 4750 50  0000 C CNN
F 2 "" H 6900 4900 50  0000 C CNN
F 3 "" H 6900 4900 50  0000 C CNN
	1    6900 4900
	1    0    0    -1  
$EndComp
NoConn ~ 6000 4000
NoConn ~ 6000 4100
NoConn ~ 6000 4200
NoConn ~ 6000 4300
NoConn ~ 7800 4300
NoConn ~ 7800 4200
NoConn ~ 7800 4100
NoConn ~ 7800 4000
NoConn ~ 7800 3900
$Comp
L Si1401EDH Q5
U 1 1 58C829AD
P 7300 2900
F 0 "Q5" H 7600 2950 50  0000 R CNN
F 1 "Si1401EDH" H 7925 2850 50  0000 R CNN
F 2 "TO_SOT_Packages_SMD:SC-70-6_Handsoldering" H 7500 3000 50  0001 C CNN
F 3 "" H 7300 2900 50  0000 C CNN
	1    7300 2900
	-1   0    0    1   
$EndComp
Wire Wire Line
	6650 3100 7200 3100
Connection ~ 7100 3100
Connection ~ 7000 3100
$Comp
L R R14
U 1 1 58C82A31
P 7350 2650
F 0 "R14" V 7430 2650 50  0000 C CNN
F 1 "100k" V 7350 2650 50  0000 C CNN
F 2 "Resistors_SMD:R_0603_HandSoldering" V 7280 2650 50  0001 C CNN
F 3 "" H 7350 2650 50  0000 C CNN
	1    7350 2650
	0    1    1    0   
$EndComp
Wire Wire Line
	7200 2600 7200 2700
Connection ~ 7200 2650
Text HLabel 7500 2550 1    60   Input ~ 0
ESP_EN
Wire Wire Line
	7500 2550 7500 2900
Connection ~ 7500 2650
Connection ~ 6900 3100
$Comp
L PWR_FLAG #FLG025
U 1 1 58C8D584
P 6650 3100
F 0 "#FLG025" H 6650 3195 50  0001 C CNN
F 1 "PWR_FLAG" H 6650 3280 50  0000 C CNN
F 2 "" H 6650 3100 50  0000 C CNN
F 3 "" H 6650 3100 50  0000 C CNN
	1    6650 3100
	0    -1   -1   0   
$EndComp
NoConn ~ 6000 3800
$Comp
L ESP-12 U7
U 1 1 58C28018
P 6900 4000
AR Path="/58C23733/58C28018" Ref="U7"  Part="1" 
AR Path="/58C23733/58C23733/58C28018" Ref="U7"  Part="1" 
F 0 "U7" H 6900 3900 50  0000 C CNN
F 1 "ESP-07" H 6900 4100 50  0000 C CNN
F 2 "ESP8266:ESP-07v2" H 6900 4000 50  0001 C CNN
F 3 "" H 6900 4000 50  0001 C CNN
	1    6900 4000
	1    0    0    -1  
$EndComp
$Comp
L CONN_01X04 P9
U 1 1 58CAD8CC
P 6900 5500
F 0 "P9" H 6900 5750 50  0000 C CNN
F 1 "CONN_01X04" V 7000 5500 50  0000 C CNN
F 2 "Pin_Headers:Pin_Header_Straight_1x04" H 6900 5500 50  0001 C CNN
F 3 "" H 6900 5500 50  0000 C CNN
	1    6900 5500
	0    1    1    0   
$EndComp
$Comp
L R R17
U 1 1 58CAD979
P 5650 3250
F 0 "R17" V 5730 3250 50  0000 C CNN
F 1 "1k" V 5650 3250 50  0000 C CNN
F 2 "Resistors_SMD:R_0603_HandSoldering" V 5580 3250 50  0001 C CNN
F 3 "" H 5650 3250 50  0000 C CNN
	1    5650 3250
	1    0    0    -1  
$EndComp
$Comp
L R R18
U 1 1 58CAD9BC
P 5850 3250
F 0 "R18" V 5930 3250 50  0000 C CNN
F 1 "1k" V 5850 3250 50  0000 C CNN
F 2 "Resistors_SMD:R_0603_HandSoldering" V 5780 3250 50  0001 C CNN
F 3 "" H 5850 3250 50  0000 C CNN
	1    5850 3250
	1    0    0    -1  
$EndComp
Wire Wire Line
	5850 3400 5850 5150
Wire Wire Line
	5850 3700 6000 3700
Wire Wire Line
	5650 3400 5650 5250
Wire Wire Line
	5650 3900 6000 3900
Wire Wire Line
	5850 5150 6850 5150
Wire Wire Line
	6850 5150 6850 5300
Connection ~ 5850 3700
Wire Wire Line
	5650 5250 6750 5250
Wire Wire Line
	6750 5250 6750 5300
Connection ~ 5650 3900
Wire Wire Line
	5650 3100 5650 2650
Wire Wire Line
	5650 2650 7200 2650
Wire Wire Line
	5850 3100 5850 2650
Connection ~ 5850 2650
Wire Wire Line
	7800 3700 8050 3700
Wire Wire Line
	7800 3800 8050 3800
Wire Wire Line
	7900 3700 7900 5150
Wire Wire Line
	7900 5150 6950 5150
Wire Wire Line
	6950 5150 6950 5300
Connection ~ 7900 3700
Wire Wire Line
	7950 3800 7950 5200
Wire Wire Line
	7950 5200 7050 5200
Wire Wire Line
	7050 5200 7050 5300
Connection ~ 7950 3800
$EndSCHEMATC
