(export (version D)
  (design
    (source /home/liknus/git/hpr-telem-board/hpr-telem-board.sch)
    (date "Sun 16 Apr 2017 07:46:39 PM EEST")
    (tool "Eeschema 4.0.6")
    (sheet (number 1) (name /) (tstamps /)
      (title_block
        (title "HPR Telemetry Module")
        (company "Libre Space Foundation")
        (rev 0.1)
        (date 2017-03-07)
        (source hpr-telem-board.sch)
        (comment (number 1) (value ""))
        (comment (number 2) (value ""))
        (comment (number 3) (value ""))
        (comment (number 4) (value ""))))
    (sheet (number 2) (name /MCU/) (tstamps /58B828BA/)
      (title_block
        (title "HPR Telemetry Module")
        (company "Libre Space Foundation")
        (rev 0.1)
        (date 2017-03-07)
        (source mcu.sch)
        (comment (number 1) (value ""))
        (comment (number 2) (value ""))
        (comment (number 3) (value ""))
        (comment (number 4) (value ""))))
    (sheet (number 3) (name /iNemo/) (tstamps /58BF1D3D/)
      (title_block
        (title "HPR Telemetry Module")
        (company "Libre Space Foundation")
        (rev 0.1)
        (date 2017-03-07)
        (source inemo.sch)
        (comment (number 1) (value ""))
        (comment (number 2) (value ""))
        (comment (number 3) (value ""))
        (comment (number 4) (value ""))))
    (sheet (number 4) (name /RFM69/) (tstamps /58BF29C2/)
      (title_block
        (title "HPR Telemetry Module")
        (company "Libre Space Foundation")
        (rev 0.1)
        (date 2017-03-07)
        (source rfm69.sch)
        (comment (number 1) (value ""))
        (comment (number 2) (value ""))
        (comment (number 3) (value ""))
        (comment (number 4) (value ""))))
    (sheet (number 5) (name /GPS/) (tstamps /58BF43D1/)
      (title_block
        (title)
        (company)
        (rev)
        (date)
        (source gps.sch)
        (comment (number 1) (value ""))
        (comment (number 2) (value ""))
        (comment (number 3) (value ""))
        (comment (number 4) (value ""))))
    (sheet (number 6) (name /BME180/) (tstamps /58BF82E0/)
      (title_block
        (title)
        (company)
        (rev)
        (date)
        (source BME180.sch)
        (comment (number 1) (value ""))
        (comment (number 2) (value ""))
        (comment (number 3) (value ""))
        (comment (number 4) (value ""))))
    (sheet (number 7) (name "/Power Management/") (tstamps /58C1EFFA/)
      (title_block
        (title)
        (company)
        (rev)
        (date)
        (source PowerManagement.sch)
        (comment (number 1) (value ""))
        (comment (number 2) (value ""))
        (comment (number 3) (value ""))
        (comment (number 4) (value ""))))
    (sheet (number 8) (name /ESP8266/) (tstamps /58C23733/)
      (title_block
        (title)
        (company)
        (rev)
        (date)
        (source ESP8266.sch)
        (comment (number 1) (value ""))
        (comment (number 2) (value ""))
        (comment (number 3) (value ""))
        (comment (number 4) (value "")))))
  (components
    (comp (ref P2)
      (value CONN_01X07)
      (footprint Connectors_JST:JST_PH_B7B-PH-K_07x2.00mm_Straight)
      (libsource (lib conn) (part CONN_01X07))
      (sheetpath (names /) (tstamps /))
      (tstamp 58C2324C))
    (comp (ref P3)
      (value SMA)
      (footprint w_conn_rf:sma_straight_32k101-400l5)
      (libsource (lib hpr-telem-board-cache) (part CONN_COAXIAL))
      (sheetpath (names /) (tstamps /))
      (tstamp 58C2A317))
    (comp (ref U1)
      (value STM32L162RDTx)
      (footprint Housings_QFP:LQFP-64_10x10mm_Pitch0.5mm)
      (libsource (lib stm32) (part STM32L162RDTx))
      (sheetpath (names /MCU/) (tstamps /58B828BA/))
      (tstamp 58B829B5))
    (comp (ref C5)
      (value 100n)
      (footprint Capacitors_SMD:C_0603_HandSoldering)
      (libsource (lib device) (part C))
      (sheetpath (names /MCU/) (tstamps /58B828BA/))
      (tstamp 58B82BBF))
    (comp (ref C4)
      (value 100n)
      (footprint Capacitors_SMD:C_0603_HandSoldering)
      (libsource (lib device) (part C))
      (sheetpath (names /MCU/) (tstamps /58B828BA/))
      (tstamp 58B82C08))
    (comp (ref C3)
      (value 100n)
      (footprint Capacitors_SMD:C_0603_HandSoldering)
      (libsource (lib device) (part C))
      (sheetpath (names /MCU/) (tstamps /58B828BA/))
      (tstamp 58B82C54))
    (comp (ref C2)
      (value 100n)
      (footprint Capacitors_SMD:C_0603_HandSoldering)
      (libsource (lib device) (part C))
      (sheetpath (names /MCU/) (tstamps /58B828BA/))
      (tstamp 58B82CD1))
    (comp (ref C6)
      (value 4.7u)
      (footprint Capacitors_SMD:C_0603_HandSoldering)
      (libsource (lib device) (part C))
      (sheetpath (names /MCU/) (tstamps /58B828BA/))
      (tstamp 58B83779))
    (comp (ref C7)
      (value 100n)
      (footprint Capacitors_SMD:C_0603_HandSoldering)
      (libsource (lib device) (part C))
      (sheetpath (names /MCU/) (tstamps /58B828BA/))
      (tstamp 58B83286))
    (comp (ref C8)
      (value 1u)
      (footprint Capacitors_SMD:C_0603_HandSoldering)
      (libsource (lib device) (part C))
      (sheetpath (names /MCU/) (tstamps /58B828BA/))
      (tstamp 58B832BC))
    (comp (ref C1)
      (value 0.1u)
      (footprint Capacitors_SMD:C_0603_HandSoldering)
      (libsource (lib device) (part C))
      (sheetpath (names /MCU/) (tstamps /58B828BA/))
      (tstamp 58B8378B))
    (comp (ref R2)
      (value 10K)
      (footprint Resistors_SMD:R_0603_HandSoldering)
      (libsource (lib device) (part R))
      (sheetpath (names /MCU/) (tstamps /58B828BA/))
      (tstamp 58B83ADA))
    (comp (ref R7)
      (value 10K)
      (footprint Resistors_SMD:R_0603_HandSoldering)
      (libsource (lib device) (part R))
      (sheetpath (names /MCU/) (tstamps /58B828BA/))
      (tstamp 58B83FEA))
    (comp (ref microSD1)
      (value Micro_SD_Card)
      (footprint libs:hrs-dm3cs)
      (libsource (lib conn) (part Micro_SD_Card))
      (sheetpath (names /MCU/) (tstamps /58B828BA/))
      (tstamp 58BF9704))
    (comp (ref R1)
      (value 10k)
      (footprint Resistors_SMD:R_0603_HandSoldering)
      (libsource (lib device) (part R))
      (sheetpath (names /MCU/) (tstamps /58B828BA/))
      (tstamp 58BF9F8A))
    (comp (ref R3)
      (value 10k)
      (footprint Resistors_SMD:R_0603_HandSoldering)
      (libsource (lib device) (part R))
      (sheetpath (names /MCU/) (tstamps /58B828BA/))
      (tstamp 58BF9FC3))
    (comp (ref R4)
      (value 10k)
      (footprint Resistors_SMD:R_0603_HandSoldering)
      (libsource (lib device) (part R))
      (sheetpath (names /MCU/) (tstamps /58B828BA/))
      (tstamp 58BF9FF4))
    (comp (ref R5)
      (value 10k)
      (footprint Resistors_SMD:R_0603_HandSoldering)
      (libsource (lib device) (part R))
      (sheetpath (names /MCU/) (tstamps /58B828BA/))
      (tstamp 58BFA027))
    (comp (ref R6)
      (value 10k)
      (footprint Resistors_SMD:R_0603_HandSoldering)
      (libsource (lib device) (part R))
      (sheetpath (names /MCU/) (tstamps /58B828BA/))
      (tstamp 58BFA449))
    (comp (ref P4)
      (value CONN_01X02)
      (footprint Pin_Headers:Pin_Header_Straight_1x02)
      (libsource (lib conn) (part CONN_01X02))
      (sheetpath (names /MCU/) (tstamps /58B828BA/))
      (tstamp 58CAF667))
    (comp (ref U2)
      (value LSM9DS0)
      (footprint libs:LSM9DS0)
      (libsource (lib w_analog) (part LSM9DS0))
      (sheetpath (names /iNemo/) (tstamps /58BF1D3D/))
      (tstamp 58BF1DE0))
    (comp (ref C10)
      (value 10u)
      (footprint Capacitors_SMD:C_0603_HandSoldering)
      (libsource (lib device) (part C))
      (sheetpath (names /iNemo/) (tstamps /58BF1D3D/))
      (tstamp 58BF1E98))
    (comp (ref C9)
      (value 100n)
      (footprint Capacitors_SMD:C_0603_HandSoldering)
      (libsource (lib device) (part C))
      (sheetpath (names /iNemo/) (tstamps /58BF1D3D/))
      (tstamp 58BF1F1D))
    (comp (ref C11)
      (value 0.22u)
      (footprint Capacitors_SMD:C_0603_HandSoldering)
      (libsource (lib device) (part C))
      (sheetpath (names /iNemo/) (tstamps /58BF1D3D/))
      (tstamp 58BF2109))
    (comp (ref C12)
      (value 4.7u)
      (footprint Capacitors_SMD:C_0603_HandSoldering)
      (libsource (lib device) (part C))
      (sheetpath (names /iNemo/) (tstamps /58BF1D3D/))
      (tstamp 58BF217A))
    (comp (ref Q1)
      (value Si1401EDH)
      (footprint TO_SOT_Packages_SMD:SC-70-6_Handsoldering)
      (libsource (lib si1401edh) (part Si1401EDH))
      (sheetpath (names /iNemo/) (tstamps /58BF1D3D/))
      (tstamp 58C820A8))
    (comp (ref R10)
      (value 100k)
      (footprint Resistors_SMD:R_0603_HandSoldering)
      (libsource (lib device) (part R))
      (sheetpath (names /iNemo/) (tstamps /58BF1D3D/))
      (tstamp 58C8224F))
    (comp (ref P5)
      (value CONN_01X02)
      (footprint Pin_Headers:Pin_Header_Straight_1x02)
      (libsource (lib conn) (part CONN_01X02))
      (sheetpath (names /iNemo/) (tstamps /58BF1D3D/))
      (tstamp 58CAE8E6))
    (comp (ref Q2)
      (value Si1401EDH)
      (footprint TO_SOT_Packages_SMD:SC-70-6_Handsoldering)
      (libsource (lib si1401edh) (part Si1401EDH))
      (sheetpath (names /RFM69/) (tstamps /58BF29C2/))
      (tstamp 58C82F81))
    (comp (ref R11)
      (value 100k)
      (footprint Resistors_SMD:R_0603_HandSoldering)
      (libsource (lib device) (part R))
      (sheetpath (names /RFM69/) (tstamps /58BF29C2/))
      (tstamp 58C83032))
    (comp (ref U3)
      (value SPRK_RFM69HCW)
      (libsource (lib sprk_rfm69hcw) (part SPRK_RFM69HCW))
      (sheetpath (names /RFM69/) (tstamps /58BF29C2/))
      (tstamp 58DA9B39))
    (comp (ref U4)
      (value GY-GPS6MV2)
      (footprint libs:GY-NEO6MV2)
      (libsource (lib gy-gps6mv2) (part GY-GPS6MV2))
      (sheetpath (names /GPS/) (tstamps /58BF43D1/))
      (tstamp 58BF4442))
    (comp (ref Q3)
      (value Si1401EDH)
      (footprint TO_SOT_Packages_SMD:SC-70-6_Handsoldering)
      (libsource (lib si1401edh) (part Si1401EDH))
      (sheetpath (names /GPS/) (tstamps /58BF43D1/))
      (tstamp 58C8198D))
    (comp (ref R12)
      (value 100k)
      (footprint Resistors_SMD:R_0603_HandSoldering)
      (libsource (lib device) (part R))
      (sheetpath (names /GPS/) (tstamps /58BF43D1/))
      (tstamp 58C81A84))
    (comp (ref P6)
      (value CONN_01X02)
      (footprint Pin_Headers:Pin_Header_Straight_1x02)
      (libsource (lib conn) (part CONN_01X02))
      (sheetpath (names /GPS/) (tstamps /58BF43D1/))
      (tstamp 58CAD0F9))
    (comp (ref P10)
      (value GPS_ANT)
      (footprint libs:GY-NEO6MV2-ANT)
      (libsource (lib conn) (part CONN_01X04))
      (sheetpath (names /GPS/) (tstamps /58BF43D1/))
      (tstamp 58CC51C6))
    (comp (ref U5)
      (value BME280)
      (footprint libs:BME280)
      (libsource (lib bme280) (part BME280))
      (sheetpath (names /BME180/) (tstamps /58BF82E0/))
      (tstamp 58BF8328))
    (comp (ref C13)
      (value 100n)
      (footprint Capacitors_SMD:C_0603_HandSoldering)
      (libsource (lib device) (part C))
      (sheetpath (names /BME180/) (tstamps /58BF82E0/))
      (tstamp 58BF846D))
    (comp (ref C14)
      (value 100n)
      (footprint Capacitors_SMD:C_0603_HandSoldering)
      (libsource (lib device) (part C))
      (sheetpath (names /BME180/) (tstamps /58BF82E0/))
      (tstamp 58BF84FA))
    (comp (ref R9)
      (value 4.7k)
      (footprint Resistors_SMD:R_0603_HandSoldering)
      (libsource (lib device) (part R))
      (sheetpath (names /BME180/) (tstamps /58BF82E0/))
      (tstamp 58BF858B))
    (comp (ref R8)
      (value 4.7k)
      (footprint Resistors_SMD:R_0603_HandSoldering)
      (libsource (lib device) (part R))
      (sheetpath (names /BME180/) (tstamps /58BF82E0/))
      (tstamp 58BF8674))
    (comp (ref Q4)
      (value Si1401EDH)
      (footprint TO_SOT_Packages_SMD:SC-70-6_Handsoldering)
      (libsource (lib si1401edh) (part Si1401EDH))
      (sheetpath (names /BME180/) (tstamps /58BF82E0/))
      (tstamp 58C7FACF))
    (comp (ref R13)
      (value 100k)
      (footprint Resistors_SMD:R_0603_HandSoldering)
      (libsource (lib device) (part R))
      (sheetpath (names /BME180/) (tstamps /58BF82E0/))
      (tstamp 58C812DF))
    (comp (ref P7)
      (value CONN_01X02)
      (footprint Pin_Headers:Pin_Header_Straight_1x02)
      (libsource (lib conn) (part CONN_01X02))
      (sheetpath (names /BME180/) (tstamps /58BF82E0/))
      (tstamp 58CAE311))
    (comp (ref P1)
      (value "LiPo Battery")
      (footprint Connectors_JST:JST_EH_S02B-EH_02x2.50mm_Angled)
      (libsource (lib conn) (part CONN_01X02))
      (sheetpath (names "/Power Management/") (tstamps /58C1EFFA/))
      (tstamp 58C1F1E4))
    (comp (ref U6)
      (value LD1117S33TR)
      (footprint TO_SOT_Packages_SMD:SOT-223)
      (libsource (lib regul) (part LD1117S33TR))
      (sheetpath (names "/Power Management/") (tstamps /58C1EFFA/))
      (tstamp 58C21462))
    (comp (ref R15)
      (value 47K)
      (footprint Resistors_SMD:R_0603_HandSoldering)
      (libsource (lib device) (part R))
      (sheetpath (names "/Power Management/") (tstamps /58C1EFFA/))
      (tstamp 58C83FA6))
    (comp (ref R16)
      (value 22K)
      (footprint Resistors_SMD:R_0603_HandSoldering)
      (libsource (lib device) (part R))
      (sheetpath (names "/Power Management/") (tstamps /58C1EFFA/))
      (tstamp 58C83FDB))
    (comp (ref P8)
      (value CONN_02X03)
      (footprint Pin_Headers:Pin_Header_Straight_2x03)
      (libsource (lib conn) (part CONN_02X03))
      (sheetpath (names "/Power Management/") (tstamps /58C1EFFA/))
      (tstamp 58CAED83))
    (comp (ref Q5)
      (value Si1401EDH)
      (footprint TO_SOT_Packages_SMD:SC-70-6_Handsoldering)
      (libsource (lib si1401edh) (part Si1401EDH))
      (sheetpath (names /ESP8266/) (tstamps /58C23733/))
      (tstamp 58C829AD))
    (comp (ref R14)
      (value 100k)
      (footprint Resistors_SMD:R_0603_HandSoldering)
      (libsource (lib device) (part R))
      (sheetpath (names /ESP8266/) (tstamps /58C23733/))
      (tstamp 58C82A31))
    (comp (ref U7)
      (value ESP-07)
      (footprint ESP8266:ESP-07v2)
      (libsource (lib ESP8266) (part ESP-12))
      (sheetpath (names /ESP8266/) (tstamps /58C23733/))
      (tstamp 58C28018))
    (comp (ref P9)
      (value CONN_01X04)
      (footprint Pin_Headers:Pin_Header_Straight_1x04)
      (libsource (lib conn) (part CONN_01X04))
      (sheetpath (names /ESP8266/) (tstamps /58C23733/))
      (tstamp 58CAD8CC))
    (comp (ref R17)
      (value 1k)
      (footprint Resistors_SMD:R_0603_HandSoldering)
      (libsource (lib device) (part R))
      (sheetpath (names /ESP8266/) (tstamps /58C23733/))
      (tstamp 58CAD979))
    (comp (ref R18)
      (value 1k)
      (footprint Resistors_SMD:R_0603_HandSoldering)
      (libsource (lib device) (part R))
      (sheetpath (names /ESP8266/) (tstamps /58C23733/))
      (tstamp 58CAD9BC)))
  (libparts
    (libpart (lib bme280) (part BME280)
      (footprints
        (fp BME280))
      (fields
        (field (name Reference) U)
        (field (name Value) BME280))
      (pins
        (pin (num 1) (name GND) (type power_in))
        (pin (num 2) (name CSB) (type input))
        (pin (num 3) (name SDI) (type BiDi))
        (pin (num 4) (name SCK) (type input))
        (pin (num 5) (name SDO) (type BiDi))
        (pin (num 6) (name VDDIO) (type power_in))
        (pin (num 7) (name GND) (type power_in))
        (pin (num 8) (name VDD) (type power_in))))
    (libpart (lib device) (part C)
      (description "Unpolarized capacitor")
      (footprints
        (fp C?)
        (fp C_????_*)
        (fp C_????)
        (fp SMD*_c)
        (fp Capacitor*))
      (fields
        (field (name Reference) C)
        (field (name Value) C))
      (pins
        (pin (num 1) (name ~) (type passive))
        (pin (num 2) (name ~) (type passive))))
    (libpart (lib conn) (part CONN_01X02)
      (description "Connector, single row, 01x02")
      (footprints
        (fp Pin_Header_Straight_1X02)
        (fp Pin_Header_Angled_1X02)
        (fp Socket_Strip_Straight_1X02)
        (fp Socket_Strip_Angled_1X02))
      (fields
        (field (name Reference) P)
        (field (name Value) CONN_01X02))
      (pins
        (pin (num 1) (name P1) (type passive))
        (pin (num 2) (name P2) (type passive))))
    (libpart (lib conn) (part CONN_01X04)
      (description "Connector, single row, 01x04")
      (footprints
        (fp Pin_Header_Straight_1X04)
        (fp Pin_Header_Angled_1X04)
        (fp Socket_Strip_Straight_1X04)
        (fp Socket_Strip_Angled_1X04))
      (fields
        (field (name Reference) P)
        (field (name Value) CONN_01X04))
      (pins
        (pin (num 1) (name P1) (type passive))
        (pin (num 2) (name P2) (type passive))
        (pin (num 3) (name P3) (type passive))
        (pin (num 4) (name P4) (type passive))))
    (libpart (lib conn) (part CONN_01X07)
      (description "Connector, single row, 01x07")
      (footprints
        (fp Pin_Header_Straight_1X07)
        (fp Pin_Header_Angled_1X07)
        (fp Socket_Strip_Straight_1X07)
        (fp Socket_Strip_Angled_1X07))
      (fields
        (field (name Reference) P)
        (field (name Value) CONN_01X07))
      (pins
        (pin (num 1) (name P1) (type passive))
        (pin (num 2) (name P2) (type passive))
        (pin (num 3) (name P3) (type passive))
        (pin (num 4) (name P4) (type passive))
        (pin (num 5) (name P5) (type passive))
        (pin (num 6) (name P6) (type passive))
        (pin (num 7) (name P7) (type passive))))
    (libpart (lib conn) (part CONN_02X03)
      (description "Connector, double row, 02x03")
      (footprints
        (fp Pin_Header_Straight_2X03)
        (fp Pin_Header_Angled_2X03)
        (fp Socket_Strip_Straight_2X03)
        (fp Socket_Strip_Angled_2X03))
      (fields
        (field (name Reference) P)
        (field (name Value) CONN_02X03))
      (pins
        (pin (num 1) (name P1) (type passive))
        (pin (num 2) (name P2) (type passive))
        (pin (num 3) (name P3) (type passive))
        (pin (num 4) (name P4) (type passive))
        (pin (num 5) (name P5) (type passive))
        (pin (num 6) (name P6) (type passive))))
    (libpart (lib hpr-telem-board-cache) (part CONN_COAXIAL)
      (footprints
        (fp *BNC*)
        (fp *SMA*)
        (fp *SMB*)
        (fp *SMC*)
        (fp *Cinch*))
      (fields
        (field (name Reference) J)
        (field (name Value) CONN_COAXIAL))
      (pins
        (pin (num 1) (name In) (type passive))
        (pin (num 2) (name Ext) (type passive))))
    (libpart (lib ESP8266) (part ESP-12)
      (aliases
        (alias ESP-07v2))
      (description "ESP8266 ESP-12 module, 16 pins, 2mm, PCB antenna")
      (docs http://l0l.org.uk/2014/12/esp8266-modules-hardware-guide-gotta-catch-em-all/)
      (footprints
        (fp ESP-07*)
        (fp ESP-12*))
      (fields
        (field (name Reference) U)
        (field (name Value) ESP-12))
      (pins
        (pin (num 1) (name REST) (type input))
        (pin (num 2) (name ADC) (type passive))
        (pin (num 3) (name CH_PD) (type input))
        (pin (num 4) (name GPIO16) (type BiDi))
        (pin (num 5) (name GPIO14) (type BiDi))
        (pin (num 6) (name GPIO12) (type BiDi))
        (pin (num 7) (name GPIO13) (type BiDi))
        (pin (num 8) (name VCC) (type power_in))
        (pin (num 9) (name GND) (type power_in))
        (pin (num 10) (name GPIO15) (type BiDi))
        (pin (num 11) (name GPIO2) (type BiDi))
        (pin (num 12) (name GPIO0) (type BiDi))
        (pin (num 13) (name GPIO4) (type BiDi))
        (pin (num 14) (name GPIO5) (type BiDi))
        (pin (num 15) (name RXD) (type input))
        (pin (num 16) (name TXD) (type output))))
    (libpart (lib gy-gps6mv2) (part GY-GPS6MV2)
      (fields
        (field (name Reference) U)
        (field (name Value) GY-GPS6MV2))
      (pins
        (pin (num 1) (name VCC) (type power_in))
        (pin (num 2) (name RX) (type input))
        (pin (num 3) (name TX) (type output))
        (pin (num 4) (name GND) (type power_in))))
    (libpart (lib regul) (part LD1117S33TR)
      (aliases
        (alias LD1117S33CTR)
        (alias LD1117S12TR)
        (alias LD1117S12CTR)
        (alias LD1117S18TR)
        (alias LD1117S18CTR)
        (alias LD1117S25TR)
        (alias LD1117S25CTR)
        (alias LD1117S50TR)
        (alias LD1117S50CTR))
      (description "800mA Fixed Low Drop Positive Voltage Regulator, Fixed Output 3.3V, SOT223")
      (docs http://www.st.com/st-web-ui/static/active/en/resource/technical/document/datasheet/CD00000544.pdf)
      (footprints
        (fp SOT223))
      (fields
        (field (name Reference) U)
        (field (name Value) LD1117S33TR)
        (field (name Footprint) SOT-223))
      (pins
        (pin (num 1) (name GND) (type power_in))
        (pin (num 2) (name VO) (type power_out))
        (pin (num 3) (name VI) (type power_in))))
    (libpart (lib w_analog) (part LSM9DS0)
      (description "iNEMO intertial module: 3D accelerometer, 3D gyroscope, 3D magnetometer")
      (docs /dati/Documenti/Elettronica/DATA_SHEET/Elettronici/Integrati/Conversione/ST_LSM9DS0.pdf)
      (footprints
        (fp lga-24))
      (fields
        (field (name Reference) U)
        (field (name Value) LSM9DS0))
      (pins
        (pin (num 1) (name RSVD1) (type passive))
        (pin (num 2) (name RSVD2) (type passive))
        (pin (num 3) (name RSVD3) (type passive))
        (pin (num 4) (name RSVD4) (type passive))
        (pin (num 5) (name GND) (type passive))
        (pin (num 6) (name GND) (type passive))
        (pin (num 7) (name C1_XM) (type passive))
        (pin (num 8) (name SETC_XM) (type passive))
        (pin (num 9) (name SETP_XM) (type passive))
        (pin (num 10) (name DEN_G) (type passive))
        (pin (num 11) (name INT_G) (type passive))
        (pin (num 12) (name DRDY_G) (type passive))
        (pin (num 13) (name INT1_XM) (type passive))
        (pin (num 14) (name INT2_XM) (type passive))
        (pin (num 15) (name VDD) (type passive))
        (pin (num 16) (name VDD) (type passive))
        (pin (num 17) (name VDD) (type passive))
        (pin (num 18) (name VDD_IO) (type passive))
        (pin (num 19) (name CS_G) (type passive))
        (pin (num 20) (name CS_XM) (type passive))
        (pin (num 21) (name SCL/SPC) (type passive))
        (pin (num 22) (name SDO_G/SA0_G) (type passive))
        (pin (num 23) (name SDO_XM/SA0_XM) (type passive))
        (pin (num 24) (name SDA) (type passive))))
    (libpart (lib conn) (part Micro_SD_Card)
      (description "Micro SD Card Socket")
      (docs http://katalog.we-online.de/em/datasheet/693072010801.pdf)
      (fields
        (field (name Reference) CON)
        (field (name Value) Micro_SD_Card))
      (pins
        (pin (num 1) (name DAT2) (type BiDi))
        (pin (num 2) (name DAT3/CD) (type BiDi))
        (pin (num 3) (name CMD) (type input))
        (pin (num 4) (name VDD) (type power_in))
        (pin (num 5) (name CLK) (type input))
        (pin (num 6) (name VSS) (type power_in))
        (pin (num 7) (name DAT0) (type input))
        (pin (num 8) (name DAT1) (type input))
        (pin (num 9) (name SHIELD) (type passive))))
    (libpart (lib device) (part R)
      (description Resistor)
      (footprints
        (fp R_*)
        (fp Resistor_*))
      (fields
        (field (name Reference) R)
        (field (name Value) R))
      (pins
        (pin (num 1) (name ~) (type passive))
        (pin (num 2) (name ~) (type passive))))
    (libpart (lib sprk_rfm69hcw) (part SPRK_RFM69HCW)
      (fields
        (field (name Reference) U)
        (field (name Value) SPRK_RFM69HCW))
      (pins
        (pin (num 1) (name RESET) (type output))
        (pin (num 2) (name DIO0) (type input))
        (pin (num 3) (name DIO1) (type input))
        (pin (num 4) (name DIO2) (type BiDi))
        (pin (num 5) (name DIO3) (type BiDi))
        (pin (num 6) (name DIO4) (type BiDi))
        (pin (num 7) (name DIO5) (type power_in))
        (pin (num 8) (name VDD) (type power_in))
        (pin (num 9) (name GND) (type power_out))
        (pin (num 10) (name ANT) (type output))
        (pin (num 11) (name GND) (type power_in))
        (pin (num 12) (name SCK) (type BiDi))
        (pin (num 13) (name MISO) (type BiDi))
        (pin (num 14) (name MOSI) (type BiDi))
        (pin (num 15) (name NSS) (type BiDi))
        (pin (num 16) (name NC) (type BiDi))))
    (libpart (lib stm32) (part STM32L162RDTx)
      (description "Core: ARM Cortex-M3 Package: LQFP64 Flash: 384KB Ram: 48KB Frequency: 32MHz Voltage: 1.65..3.6V IO-pins: 51")
      (docs http://www.st.com/st-web-ui/static/active/en/resource/technical/document/datasheet/DM00039232.pdf)
      (fields
        (field (name Reference) U)
        (field (name Value) STM32L162RDTx)
        (field (name Footprint) LQFP64))
      (pins
        (pin (num 1) (name VLCD) (type power_in))
        (pin (num 2) (name PC13/RTC_OUT_ALARM/RTC_OUT_CALIB/RTC_TAMP1/RTC_TS/SYS_WKUP2/TIMX_IC2) (type BiDi))
        (pin (num 3) (name PC14/RCC_OSC32_IN/TIMX_IC3) (type BiDi))
        (pin (num 4) (name PC15/ADC_EXTI15/RCC_OSC32_OUT/TIMX_IC4) (type BiDi))
        (pin (num 5) (name PH0/RCC_OSC_IN) (type input))
        (pin (num 6) (name PH1/RCC_OSC_OUT) (type input))
        (pin (num 7) (name NRST) (type input))
        (pin (num 8) (name PC0/ADC_IN10/COMP1_INP/LCD_SEG18/TIMX_IC1/TS_G8_IO1) (type BiDi))
        (pin (num 9) (name PC1/ADC_IN11/COMP1_INP/LCD_SEG19/OPAMP3_VINP/TIMX_IC2/TS_G8_IO2) (type BiDi))
        (pin (num 10) (name PC2/ADC_IN12/COMP1_INP/LCD_SEG20/OPAMP3_VINM/TIMX_IC3/TS_G8_IO3) (type BiDi))
        (pin (num 11) (name PC3/ADC_IN13/COMP1_INP/LCD_SEG21/OPAMP3_VOUT/TIMX_IC4/TS_G8_IO4) (type BiDi))
        (pin (num 12) (name VSSA) (type power_in))
        (pin (num 13) (name VDDA) (type power_in))
        (pin (num 14) (name ADC_IN0/COMP1_INP/RTC_TAMP2/SYS_WKUP1/TIM2_CH1/TIM2_ETR/TIM5_CH1/TIMX_IC1/TS_G1_IO1/USART2_CTS/PA0) (type BiDi))
        (pin (num 15) (name ADC_IN1/COMP1_INP/LCD_SEG0/OPAMP1_VINP/TIM2_CH2/TIM5_CH2/TIMX_IC2/TS_G1_IO2/USART2_RTS/PA1) (type BiDi))
        (pin (num 16) (name ADC_IN2/COMP1_INP/LCD_SEG1/OPAMP1_VINM/TIM2_CH3/TIM5_CH3/TIM9_CH1/TIMX_IC3/TS_G1_IO3/USART2_TX/PA2) (type BiDi))
        (pin (num 17) (name ADC_IN3/COMP1_INP/LCD_SEG2/OPAMP1_VOUT/TIM2_CH4/TIM5_CH4/TIM9_CH2/TIMX_IC4/TS_G1_IO4/USART2_RX/PA3) (type BiDi))
        (pin (num 18) (name VSS) (type power_in))
        (pin (num 19) (name VDD) (type power_in))
        (pin (num 20) (name ADC_IN4/COMP1_INP/DAC_OUT1/I2S3_WS/SPI1_NSS/SPI3_NSS/TIMX_IC1/USART2_CK/PA4) (type BiDi))
        (pin (num 21) (name ADC_IN5/COMP1_INP/DAC_OUT2/SPI1_SCK/TIM2_CH1/TIM2_ETR/TIMX_IC2/PA5) (type BiDi))
        (pin (num 22) (name ADC_IN6/COMP1_INP/LCD_SEG3/OPAMP2_VINP/SPI1_MISO/TIM10_CH1/TIM3_CH1/TIMX_IC3/TS_G2_IO1/PA6) (type BiDi))
        (pin (num 23) (name ADC_IN7/COMP1_INP/LCD_SEG4/OPAMP2_VINM/SPI1_MOSI/TIM11_CH1/TIM3_CH2/TIMX_IC4/TS_G2_IO2/PA7) (type BiDi))
        (pin (num 24) (name PC4/ADC_IN14/COMP1_INP/LCD_SEG22/TIMX_IC1/TS_G9_IO1) (type BiDi))
        (pin (num 25) (name PC5/ADC_IN15/COMP1_INP/LCD_SEG23/TIMX_IC2/TS_G9_IO2) (type BiDi))
        (pin (num 26) (name ADC_IN8/COMP1_INP/LCD_SEG5/OPAMP2_VOUT/SYS_V_REF_OUT/TIM3_CH3/TS_G3_IO1/PB0) (type BiDi))
        (pin (num 27) (name ADC_IN9/COMP1_INP/LCD_SEG6/SYS_V_REF_OUT/TIM3_CH4/TS_G3_IO2/PB1) (type BiDi))
        (pin (num 28) (name BOOT1/TS_G3_IO3/PB2) (type BiDi))
        (pin (num 29) (name I2C2_SCL/LCD_SEG10/TIM2_CH3/USART3_TX/PB10) (type BiDi))
        (pin (num 30) (name ADC_EXTI11/I2C2_SDA/LCD_SEG11/TIM2_CH4/USART3_RX/PB11) (type BiDi))
        (pin (num 31) (name VSS) (type power_in))
        (pin (num 32) (name VDD) (type power_in))
        (pin (num 33) (name ADC_IN18/COMP1_INP/I2C2_SMBA/I2S2_WS/LCD_SEG12/SPI2_NSS/TIM10_CH1/TS_G7_IO1/USART3_CK/PB12) (type BiDi))
        (pin (num 34) (name ADC_IN19/COMP1_INP/I2S2_CK/LCD_SEG13/SPI2_SCK/TIM9_CH1/TS_G7_IO2/USART3_CTS/PB13) (type BiDi))
        (pin (num 35) (name ADC_IN20/COMP1_INP/LCD_SEG14/SPI2_MISO/TIM9_CH2/TS_G7_IO3/USART3_RTS/PB14) (type BiDi))
        (pin (num 36) (name ADC_EXTI15/ADC_IN21/COMP1_INP/I2S2_SD/LCD_SEG15/RTC_REFIN/SPI2_MOSI/TIM11_CH1/TS_G7_IO4/PB15) (type BiDi))
        (pin (num 37) (name PC6/I2S2_MCK/LCD_SEG24/SDIO_D6/TIM3_CH1/TIMX_IC3/TS_G10_IO1) (type BiDi))
        (pin (num 38) (name PC7/I2S3_MCK/LCD_SEG25/SDIO_D7/TIM3_CH2/TIMX_IC4/TS_G10_IO2) (type BiDi))
        (pin (num 39) (name PC8/LCD_SEG26/SDIO_D0/TIM3_CH3/TIMX_IC1/TS_G10_IO3) (type BiDi))
        (pin (num 40) (name PC9/DAC_EXTI9/LCD_SEG27/SDIO_D1/TIM3_CH4/TIMX_IC2/TS_G10_IO4) (type BiDi))
        (pin (num 41) (name LCD_COM0/RCC_MCO/TIMX_IC1/TS_G4_IO1/USART1_CK/PA8) (type BiDi))
        (pin (num 42) (name DAC_EXTI9/LCD_COM1/TIMX_IC2/TS_G4_IO2/USART1_TX/PA9) (type BiDi))
        (pin (num 43) (name LCD_COM2/TIMX_IC3/TS_G4_IO3/USART1_RX/PA10) (type BiDi))
        (pin (num 44) (name ADC_EXTI11/SPI1_MISO/TIMX_IC4/USART1_CTS/USB_DM/PA11) (type BiDi))
        (pin (num 45) (name SPI1_MOSI/TIMX_IC1/USART1_RTS/USB_DP/PA12) (type BiDi))
        (pin (num 46) (name SYS_JTMS-SWDIO/TIMX_IC2/TS_G5_IO1/PA13) (type BiDi))
        (pin (num 47) (name VSS) (type power_in))
        (pin (num 48) (name VDD) (type power_in))
        (pin (num 49) (name SYS_JTCK-SWCLK/TIMX_IC3/TS_G5_IO2/PA14) (type BiDi))
        (pin (num 50) (name ADC_EXTI15/I2S3_WS/LCD_SEG17/SPI1_NSS/SPI3_NSS/SYS_JTDI/TIM2_CH1/TIM2_ETR/TIMX_IC4/TS_G5_IO3/PA15) (type BiDi))
        (pin (num 51) (name PC10/I2S3_CK/LCD_COM4/LCD_SEG28/LCD_SEG40/SDIO_D2/SPI3_SCK/TIMX_IC3/UART4_TX/USART3_TX) (type BiDi))
        (pin (num 52) (name PC11/ADC_EXTI11/LCD_COM5/LCD_SEG29/LCD_SEG41/SDIO_D3/SPI3_MISO/TIMX_IC4/UART4_RX/USART3_RX) (type BiDi))
        (pin (num 53) (name PC12/I2S3_SD/LCD_COM6/LCD_SEG30/LCD_SEG42/SDIO_CK/SPI3_MOSI/TIMX_IC1/UART5_TX/USART3_CK) (type BiDi))
        (pin (num 54) (name PD2/LCD_COM7/LCD_SEG31/LCD_SEG43/SDIO_CMD/TIM3_ETR/TIMX_IC3/UART5_RX) (type BiDi))
        (pin (num 55) (name COMP2_INM/I2S3_CK/LCD_SEG7/SPI1_SCK/SPI3_SCK/SYS_JTDO-TRACESWO/TIM2_CH2/PB3) (type BiDi))
        (pin (num 56) (name COMP2_INP/LCD_SEG8/SPI1_MISO/SPI3_MISO/SYS_JTRST/TIM3_CH1/TS_G6_IO1/PB4) (type BiDi))
        (pin (num 57) (name COMP2_INP/I2C1_SMBA/I2S3_SD/LCD_SEG9/SPI1_MOSI/SPI3_MOSI/TIM3_CH2/TS_G6_IO2/PB5) (type BiDi))
        (pin (num 58) (name COMP2_INP/I2C1_SCL/TIM4_CH1/TS_G6_IO3/USART1_TX/PB6) (type BiDi))
        (pin (num 59) (name COMP2_INP/I2C1_SDA/SYS_PVD_IN/TIM4_CH2/TS_G6_IO4/USART1_RX/PB7) (type BiDi))
        (pin (num 60) (name BOOT0) (type input))
        (pin (num 61) (name I2C1_SCL/LCD_SEG16/SDIO_D4/TIM10_CH1/TIM4_CH3/PB8) (type BiDi))
        (pin (num 62) (name DAC_EXTI9/I2C1_SDA/LCD_COM3/SDIO_D5/TIM11_CH1/TIM4_CH4/PB9) (type BiDi))
        (pin (num 63) (name VSS) (type power_in))
        (pin (num 64) (name VDD) (type power_in))))
    (libpart (lib si1401edh) (part Si1401EDH)
      (description "Transistor P-MOSFET Si1401EDH")
      (fields
        (field (name Reference) Q)
        (field (name Value) Si1401EDH))
      (pins
        (pin (num 1) (name D) (type passive))
        (pin (num 2) (name D) (type passive))
        (pin (num 3) (name G) (type input))
        (pin (num 4) (name S) (type passive))
        (pin (num 5) (name D) (type passive))
        (pin (num 6) (name D) (type passive)))))
  (libraries
    (library (logical stm32)
      (uri /usr/share/kicad/library/stm32.lib))
    (library (logical conn)
      (uri /usr/share/kicad/library/conn.lib))
    (library (logical device)
      (uri /usr/share/kicad/library/device.lib))
    (library (logical regul)
      (uri /usr/share/kicad/library/regul.lib))
    (library (logical w_analog)
      (uri /home/liknus/git/hpr-telem-board/libs/w_analog.lib))
    (library (logical sprk_rfm69hcw)
      (uri /home/liknus/git/hpr-telem-board/libs/sprk_rfm69hcw.lib))
    (library (logical ESP8266)
      (uri /home/liknus/git/hpr-telem-board/libs/kicad-ESP8266/ESP8266.lib))
    (library (logical gy-gps6mv2)
      (uri /home/liknus/git/hpr-telem-board/libs/gy-gps6mv2.lib))
    (library (logical si1401edh)
      (uri /home/liknus/git/hpr-telem-board/libs/si1401edh.lib))
    (library (logical bme280)
      (uri /home/liknus/git/hpr-telem-board/libs/bme280.lib))
    (library (logical hpr-telem-board-cache)
      (uri /home/liknus/git/hpr-telem-board/hpr-telem-board-cache.lib)))
  (nets
    (net (code 1) (name /MCU/SWDIO)
      (node (ref P2) (pin 4))
      (node (ref U1) (pin 46)))
    (net (code 2) (name VDD)
      (node (ref R4) (pin 2))
      (node (ref Q1) (pin 4))
      (node (ref R3) (pin 2))
      (node (ref R10) (pin 2))
      (node (ref R1) (pin 2))
      (node (ref U1) (pin 64))
      (node (ref Q2) (pin 4))
      (node (ref R11) (pin 2))
      (node (ref C2) (pin 1))
      (node (ref C6) (pin 1))
      (node (ref C5) (pin 1))
      (node (ref C7) (pin 1))
      (node (ref C8) (pin 1))
      (node (ref R5) (pin 2))
      (node (ref R6) (pin 2))
      (node (ref U1) (pin 32))
      (node (ref microSD1) (pin 4))
      (node (ref U1) (pin 19))
      (node (ref C4) (pin 1))
      (node (ref U1) (pin 48))
      (node (ref U1) (pin 13))
      (node (ref C3) (pin 1))
      (node (ref R7) (pin 1))
      (node (ref U6) (pin 2))
      (node (ref Q4) (pin 4))
      (node (ref Q5) (pin 4))
      (node (ref P2) (pin 1))
      (node (ref Q3) (pin 4))
      (node (ref R12) (pin 1))
      (node (ref P8) (pin 4))
      (node (ref R17) (pin 1))
      (node (ref P8) (pin 2))
      (node (ref P8) (pin 6))
      (node (ref R18) (pin 1))
      (node (ref R14) (pin 2))
      (node (ref R13) (pin 1)))
    (net (code 3) (name GND)
      (node (ref U6) (pin 1))
      (node (ref P8) (pin 5))
      (node (ref C5) (pin 2))
      (node (ref C4) (pin 2))
      (node (ref R16) (pin 2))
      (node (ref C3) (pin 2))
      (node (ref P1) (pin 2))
      (node (ref C2) (pin 2))
      (node (ref C6) (pin 2))
      (node (ref U1) (pin 12))
      (node (ref U1) (pin 63))
      (node (ref U1) (pin 31))
      (node (ref U1) (pin 18))
      (node (ref U1) (pin 47))
      (node (ref C1) (pin 2))
      (node (ref U7) (pin 9))
      (node (ref R2) (pin 2))
      (node (ref C7) (pin 2))
      (node (ref C8) (pin 2))
      (node (ref C10) (pin 1))
      (node (ref U2) (pin 2))
      (node (ref U2) (pin 3))
      (node (ref U4) (pin 4))
      (node (ref U2) (pin 4))
      (node (ref U2) (pin 5))
      (node (ref P10) (pin 3))
      (node (ref P10) (pin 2))
      (node (ref P10) (pin 1))
      (node (ref U2) (pin 6))
      (node (ref U3) (pin 11))
      (node (ref U3) (pin 9))
      (node (ref C14) (pin 2))
      (node (ref U5) (pin 1))
      (node (ref P10) (pin 4))
      (node (ref P8) (pin 1))
      (node (ref P8) (pin 3))
      (node (ref C13) (pin 2))
      (node (ref U5) (pin 7))
      (node (ref U5) (pin 5))
      (node (ref C12) (pin 2))
      (node (ref C9) (pin 1))
      (node (ref microSD1) (pin 6))
      (node (ref P2) (pin 3))
      (node (ref P3) (pin 2))
      (node (ref microSD1) (pin 9)))
    (net (code 4) (name /MCU/JNTRST)
      (node (ref U1) (pin 56))
      (node (ref P2) (pin 5)))
    (net (code 5) (name /MCU/JTDO)
      (node (ref P2) (pin 6))
      (node (ref U1) (pin 55)))
    (net (code 6) (name /MCU/JTDI)
      (node (ref P2) (pin 7))
      (node (ref U1) (pin 50)))
    (net (code 7) (name /RF_NSS)
      (node (ref U3) (pin 15))
      (node (ref U1) (pin 26)))
    (net (code 8) (name /MCU/INEMO_SDA)
      (node (ref P5) (pin 2))
      (node (ref U1) (pin 59))
      (node (ref U2) (pin 24)))
    (net (code 9) (name /ESP8266/RF_RX)
      (node (ref U7) (pin 15))
      (node (ref P9) (pin 1))
      (node (ref U1) (pin 16)))
    (net (code 10) (name /ESP8266/ESP_EN)
      (node (ref Q5) (pin 3))
      (node (ref R14) (pin 1))
      (node (ref U1) (pin 4)))
    (net (code 11) (name /BME180/BME_SCK)
      (node (ref R9) (pin 1))
      (node (ref U1) (pin 29))
      (node (ref P7) (pin 2))
      (node (ref U5) (pin 4)))
    (net (code 12) (name /BME180/BME_SDA)
      (node (ref U5) (pin 3))
      (node (ref P7) (pin 1))
      (node (ref R8) (pin 1))
      (node (ref U1) (pin 30)))
    (net (code 13) (name /RF_SCK)
      (node (ref U3) (pin 12))
      (node (ref U1) (pin 21)))
    (net (code 14) (name /MCU/INEMO_SCK)
      (node (ref P5) (pin 1))
      (node (ref U1) (pin 58))
      (node (ref U2) (pin 21)))
    (net (code 15) (name /ESP8266/RF_TX)
      (node (ref U7) (pin 16))
      (node (ref P9) (pin 2))
      (node (ref U1) (pin 17)))
    (net (code 16) (name /MCU/INEMO_EN)
      (node (ref U1) (pin 3))
      (node (ref R10) (pin 1))
      (node (ref Q1) (pin 3)))
    (net (code 17) (name /BME180/BME_EN)
      (node (ref U1) (pin 34))
      (node (ref R13) (pin 2))
      (node (ref Q4) (pin 3)))
    (net (code 18) (name /GPS/GPS_EN)
      (node (ref R12) (pin 2))
      (node (ref U1) (pin 15))
      (node (ref Q3) (pin 3)))
    (net (code 19) (name /RF_EN)
      (node (ref R11) (pin 1))
      (node (ref Q2) (pin 3))
      (node (ref U1) (pin 20)))
    (net (code 20) (name /MCU/BATSENSE)
      (node (ref U1) (pin 14))
      (node (ref R16) (pin 1))
      (node (ref R15) (pin 2)))
    (net (code 21) (name /RFM69/ANT)
      (node (ref U3) (pin 10))
      (node (ref P3) (pin 1)))
    (net (code 22) (name /RF_MOSI)
      (node (ref U3) (pin 14))
      (node (ref U1) (pin 23)))
    (net (code 23) (name /RF_MISO)
      (node (ref U1) (pin 22))
      (node (ref U3) (pin 13)))
    (net (code 24) (name /RF_INT)
      (node (ref U1) (pin 27))
      (node (ref U3) (pin 2)))
    (net (code 25) (name /MCU/SWCLK)
      (node (ref U1) (pin 49))
      (node (ref P2) (pin 2)))
    (net (code 26) (name /GPS/GPS_TX)
      (node (ref U1) (pin 43))
      (node (ref P6) (pin 2))
      (node (ref U4) (pin 3)))
    (net (code 27) (name /GPS/GPS_RX)
      (node (ref P6) (pin 1))
      (node (ref U1) (pin 42))
      (node (ref U4) (pin 2)))
    (net (code 28) (name /MCU/SD_DAT3)
      (node (ref microSD1) (pin 2))
      (node (ref R3) (pin 1))
      (node (ref U1) (pin 52)))
    (net (code 29) (name /MCU/SD_CLK)
      (node (ref microSD1) (pin 5))
      (node (ref U1) (pin 53)))
    (net (code 30) (name /MCU/SD_CMD)
      (node (ref R4) (pin 1))
      (node (ref microSD1) (pin 3))
      (node (ref U1) (pin 54)))
    (net (code 31) (name "Net-(U1-Pad36)")
      (node (ref U1) (pin 36)))
    (net (code 32) (name "Net-(U1-Pad35)")
      (node (ref U1) (pin 35)))
    (net (code 33) (name "Net-(U1-Pad33)")
      (node (ref U1) (pin 33)))
    (net (code 34) (name "Net-(U1-Pad62)")
      (node (ref U1) (pin 62)))
    (net (code 35) (name "Net-(U1-Pad61)")
      (node (ref U1) (pin 61)))
    (net (code 36) (name "Net-(U1-Pad57)")
      (node (ref U1) (pin 57)))
    (net (code 37) (name "Net-(U1-Pad28)")
      (node (ref U1) (pin 28)))
    (net (code 38) (name "Net-(U1-Pad45)")
      (node (ref U1) (pin 45)))
    (net (code 39) (name /MCU/SD_DAT2)
      (node (ref U1) (pin 51))
      (node (ref microSD1) (pin 1))
      (node (ref R1) (pin 1)))
    (net (code 40) (name "Net-(P4-Pad1)")
      (node (ref P4) (pin 1))
      (node (ref U1) (pin 6)))
    (net (code 41) (name "Net-(P4-Pad2)")
      (node (ref P4) (pin 2))
      (node (ref U1) (pin 5)))
    (net (code 42) (name "Net-(U1-Pad44)")
      (node (ref U1) (pin 44)))
    (net (code 43) (name /MCU/SD_DAT1)
      (node (ref U1) (pin 40))
      (node (ref microSD1) (pin 8))
      (node (ref R6) (pin 1)))
    (net (code 44) (name /MCU/SD_DAT0)
      (node (ref R5) (pin 1))
      (node (ref microSD1) (pin 7))
      (node (ref U1) (pin 39)))
    (net (code 45) (name "Net-(U1-Pad9)")
      (node (ref U1) (pin 9)))
    (net (code 46) (name "Net-(U1-Pad41)")
      (node (ref U1) (pin 41)))
    (net (code 47) (name "Net-(U1-Pad8)")
      (node (ref U1) (pin 8)))
    (net (code 48) (name "Net-(U1-Pad10)")
      (node (ref U1) (pin 10)))
    (net (code 49) (name "Net-(U1-Pad11)")
      (node (ref U1) (pin 11)))
    (net (code 50) (name "Net-(U1-Pad24)")
      (node (ref U1) (pin 24)))
    (net (code 51) (name "Net-(U1-Pad25)")
      (node (ref U1) (pin 25)))
    (net (code 52) (name "Net-(U1-Pad37)")
      (node (ref U1) (pin 37)))
    (net (code 53) (name "Net-(U1-Pad38)")
      (node (ref U1) (pin 38)))
    (net (code 54) (name "Net-(U1-Pad2)")
      (node (ref U1) (pin 2)))
    (net (code 55) (name "Net-(U1-Pad1)")
      (node (ref U1) (pin 1)))
    (net (code 56) (name "Net-(R2-Pad1)")
      (node (ref R2) (pin 1))
      (node (ref U1) (pin 60)))
    (net (code 57) (name "Net-(C1-Pad1)")
      (node (ref R7) (pin 2))
      (node (ref U1) (pin 7))
      (node (ref C1) (pin 1)))
    (net (code 58) (name "Net-(U2-Pad10)")
      (node (ref U2) (pin 10))
      (node (ref U2) (pin 20))
      (node (ref U2) (pin 19))
      (node (ref U2) (pin 18)))
    (net (code 59) (name "Net-(U2-Pad22)")
      (node (ref U2) (pin 22)))
    (net (code 60) (name "Net-(U2-Pad23)")
      (node (ref U2) (pin 23)))
    (net (code 61) (name "Net-(U2-Pad12)")
      (node (ref U2) (pin 12)))
    (net (code 62) (name "Net-(U2-Pad11)")
      (node (ref U2) (pin 11)))
    (net (code 63) (name "Net-(U2-Pad14)")
      (node (ref U2) (pin 14)))
    (net (code 64) (name "Net-(U2-Pad13)")
      (node (ref U2) (pin 13)))
    (net (code 65) (name "Net-(U2-Pad1)")
      (node (ref U2) (pin 1)))
    (net (code 66) (name "Net-(C12-Pad1)")
      (node (ref U2) (pin 7))
      (node (ref C12) (pin 1)))
    (net (code 67) (name "Net-(C11-Pad1)")
      (node (ref U2) (pin 8))
      (node (ref C11) (pin 1)))
    (net (code 68) (name "Net-(C11-Pad2)")
      (node (ref C11) (pin 2))
      (node (ref U2) (pin 9)))
    (net (code 69) (name "Net-(C10-Pad2)")
      (node (ref U2) (pin 16))
      (node (ref U2) (pin 17))
      (node (ref Q1) (pin 1))
      (node (ref Q1) (pin 2))
      (node (ref Q1) (pin 5))
      (node (ref Q1) (pin 6))
      (node (ref C10) (pin 2))
      (node (ref C9) (pin 2))
      (node (ref U2) (pin 15)))
    (net (code 70) (name "Net-(U3-Pad7)")
      (node (ref U3) (pin 7)))
    (net (code 71) (name "Net-(U3-Pad6)")
      (node (ref U3) (pin 6)))
    (net (code 72) (name "Net-(U3-Pad5)")
      (node (ref U3) (pin 5)))
    (net (code 73) (name "Net-(U3-Pad4)")
      (node (ref U3) (pin 4)))
    (net (code 74) (name "Net-(U3-Pad3)")
      (node (ref U3) (pin 3)))
    (net (code 75) (name "Net-(U3-Pad1)")
      (node (ref U3) (pin 1)))
    (net (code 76) (name "Net-(U3-Pad16)")
      (node (ref U3) (pin 16)))
    (net (code 77) (name "Net-(Q2-Pad1)")
      (node (ref Q2) (pin 6))
      (node (ref Q2) (pin 2))
      (node (ref Q2) (pin 1))
      (node (ref Q2) (pin 5))
      (node (ref U3) (pin 8)))
    (net (code 78) (name "Net-(Q3-Pad1)")
      (node (ref Q3) (pin 5))
      (node (ref Q3) (pin 6))
      (node (ref U4) (pin 1))
      (node (ref Q3) (pin 1))
      (node (ref Q3) (pin 2)))
    (net (code 79) (name "Net-(C13-Pad1)")
      (node (ref Q4) (pin 6))
      (node (ref R9) (pin 2))
      (node (ref Q4) (pin 5))
      (node (ref Q4) (pin 2))
      (node (ref Q4) (pin 1))
      (node (ref U5) (pin 2))
      (node (ref R8) (pin 2))
      (node (ref U5) (pin 8))
      (node (ref U5) (pin 6))
      (node (ref C14) (pin 1))
      (node (ref C13) (pin 1)))
    (net (code 80) (name "Net-(P1-Pad1)")
      (node (ref P1) (pin 1))
      (node (ref U6) (pin 3))
      (node (ref R15) (pin 1)))
    (net (code 81) (name "Net-(P9-Pad4)")
      (node (ref R17) (pin 2))
      (node (ref P9) (pin 4))
      (node (ref U7) (pin 3)))
    (net (code 82) (name "Net-(P9-Pad3)")
      (node (ref U7) (pin 1))
      (node (ref P9) (pin 3))
      (node (ref R18) (pin 2)))
    (net (code 83) (name "Net-(U7-Pad14)")
      (node (ref U7) (pin 14)))
    (net (code 84) (name "Net-(U7-Pad13)")
      (node (ref U7) (pin 13)))
    (net (code 85) (name "Net-(U7-Pad12)")
      (node (ref U7) (pin 12)))
    (net (code 86) (name "Net-(U7-Pad11)")
      (node (ref U7) (pin 11)))
    (net (code 87) (name "Net-(U7-Pad10)")
      (node (ref U7) (pin 10)))
    (net (code 88) (name "Net-(U7-Pad7)")
      (node (ref U7) (pin 7)))
    (net (code 89) (name "Net-(Q5-Pad1)")
      (node (ref Q5) (pin 1))
      (node (ref U7) (pin 8))
      (node (ref Q5) (pin 5))
      (node (ref Q5) (pin 2))
      (node (ref Q5) (pin 6)))
    (net (code 90) (name "Net-(U7-Pad6)")
      (node (ref U7) (pin 6)))
    (net (code 91) (name "Net-(U7-Pad5)")
      (node (ref U7) (pin 5)))
    (net (code 92) (name "Net-(U7-Pad4)")
      (node (ref U7) (pin 4)))
    (net (code 93) (name "Net-(U7-Pad2)")
      (node (ref U7) (pin 2)))))