EESchema Schematic File Version 2
LIBS:hpr-telem-board-rescue
LIBS:power
LIBS:device
LIBS:transistors
LIBS:conn
LIBS:linear
LIBS:regul
LIBS:74xx
LIBS:cmos4000
LIBS:adc-dac
LIBS:memory
LIBS:xilinx
LIBS:microcontrollers
LIBS:dsp
LIBS:microchip
LIBS:analog_switches
LIBS:motorola
LIBS:texas
LIBS:intel
LIBS:audio
LIBS:interface
LIBS:digital-audio
LIBS:philips
LIBS:display
LIBS:cypress
LIBS:siliconi
LIBS:opto
LIBS:atmel
LIBS:contrib
LIBS:valves
LIBS:stm32
LIBS:w_analog
LIBS:sprk_rfm69hcw
LIBS:gy-gps6mv2
LIBS:ESP8266
LIBS:bme280
LIBS:si1401edh
LIBS:hpr-telem-board-cache
EELAYER 25 0
EELAYER END
$Descr A4 11693 8268
encoding utf-8
Sheet 1 8
Title "HPR Telemetry Module"
Date "2017-03-07"
Rev "0.1"
Comp "Libre Space Foundation"
Comment1 ""
Comment2 ""
Comment3 ""
Comment4 ""
$EndDescr
$Sheet
S 6250 3450 1300 2000
U 58B828BA
F0 "MCU" 60
F1 "mcu.sch" 60
F2 "3V3" I L 6250 3600 60 
F3 "VDDA" I L 6250 3750 60 
F4 "SWDIO" I R 7550 3700 60 
F5 "SWCLK" I R 7550 3600 60 
F6 "JTDI" I R 7550 4000 60 
F7 "JTDO" I R 7550 3900 60 
F8 "JNTRST" I R 7550 3800 60 
F9 "RF_INT" I L 6250 5300 60 
F10 "GPS_TX" O L 6250 3900 60 
F11 "GPS_RX" I L 6250 4000 60 
F12 "RF_MOSI" O L 6250 5100 60 
F13 "RF_MISO" I L 6250 5200 60 
F14 "RF_SCK" O L 6250 5000 60 
F15 "BME_SCK" O L 6250 4200 60 
F16 "BME_SDA" B L 6250 4300 60 
F17 "RF_NSS" O L 6250 4900 60 
F18 "RF_ΤΧ" I R 7550 5150 60 
F19 "RF_RX" O R 7550 5250 60 
F20 "INEMO_SDA" B L 6250 4550 60 
F21 "INEMO_SCK" O L 6250 4650 60 
F22 "BME_EN" O L 6250 4400 60 
F23 "RF_EN" O L 6250 5400 60 
F24 "INEMO_EN" O L 6250 4750 60 
F25 "ESP_EN" O R 7550 5350 60 
F26 "GPS_EN" O L 6250 4100 60 
F27 "BATSENSE" I R 7550 4400 60 
$EndSheet
$Sheet
S 3150 4150 1250 1250
U 58BF1D3D
F0 "iNemo" 60
F1 "inemo.sch" 60
F2 "VDD" I L 3150 4250 60 
F3 "INEMO_SCL" I R 4400 4650 60 
F4 "INEMO_SDA" B R 4400 4550 60 
F5 "INEMO_EN" I R 4400 4750 60 
$EndSheet
$Sheet
S 3300 5850 1100 1250
U 58BF29C2
F0 "RFM69" 60
F1 "rfm69.sch" 60
F2 "ANT" O L 3300 6900 60 
F3 "VDD" I L 3300 6000 60 
F4 "RF_MISO" O R 4400 6650 60 
F5 "RF_MOSI" I R 4400 6500 60 
F6 "RF_SCK" I R 4400 6350 60 
F7 "RF_NSS" B R 4400 6200 60 
F8 "RF_INT" O R 4400 6800 60 
F9 "RF_EN" I R 4400 6950 60 
$EndSheet
$Sheet
S 3350 1100 1050 1250
U 58BF43D1
F0 "GPS" 60
F1 "gps.sch" 60
F2 "VCC" I L 3350 1250 60 
F3 "GND" I R 4400 2050 60 
F4 "GPS_RX" I R 4400 1600 60 
F5 "GPS_TX" O R 4400 1500 60 
F6 "GPS_EN" I R 4400 1700 60 
$EndSheet
$Sheet
S 3350 2650 1050 1200
U 58BF82E0
F0 "BME180" 60
F1 "BME180.sch" 60
F2 "VDD" I L 3350 2750 60 
F3 "VDDIO" I L 3350 2850 60 
F4 "BME_SCK" I R 4400 3100 60 
F5 "BME_SDA" B R 4400 3200 60 
F6 "BME_EN" I R 4400 3300 60 
$EndSheet
Text GLabel 3150 1250 0    60   Input ~ 0
VDD
Text GLabel 3100 2750 0    60   Input ~ 0
VDD
Text GLabel 3200 6000 0    60   Input ~ 0
VDD
Text GLabel 3050 4250 0    60   Input ~ 0
VDD
Text GLabel 6000 3600 0    60   Input ~ 0
VDD
$Comp
L GND #PWR01
U 1 1 58C0293C
P 4600 2050
F 0 "#PWR01" H 4600 1800 50  0001 C CNN
F 1 "GND" H 4600 1900 50  0000 C CNN
F 2 "" H 4600 2050 50  0000 C CNN
F 3 "" H 4600 2050 50  0000 C CNN
	1    4600 2050
	0    -1   -1   0   
$EndComp
Wire Wire Line
	3300 6000 3200 6000
Wire Wire Line
	3050 4250 3150 4250
Wire Wire Line
	6000 3600 6250 3600
Wire Wire Line
	6100 3600 6100 3750
Wire Wire Line
	6100 3750 6250 3750
Connection ~ 6100 3600
Wire Wire Line
	3100 2750 3350 2750
Wire Wire Line
	3350 2850 3200 2850
Wire Wire Line
	3200 2850 3200 2750
Connection ~ 3200 2750
Wire Wire Line
	4400 1600 5400 1600
Wire Wire Line
	5400 1600 5400 4000
Wire Wire Line
	5400 4000 6250 4000
Wire Wire Line
	6250 3900 5500 3900
Wire Wire Line
	5500 3900 5500 1500
Wire Wire Line
	5500 1500 4400 1500
$Sheet
S 8200 1450 1100 1000
U 58C1EFFA
F0 "Power Management" 60
F1 "PowerManagement.sch" 60
F2 "VDD" I R 9300 1600 60 
F3 "GND" I R 9300 1800 60 
F4 "BATSENSE" I L 8200 2300 60 
$EndSheet
$Comp
L GND #PWR02
U 1 1 58C2237B
P 9400 1850
F 0 "#PWR02" H 9400 1600 50  0001 C CNN
F 1 "GND" H 9400 1700 50  0000 C CNN
F 2 "" H 9400 1850 50  0000 C CNN
F 3 "" H 9400 1850 50  0000 C CNN
	1    9400 1850
	1    0    0    -1  
$EndComp
Text GLabel 9400 1600 2    60   Input ~ 0
VDD
Wire Wire Line
	9300 1600 9400 1600
Wire Wire Line
	9300 1800 9400 1800
Wire Wire Line
	9400 1800 9400 1850
$Sheet
S 8350 4500 900  950 
U 58C23733
F0 "ESP8266" 60
F1 "ESP8266.sch" 60
F2 "RF_TX" O L 8350 5150 60 
F3 "RF_RX" I L 8350 5250 60 
F4 "ESP_EN" I L 8350 5350 60 
$EndSheet
Wire Wire Line
	3150 1250 3350 1250
Wire Wire Line
	6250 4200 5100 4200
Wire Wire Line
	5100 4200 5100 3100
Wire Wire Line
	5100 3100 4400 3100
Wire Wire Line
	4400 3200 5000 3200
Wire Wire Line
	5000 3200 5000 4300
Wire Wire Line
	5000 4300 6250 4300
Wire Wire Line
	4400 4550 6250 4550
Wire Wire Line
	4400 4650 6250 4650
Wire Wire Line
	7550 5150 8350 5150
Wire Wire Line
	7550 5250 8350 5250
Wire Bus Line
	4950 5500 4950 7050
Wire Bus Line
	5700 4800 5700 5500
Entry Wire Line
	4850 6200 4950 6300
Entry Wire Line
	4850 6350 4950 6450
Entry Wire Line
	4850 6500 4950 6600
Entry Wire Line
	4850 6650 4950 6750
Wire Wire Line
	4400 6200 4850 6200
Wire Wire Line
	4400 6350 4850 6350
Wire Wire Line
	4400 6500 4850 6500
Wire Wire Line
	4400 6650 4850 6650
Entry Wire Line
	5700 4800 5800 4900
Entry Wire Line
	5700 4900 5800 5000
Entry Wire Line
	5700 5000 5800 5100
Entry Wire Line
	5700 5100 5800 5200
Entry Wire Line
	5700 5200 5800 5300
Entry Wire Line
	4850 6800 4950 6900
Wire Wire Line
	4400 6800 4850 6800
Wire Wire Line
	4400 2050 4600 2050
Text GLabel 8000 3400 0    60   Input ~ 0
VDD
Wire Wire Line
	8000 3400 8200 3400
$Comp
L GND #PWR03
U 1 1 58C22D97
P 8100 4150
F 0 "#PWR03" H 8100 3900 50  0001 C CNN
F 1 "GND" H 8100 4000 50  0000 C CNN
F 2 "" H 8100 4150 50  0000 C CNN
F 3 "" H 8100 4150 50  0000 C CNN
	1    8100 4150
	1    0    0    -1  
$EndComp
Wire Wire Line
	8100 4150 8100 3600
Wire Wire Line
	8100 3600 8200 3600
$Comp
L CONN_01X07 P2
U 1 1 58C2324C
P 8400 3700
F 0 "P2" H 8400 4100 50  0000 C CNN
F 1 "CONN_01X07" V 8500 3700 50  0000 C CNN
F 2 "Connectors_JST:JST_PH_B7B-PH-K_07x2.00mm_Straight" H 8400 3700 50  0001 C CNN
F 3 "" H 8400 3700 50  0000 C CNN
	1    8400 3700
	1    0    0    -1  
$EndComp
Wire Wire Line
	5800 4900 6250 4900
Wire Wire Line
	5800 5000 6250 5000
Wire Wire Line
	5800 5100 6250 5100
Wire Wire Line
	5800 5200 6250 5200
Wire Wire Line
	5800 5300 6250 5300
Text Label 5850 4900 0    60   ~ 0
RF_NSS
Text Label 5850 5000 0    60   ~ 0
RF_SCK
Text Label 5850 5100 0    60   ~ 0
RF_MOSI
Text Label 5850 5200 0    60   ~ 0
RF_MISO
Text Label 5850 5300 0    60   ~ 0
RF_INT
Wire Bus Line
	5700 5500 4950 5500
Text Label 4450 6200 0    60   ~ 0
RF_NSS
Text Label 4450 6350 0    60   ~ 0
RF_SCK
Text Label 4450 6500 0    60   ~ 0
RF_MOSI
Text Label 4450 6650 0    60   ~ 0
RF_MISO
Text Label 4450 6800 0    60   ~ 0
RF_INT
$Comp
L CONN_COAXIAL P3
U 1 1 58C2A317
P 2900 6900
F 0 "P3" H 2900 7000 50  0000 C CNN
F 1 "SMA" V 3000 6900 50  0000 C CNN
F 2 "w_conn_rf:sma_straight_32k101-400l5" H 2900 6900 50  0001 C CNN
F 3 "" H 2900 6900 50  0000 C CNN
	1    2900 6900
	-1   0    0    -1  
$EndComp
Wire Wire Line
	3050 6900 3300 6900
Wire Wire Line
	7550 3600 8000 3600
Wire Wire Line
	8000 3600 8000 3500
Wire Wire Line
	8000 3500 8200 3500
Wire Wire Line
	7550 3700 8200 3700
Wire Wire Line
	7550 3800 8200 3800
Wire Wire Line
	7550 3900 8200 3900
Wire Wire Line
	7550 4000 8200 4000
$Comp
L GND #PWR04
U 1 1 58C5A7EF
P 2900 7100
F 0 "#PWR04" H 2950 7150 50  0001 C CNN
F 1 "GND" H 2905 6927 50  0000 C CNN
F 2 "" H 0   0   50  0001 C CNN
F 3 "" H 0   0   50  0001 C CNN
	1    2900 7100
	1    0    0    -1  
$EndComp
Wire Wire Line
	7550 5350 8350 5350
Wire Wire Line
	4400 4750 6250 4750
Wire Wire Line
	4400 3300 4900 3300
Wire Wire Line
	4900 3300 4900 4400
Wire Wire Line
	4900 4400 6250 4400
Wire Wire Line
	6250 4100 5300 4100
Wire Wire Line
	5300 4100 5300 1700
Wire Wire Line
	5300 1700 4400 1700
Entry Wire Line
	5700 5300 5800 5400
Entry Wire Line
	4850 6950 4950 7050
Wire Wire Line
	5800 5400 6250 5400
Wire Wire Line
	4400 6950 4850 6950
Text Label 5850 5400 0    60   ~ 0
RF_EN
Text Label 4450 6950 0    60   ~ 0
RF_EN
Wire Wire Line
	7550 4400 8750 4400
Wire Wire Line
	8750 4400 8750 2750
Wire Wire Line
	8750 2750 7850 2750
Wire Wire Line
	7850 2750 7850 2300
Wire Wire Line
	7850 2300 8200 2300
$EndSCHEMATC
