EESchema Schematic File Version 2
LIBS:hpr-telem-board-rescue
LIBS:power
LIBS:device
LIBS:transistors
LIBS:conn
LIBS:linear
LIBS:regul
LIBS:74xx
LIBS:cmos4000
LIBS:adc-dac
LIBS:memory
LIBS:xilinx
LIBS:microcontrollers
LIBS:dsp
LIBS:microchip
LIBS:analog_switches
LIBS:motorola
LIBS:texas
LIBS:intel
LIBS:audio
LIBS:interface
LIBS:digital-audio
LIBS:philips
LIBS:display
LIBS:cypress
LIBS:siliconi
LIBS:opto
LIBS:atmel
LIBS:contrib
LIBS:valves
LIBS:stm32
LIBS:w_analog
LIBS:sprk_rfm69hcw
LIBS:gy-gps6mv2
LIBS:ESP8266
LIBS:bme280
LIBS:si1401edh
LIBS:hpr-telem-board-cache
EELAYER 25 0
EELAYER END
$Descr A3 16535 11693
encoding utf-8
Sheet 2 8
Title "HPR Telemetry Module"
Date "2017-03-07"
Rev "0.1"
Comp "Libre Space Foundation"
Comment1 ""
Comment2 ""
Comment3 ""
Comment4 ""
$EndDescr
$Comp
L STM32L162RDTx U1
U 1 1 58B829B5
P 8200 5150
F 0 "U1" H 4000 7075 50  0000 L BNN
F 1 "STM32L162RDTx" H 12400 7075 50  0000 R BNN
F 2 "Housings_QFP:LQFP-64_10x10mm_Pitch0.5mm" H 12400 7025 50  0000 R TNN
F 3 "" H 8200 5150 50  0000 C CNN
	1    8200 5150
	1    0    0    -1  
$EndComp
$Comp
L GND #PWR05
U 1 1 58B82B19
P 8000 7400
F 0 "#PWR05" H 8000 7150 50  0001 C CNN
F 1 "GND" H 8000 7250 50  0000 C CNN
F 2 "" H 8000 7400 50  0000 C CNN
F 3 "" H 8000 7400 50  0000 C CNN
	1    8000 7400
	1    0    0    -1  
$EndComp
Wire Wire Line
	8000 7150 8000 7400
Wire Wire Line
	8100 7150 8100 7250
Wire Wire Line
	8000 7250 8400 7250
Connection ~ 8000 7250
Wire Wire Line
	8200 7250 8200 7150
Connection ~ 8100 7250
Wire Wire Line
	8300 7250 8300 7150
Connection ~ 8200 7250
$Comp
L C C5
U 1 1 58B82BBF
P 7450 2600
F 0 "C5" H 7475 2700 50  0000 L CNN
F 1 "100n" H 7475 2500 50  0000 L CNN
F 2 "Capacitors_SMD:C_0603_HandSoldering" H 7488 2450 50  0001 C CNN
F 3 "" H 7450 2600 50  0000 C CNN
	1    7450 2600
	1    0    0    -1  
$EndComp
$Comp
L C C4
U 1 1 58B82C08
P 7200 2600
F 0 "C4" H 7225 2700 50  0000 L CNN
F 1 "100n" H 7225 2500 50  0000 L CNN
F 2 "Capacitors_SMD:C_0603_HandSoldering" H 7238 2450 50  0001 C CNN
F 3 "" H 7200 2600 50  0000 C CNN
	1    7200 2600
	1    0    0    -1  
$EndComp
$Comp
L C C3
U 1 1 58B82C54
P 6950 2600
F 0 "C3" H 6975 2700 50  0000 L CNN
F 1 "100n" H 6975 2500 50  0000 L CNN
F 2 "Capacitors_SMD:C_0603_HandSoldering" H 6988 2450 50  0001 C CNN
F 3 "" H 6950 2600 50  0000 C CNN
	1    6950 2600
	1    0    0    -1  
$EndComp
$Comp
L C C2
U 1 1 58B82CD1
P 6700 2600
F 0 "C2" H 6725 2700 50  0000 L CNN
F 1 "100n" H 6725 2500 50  0000 L CNN
F 2 "Capacitors_SMD:C_0603_HandSoldering" H 6738 2450 50  0001 C CNN
F 3 "" H 6700 2600 50  0000 C CNN
	1    6700 2600
	1    0    0    -1  
$EndComp
Text HLabel 8200 2150 1    60   Input ~ 0
3V3
$Comp
L C C6
U 1 1 58B83779
P 7950 2600
F 0 "C6" H 7975 2700 50  0000 L CNN
F 1 "4.7u" H 7975 2500 50  0000 L CNN
F 2 "Capacitors_SMD:C_0603_HandSoldering" H 7988 2450 50  0001 C CNN
F 3 "" H 7950 2600 50  0000 C CNN
	1    7950 2600
	1    0    0    -1  
$EndComp
Wire Wire Line
	8200 2150 8200 3150
Wire Wire Line
	7950 2350 7950 2450
Wire Wire Line
	6700 2350 8200 2350
Connection ~ 8200 2350
Wire Wire Line
	6700 2450 6700 2350
Connection ~ 7950 2350
Wire Wire Line
	6950 2450 6950 2350
Connection ~ 6950 2350
Wire Wire Line
	7200 2450 7200 2350
Connection ~ 7200 2350
Wire Wire Line
	7450 2450 7450 2350
Connection ~ 7450 2350
Wire Wire Line
	8000 3150 8000 3000
Wire Wire Line
	8000 3000 8300 3000
Connection ~ 8200 3000
Wire Wire Line
	8100 3150 8100 3000
Connection ~ 8100 3000
Wire Wire Line
	8300 3000 8300 3150
$Comp
L GND #PWR06
U 1 1 58B83167
P 6700 3000
F 0 "#PWR06" H 6700 2750 50  0001 C CNN
F 1 "GND" H 6700 2850 50  0000 C CNN
F 2 "" H 6700 3000 50  0000 C CNN
F 3 "" H 6700 3000 50  0000 C CNN
	1    6700 3000
	1    0    0    -1  
$EndComp
Wire Wire Line
	6700 2750 6700 3000
Wire Wire Line
	6700 2900 7950 2900
Wire Wire Line
	6950 2900 6950 2750
Connection ~ 6700 2900
Wire Wire Line
	7200 2900 7200 2750
Connection ~ 6950 2900
Wire Wire Line
	7450 2900 7450 2750
Connection ~ 7200 2900
Wire Wire Line
	7950 2900 7950 2750
Connection ~ 7450 2900
$Comp
L C C7
U 1 1 58B83286
P 8600 2600
F 0 "C7" H 8625 2700 50  0000 L CNN
F 1 "100n" H 8625 2500 50  0000 L CNN
F 2 "Capacitors_SMD:C_0603_HandSoldering" H 8638 2450 50  0001 C CNN
F 3 "" H 8600 2600 50  0000 C CNN
	1    8600 2600
	1    0    0    -1  
$EndComp
$Comp
L C C8
U 1 1 58B832BC
P 8950 2600
F 0 "C8" H 8975 2700 50  0000 L CNN
F 1 "1u" H 8975 2500 50  0000 L CNN
F 2 "Capacitors_SMD:C_0603_HandSoldering" H 8988 2450 50  0001 C CNN
F 3 "" H 8950 2600 50  0000 C CNN
	1    8950 2600
	1    0    0    -1  
$EndComp
Wire Wire Line
	8400 2150 8400 3150
Wire Wire Line
	8400 2350 8950 2350
Wire Wire Line
	8600 2350 8600 2450
Connection ~ 8400 2350
Wire Wire Line
	8950 2350 8950 2450
Connection ~ 8600 2350
$Comp
L GND #PWR07
U 1 1 58B833E4
P 8950 3000
F 0 "#PWR07" H 8950 2750 50  0001 C CNN
F 1 "GND" H 8950 2850 50  0000 C CNN
F 2 "" H 8950 3000 50  0000 C CNN
F 3 "" H 8950 3000 50  0000 C CNN
	1    8950 3000
	1    0    0    -1  
$EndComp
Wire Wire Line
	8600 2750 8600 2900
Wire Wire Line
	8600 2900 8950 2900
Wire Wire Line
	8950 2750 8950 3000
Connection ~ 8950 2900
Text HLabel 8400 2150 1    60   Input ~ 0
VDDA
Wire Wire Line
	8400 7250 8400 7150
Connection ~ 8300 7250
$Comp
L C C1
U 1 1 58B8378B
P 3600 3550
F 0 "C1" H 3625 3650 50  0000 L CNN
F 1 "0.1u" H 3625 3450 50  0000 L CNN
F 2 "Capacitors_SMD:C_0603_HandSoldering" H 3638 3400 50  0001 C CNN
F 3 "" H 3600 3550 50  0000 C CNN
	1    3600 3550
	0    1    1    0   
$EndComp
$Comp
L GND #PWR08
U 1 1 58B83820
P 2850 3750
F 0 "#PWR08" H 2850 3500 50  0001 C CNN
F 1 "GND" H 2850 3600 50  0000 C CNN
F 2 "" H 2850 3750 50  0000 C CNN
F 3 "" H 2850 3750 50  0000 C CNN
	1    2850 3750
	1    0    0    -1  
$EndComp
Wire Wire Line
	3750 3550 3900 3550
Wire Wire Line
	2850 3550 3450 3550
$Comp
L R R2
U 1 1 58B83ADA
P 3250 3750
F 0 "R2" V 3330 3750 50  0000 C CNN
F 1 "10K" V 3250 3750 50  0000 C CNN
F 2 "Resistors_SMD:R_0603_HandSoldering" V 3180 3750 50  0001 C CNN
F 3 "" H 3250 3750 50  0000 C CNN
	1    3250 3750
	0    1    1    0   
$EndComp
Wire Wire Line
	2850 3750 2850 3550
Wire Wire Line
	3100 3750 2850 3750
Wire Wire Line
	3400 3750 3900 3750
Wire Wire Line
	3800 3250 3800 3550
Connection ~ 3800 3550
$Comp
L R R7
U 1 1 58B83FEA
P 3800 3100
F 0 "R7" V 3880 3100 50  0000 C CNN
F 1 "10K" V 3800 3100 50  0000 C CNN
F 2 "Resistors_SMD:R_0603_HandSoldering" V 3730 3100 50  0001 C CNN
F 3 "" H 3800 3100 50  0000 C CNN
	1    3800 3100
	1    0    0    -1  
$EndComp
Text HLabel 3800 2800 1    60   Input ~ 0
3V3
Wire Wire Line
	3800 2950 3800 2800
Text HLabel 12650 4850 2    60   Input ~ 0
SWDIO
Text HLabel 12650 4950 2    60   Input ~ 0
SWCLK
Text HLabel 12650 5050 2    60   Input ~ 0
JTDI
Text HLabel 12650 5550 2    60   Output ~ 0
JTDO
Text HLabel 12650 5650 2    60   Input ~ 0
JNTRST
Wire Wire Line
	12500 4850 12650 4850
Wire Wire Line
	12500 4950 12650 4950
Wire Wire Line
	12500 5050 12650 5050
Wire Wire Line
	12500 5550 12650 5550
Wire Wire Line
	12500 5650 12650 5650
$Comp
L Micro_SD_Card microSD1
U 1 1 58BF9704
P 1550 5750
F 0 "microSD1" H 900 6350 50  0000 C CNN
F 1 "Micro_SD_Card" H 2200 6350 50  0000 R CNN
F 2 "libs:hrs-dm3cs" H 2700 6050 50  0001 C CNN
F 3 "" H 1550 5750 50  0000 C CNN
	1    1550 5750
	-1   0    0    1   
$EndComp
Wire Wire Line
	750  4800 750  5150
Text HLabel 2600 7250 3    60   Input ~ 0
3V3
Wire Wire Line
	2450 5750 2600 5750
$Comp
L GND #PWR09
U 1 1 58BF9944
P 750 4800
F 0 "#PWR09" H 750 4550 50  0001 C CNN
F 1 "GND" H 750 4650 50  0000 C CNN
F 2 "" H 750 4800 50  0000 C CNN
F 3 "" H 750 4800 50  0000 C CNN
	1    750  4800
	-1   0    0    1   
$EndComp
Wire Wire Line
	2900 6050 3900 6050
Wire Wire Line
	2900 6050 2900 5450
Wire Wire Line
	2900 5450 2450 5450
Wire Wire Line
	3000 6150 3900 6150
Wire Wire Line
	3000 6150 3000 5350
Wire Wire Line
	3000 5350 2450 5350
Wire Wire Line
	2450 5550 2500 5550
Wire Wire Line
	2500 5550 2500 5000
Wire Wire Line
	2500 5000 750  5000
Connection ~ 750  5000
Wire Wire Line
	2450 6050 2800 6050
Wire Wire Line
	2800 6050 2800 6650
Wire Wire Line
	2800 6250 3900 6250
Wire Wire Line
	2700 6350 3900 6350
Wire Wire Line
	2700 6350 2700 5950
Wire Wire Line
	2700 5950 2450 5950
Wire Wire Line
	2500 6450 3900 6450
Wire Wire Line
	2500 6450 2500 5650
Wire Wire Line
	2500 5650 2450 5650
Wire Wire Line
	3100 5050 3900 5050
Wire Wire Line
	3100 5050 3100 6650
Wire Wire Line
	3100 5850 2450 5850
Wire Wire Line
	2600 5750 2600 7250
$Comp
L R R1
U 1 1 58BF9F8A
P 2800 6800
F 0 "R1" V 2880 6800 50  0000 C CNN
F 1 "10k" V 2800 6800 50  0000 C CNN
F 2 "Resistors_SMD:R_0603_HandSoldering" V 2730 6800 50  0001 C CNN
F 3 "" H 2800 6800 50  0000 C CNN
	1    2800 6800
	1    0    0    -1  
$EndComp
$Comp
L R R3
U 1 1 58BF9FC3
P 2950 6800
F 0 "R3" V 3030 6800 50  0000 C CNN
F 1 "10k" V 2950 6800 50  0000 C CNN
F 2 "Resistors_SMD:R_0603_HandSoldering" V 2880 6800 50  0001 C CNN
F 3 "" H 2950 6800 50  0000 C CNN
	1    2950 6800
	1    0    0    -1  
$EndComp
$Comp
L R R4
U 1 1 58BF9FF4
P 3100 6800
F 0 "R4" V 3180 6800 50  0000 C CNN
F 1 "10k" V 3100 6800 50  0000 C CNN
F 2 "Resistors_SMD:R_0603_HandSoldering" V 3030 6800 50  0001 C CNN
F 3 "" H 3100 6800 50  0000 C CNN
	1    3100 6800
	1    0    0    -1  
$EndComp
$Comp
L R R5
U 1 1 58BFA027
P 3250 6800
F 0 "R5" V 3330 6800 50  0000 C CNN
F 1 "10k" V 3250 6800 50  0000 C CNN
F 2 "Resistors_SMD:R_0603_HandSoldering" V 3180 6800 50  0001 C CNN
F 3 "" H 3250 6800 50  0000 C CNN
	1    3250 6800
	1    0    0    -1  
$EndComp
$Comp
L R R6
U 1 1 58BFA449
P 3400 6800
F 0 "R6" V 3480 6800 50  0000 C CNN
F 1 "10k" V 3400 6800 50  0000 C CNN
F 2 "Resistors_SMD:R_0603_HandSoldering" V 3330 6800 50  0001 C CNN
F 3 "" H 3400 6800 50  0000 C CNN
	1    3400 6800
	1    0    0    -1  
$EndComp
Wire Wire Line
	2600 7050 3400 7050
Wire Wire Line
	2800 7050 2800 6950
Connection ~ 2600 7050
Wire Wire Line
	2950 7050 2950 6950
Connection ~ 2800 7050
Wire Wire Line
	3100 7050 3100 6950
Connection ~ 2950 7050
Wire Wire Line
	3250 7050 3250 6950
Connection ~ 3100 7050
Wire Wire Line
	3400 7050 3400 6950
Connection ~ 3250 7050
Connection ~ 2800 6250
Wire Wire Line
	2950 6650 2950 6350
Connection ~ 2950 6350
Connection ~ 3100 5850
Wire Wire Line
	3250 6650 3250 6050
Connection ~ 3250 6050
Wire Wire Line
	3400 6650 3400 6150
Connection ~ 3400 6150
Text HLabel 12650 4250 2    60   Output ~ 0
RF_MOSI
Text HLabel 12650 4150 2    60   Input ~ 0
RF_MISO
Text HLabel 12650 4050 2    60   Output ~ 0
RF_SCK
Wire Wire Line
	12500 4050 12650 4050
Wire Wire Line
	12650 4150 12500 4150
Wire Wire Line
	12500 4250 12650 4250
Text HLabel 12650 6250 2    60   Output ~ 0
BME_SCK
Text HLabel 12650 6350 2    60   BiDi ~ 0
BME_SDA
Text HLabel 12650 4550 2    60   Input ~ 0
GPS_TX
Text HLabel 12650 4450 2    60   Output ~ 0
GPS_RX
Text HLabel 12650 5250 2    60   Output ~ 0
RF_NSS
Wire Wire Line
	12650 5250 12500 5250
Text HLabel 12650 5350 2    60   Input ~ 0
RF_INT
Wire Wire Line
	12650 5350 12500 5350
Text HLabel 12650 3850 2    60   Input ~ 0
RF_ΤΧ
Text HLabel 12650 3750 2    60   Output ~ 0
RF_RX
NoConn ~ 3900 3950
NoConn ~ 3900 6550
NoConn ~ 3900 5950
NoConn ~ 3900 5850
NoConn ~ 3900 5750
NoConn ~ 3900 5650
NoConn ~ 3900 5550
NoConn ~ 3900 5450
NoConn ~ 3900 5350
NoConn ~ 3900 5250
Wire Wire Line
	12650 3750 12500 3750
Wire Wire Line
	12500 3850 12650 3850
Wire Wire Line
	12500 6250 12650 6250
Wire Wire Line
	12500 6350 12650 6350
Wire Wire Line
	12500 4450 12650 4450
Wire Wire Line
	12500 4550 12650 4550
NoConn ~ 12500 4350
NoConn ~ 12500 4650
NoConn ~ 12500 4750
NoConn ~ 12500 5450
NoConn ~ 12500 5750
NoConn ~ 12500 6050
NoConn ~ 12500 6150
NoConn ~ 12500 6450
NoConn ~ 12500 6650
NoConn ~ 12500 6750
Text HLabel 12650 5950 2    60   BiDi ~ 0
INEMO_SDA
Text HLabel 12650 5850 2    60   Output ~ 0
INEMO_SCK
Wire Wire Line
	12500 5850 12650 5850
Wire Wire Line
	12500 5950 12650 5950
Text Label 3150 5050 0    60   ~ 0
SD_CMD
Text Label 2550 5350 0    60   ~ 0
SD_DAT1
Text Label 2550 5450 0    60   ~ 0
SD_DAT0
Text Label 3150 6450 0    60   ~ 0
SD_CLK
Text Label 2100 5000 0    60   ~ 0
SD_VSS
Text Label 3150 6350 0    60   ~ 0
SD_DAT3
Text HLabel 12650 6550 2    60   Output ~ 0
BME_EN
Wire Wire Line
	12500 6550 12650 6550
Text HLabel 12650 3950 2    60   Output ~ 0
RF_EN
Wire Wire Line
	12500 3950 12650 3950
Text HLabel 3650 6900 3    60   Output ~ 0
INEMO_EN
Text HLabel 3800 6900 3    60   Output ~ 0
ESP_EN
Wire Wire Line
	3650 6900 3650 6650
Wire Wire Line
	3650 6650 3900 6650
Wire Wire Line
	3900 6750 3800 6750
Wire Wire Line
	3800 6750 3800 6900
Text HLabel 12650 3650 2    60   Output ~ 0
GPS_EN
Wire Wire Line
	12500 3650 12650 3650
Text HLabel 12650 3550 2    60   Input ~ 0
BATSENSE
Wire Wire Line
	12650 3550 12500 3550
$Comp
L CONN_01X02 P4
U 1 1 58CAF667
P 2950 4800
F 0 "P4" H 2950 4950 50  0000 C CNN
F 1 "CONN_01X02" V 3050 4800 50  0000 C CNN
F 2 "Pin_Headers:Pin_Header_Straight_1x02" H 2950 4800 50  0001 C CNN
F 3 "" H 2950 4800 50  0000 C CNN
	1    2950 4800
	-1   0    0    1   
$EndComp
Wire Wire Line
	3150 4750 3900 4750
Wire Wire Line
	3150 4850 3900 4850
Text Label 3150 6250 0    60   ~ 0
SD_DAT2
$EndSCHEMATC
