#VRML V2.0 utf8


Group {
  children 
    Group {
      children [ 
        Switch {
          whichChoice 0
          choice 
            Group {
              children [ 
                Switch {
                  whichChoice 0
                  choice 
                    Group {

                    }

                },
                  
                Switch {
                  whichChoice 0
                  choice 
                    Group {

                    }

                } ]

            }

        },
          
        Group {
          children 
            Transform {
              translation -12.5 -12.5 2
              rotation 0 0 1  0
              scale 1 1 1
              scaleOrientation 0 0 1  0
              center 0 0 0
              children 
                Switch {
                  whichChoice 0
                  choice [ 
                    Group {
                      children [ 
                        DEF _+0 Group {
                          children 
                            Shape {
                              appearance 
                              Appearance {
                                material 
                                Material {
                                  diffuseColor 0.098039217 0.098039217 0.098039217
                                  shininess 1

                                }

                              }
                              geometry 
                              IndexedLineSet {
                                coord 
                                DEF _+1 Coordinate {
                                  point [ 0 0 0,
                                      0 0 0.5,
                                      0 25 0.5,
                                      0 25 0,
                                      25 0 0,
                                      25 0 0.5,
                                      25 25 0.5,
                                      25 25 0,
                                      0 0 0,
                                      25 0 0,
                                      25 0 0.5,
                                      0 0 0.5,
                                      0 25 0,
                                      25 25 0,
                                      25 25 0.5,
                                      0 25 0.5,
                                      0 0 0,
                                      0 25 0,
                                      25 25 0,
                                      25 0 0,
                                      0 0 0.5,
                                      0 25 0.5,
                                      25 25 0.5,
                                      25 0 0.5,
                                      0 0 0.5,
                                      0 0 0,
                                      0 25 0.5,
                                      0 25 0,
                                      25 0 0.5,
                                      25 0 0,
                                      25 25 0.5,
                                      25 25 0 ]

                                }
                                coordIndex [ 0, 1, -1, 1, 2, -1, 3, 2,
                                    -1, 0, 3, -1, 4, 5, -1, 5,
                                    6, -1, 7, 6, -1, 4, 7, -1,
                                    8, 9, -1, 11, 10, -1, 12, 13,
                                    -1, 15, 14, -1 ]

                              }

                            }

                        },
                          
                        DEF _+2 Group {
                          children 
                            Shape {
                              appearance 
                              Appearance {
                                material 
                                Material {
                                  diffuseColor 0.33333334 0.66666669 0
                                  ambientIntensity 0.27694547
                                  specularColor 0.94901961 0.72941178 0
                                  shininess 0.93000001

                                }

                              }
                              geometry 
                              IndexedFaceSet {
                                coord 
                                USE _+1
                                normal 
                                DEF _+3 Normal {
                                  vector [ -1 0 0,
                                      -1 0 0,
                                      -1 0 0,
                                      -1 0 0,
                                      1 0 0,
                                      1 0 0,
                                      1 0 0,
                                      1 0 0,
                                      0 -1 0,
                                      0 -1 0,
                                      0 -1 0,
                                      0 -1 0,
                                      0 1 0,
                                      0 1 0,
                                      0 1 0,
                                      0 1 0,
                                      0 0 -1,
                                      0 0 -1,
                                      0 0 -1,
                                      0 0 -1,
                                      0 0 1,
                                      0 0 1,
                                      0 0 1,
                                      0 0 1 ]

                                }
                                coordIndex [ 3, 0, 2, -1, 0, 1, 2, -1,
                                    4, 7, 6, -1, 5, 4, 6, -1,
                                    8, 9, 11, -1, 9, 10, 11, -1,
                                    13, 12, 15, -1, 14, 13, 15, -1,
                                    17, 18, 16, -1, 16, 18, 19, -1,
                                    22, 21, 20, -1, 22, 20, 23, -1 ]
                                ccw TRUE
                                solid FALSE
                                convex TRUE
                                creaseAngle 0

                              }

                            }

                        },
                          
                        DEF _+4 Group {
                          children 
                            Shape {
                              appearance 
                              Appearance {
                                material 
                                Material {
                                  emissiveColor 0.098039217 0.098039217 0.098039217

                                }

                              }
                              geometry 
                              PointSet {
                                coord 
                                USE _+1

                              }

                            }

                        } ]

                    },
                      
                    USE _+2,
                      
                    Group {
                      children [ 
                        USE _+0,
                          
                        USE _+4 ]

                    },
                      
                    USE _+4 ]

                }

            }

        },
          
        Group {
          children 
            Transform {
              translation -11.5 -11.5 2
              rotation 0 0 1  0
              scale 1 1 1
              scaleOrientation 0 0 1  0
              center 0 0 0
              children 
                Switch {
                  whichChoice -1
                  choice [ 
                    Group {
                      children [ 
                        DEF _+5 Group {
                          children 
                            Shape {
                              appearance 
                              Appearance {
                                material 
                                Material {
                                  diffuseColor 0.098039217 0.098039217 0.098039217
                                  shininess 1

                                }

                              }
                              geometry 
                              IndexedLineSet {
                                coord 
                                DEF _+6 Coordinate {
                                  point [ 0 0 0,
                                      0 0 3,
                                      0 23 3,
                                      0 23 0,
                                      23 0 0,
                                      23 0 3,
                                      23 23 3,
                                      23 23 0,
                                      0 0 0,
                                      23 0 0,
                                      23 0 3,
                                      0 0 3,
                                      0 23 0,
                                      23 23 0,
                                      23 23 3,
                                      0 23 3,
                                      0 0 0,
                                      0 23 0,
                                      23 23 0,
                                      23 0 0,
                                      0 0 3,
                                      0 23 3,
                                      23 23 3,
                                      23 0 3,
                                      0 0 3,
                                      0 0 0,
                                      0 23 3,
                                      0 23 0,
                                      23 0 3,
                                      23 0 0,
                                      23 23 3,
                                      23 23 0 ]

                                }
                                coordIndex [ 0, 1, -1, 1, 2, -1, 3, 2,
                                    -1, 0, 3, -1, 4, 5, -1, 5,
                                    6, -1, 7, 6, -1, 4, 7, -1,
                                    8, 9, -1, 11, 10, -1, 12, 13,
                                    -1, 15, 14, -1 ]

                              }

                            }

                        },
                          
                        DEF _+7 Group {
                          children 
                            Shape {
                              appearance 
                              Appearance {
                                material 
                                Material {
                                  diffuseColor 0.86666667 0.83529413 0.65882355

                                }

                              }
                              geometry 
                              IndexedFaceSet {
                                coord 
                                USE _+6
                                normal 
                                USE _+3
                                coordIndex [ 3, 1, 2, -1, 0, 1, 3, -1,
                                    5, 7, 6, -1, 5, 4, 7, -1,
                                    9, 10, 8, -1, 8, 10, 11, -1,
                                    14, 13, 12, -1, 14, 12, 15, -1,
                                    17, 18, 16, -1, 16, 18, 19, -1,
                                    22, 21, 20, -1, 22, 20, 23, -1 ]
                                ccw TRUE
                                solid FALSE
                                convex TRUE
                                creaseAngle 0

                              }

                            }

                        },
                          
                        DEF _+8 Group {
                          children 
                            Shape {
                              appearance 
                              Appearance {
                                material 
                                Material {
                                  emissiveColor 0.098039217 0.098039217 0.098039217

                                }

                              }
                              geometry 
                              PointSet {
                                coord 
                                USE _+6

                              }

                            }

                        } ]

                    },
                      
                    USE _+7,
                      
                    Group {
                      children [ 
                        USE _+5,
                          
                        USE _+8 ]

                    },
                      
                    USE _+8 ]

                }

            }

        },
          
        Group {
          children 
            Transform {
              translation -12 -12 0
              rotation 0 0 1  0
              scale 1 1 1
              scaleOrientation 0 0 1  0
              center 0 0 0
              children 
                Switch {
                  whichChoice -1
                  choice [ 
                    Group {
                      children [ 
                        DEF _+9 Group {
                          children 
                            Shape {
                              appearance 
                              Appearance {
                                material 
                                Material {
                                  diffuseColor 0.098039217 0.098039217 0.098039217
                                  shininess 1

                                }

                              }
                              geometry 
                              IndexedLineSet {
                                coord 
                                DEF _+10 Coordinate {
                                  point [ 0 0 0,
                                      0 0 2,
                                      0 24 2,
                                      0 24 0,
                                      24 0 0,
                                      24 0 2,
                                      24 24 2,
                                      24 24 0,
                                      0 0 0,
                                      24 0 0,
                                      24 0 2,
                                      0 0 2,
                                      0 24 0,
                                      24 24 0,
                                      24 24 2,
                                      0 24 2,
                                      0 0 0,
                                      0 24 0,
                                      24 24 0,
                                      24 0 0,
                                      0 0 2,
                                      0 24 2,
                                      24 24 2,
                                      24 0 2,
                                      0 0 2,
                                      0 0 0,
                                      0 24 2,
                                      0 24 0,
                                      24 0 2,
                                      24 0 0,
                                      24 24 2,
                                      24 24 0 ]

                                }
                                coordIndex [ 0, 1, -1, 1, 2, -1, 3, 2,
                                    -1, 0, 3, -1, 4, 5, -1, 5,
                                    6, -1, 7, 6, -1, 4, 7, -1,
                                    8, 9, -1, 11, 10, -1, 12, 13,
                                    -1, 15, 14, -1 ]

                              }

                            }

                        },
                          
                        DEF _+11 Group {
                          children 
                            Shape {
                              appearance 
                              Appearance {
                                material 
                                Material {
                                  diffuseColor 0.30000001 0.30000001 0.30000001
                                  ambientIntensity 0.30000001
                                  specularColor 0.69999999 0.69999999 0.80000001
                                  shininess 0.090000004

                                }

                              }
                              geometry 
                              IndexedFaceSet {
                                coord 
                                USE _+10
                                normal 
                                USE _+3
                                coordIndex [ 3, 1, 2, -1, 0, 1, 3, -1,
                                    5, 7, 6, -1, 5, 4, 7, -1,
                                    9, 10, 8, -1, 8, 10, 11, -1,
                                    14, 13, 12, -1, 14, 12, 15, -1,
                                    17, 18, 16, -1, 16, 18, 19, -1,
                                    22, 21, 20, -1, 22, 20, 23, -1 ]
                                ccw TRUE
                                solid FALSE
                                convex TRUE
                                creaseAngle 0

                              }

                            }

                        },
                          
                        DEF _+12 Group {
                          children 
                            Shape {
                              appearance 
                              Appearance {
                                material 
                                Material {
                                  emissiveColor 0.098039217 0.098039217 0.098039217

                                }

                              }
                              geometry 
                              PointSet {
                                coord 
                                USE _+10

                              }

                            }

                        } ]

                    },
                      
                    USE _+11,
                      
                    Group {
                      children [ 
                        USE _+9,
                          
                        USE _+12 ]

                    },
                      
                    USE _+12 ]

                }

            }

        },
          
        Group {
          children 
            Transform {
              translation 0 0 0
              rotation 0 0 1  0
              scale 1 1 1
              scaleOrientation 0 0 1  0
              center 0 0 0
              children 
                Switch {
                  whichChoice 0
                  choice [ 
                    Group {
                      children [ 
                        DEF _+13 Group {
                          children 
                            Shape {
                              appearance 
                              Appearance {
                                material 
                                Material {
                                  diffuseColor 0.098039217 0.098039217 0.098039217
                                  shininess 1

                                }

                              }
                              geometry 
                              IndexedLineSet {
                                coord 
                                DEF _+14 Coordinate {
                                  point [ -11.5 -8.5 5,
                                      -11.5 8.5 5,
                                      -11.5 -8.5 2,
                                      -11.5 8.5 2,
                                      -11.5 -8.5 5,
                                      -11.5 8.5 5,
                                      -8.5 -11.5 5,
                                      -11.481136 -8.8358936 5,
                                      -11.424784 -9.1675625 5,
                                      -11.33165 -9.4908371 5,
                                      -11.202907 -9.801651 5,
                                      -11.040173 -10.096096 5,
                                      -10.845494 -10.370469 5,
                                      -10.621321 -10.621321 5,
                                      -10.370469 -10.845494 5,
                                      -10.096096 -11.040173 5,
                                      -9.801651 -11.202907 5,
                                      -9.4908371 -11.33165 5,
                                      -9.1675625 -11.424784 5,
                                      -8.8358936 -11.481136 5,
                                      -8.5 11.5 5,
                                      -11.481136 8.8358936 5,
                                      -11.424784 9.1675625 5,
                                      -11.33165 9.4908371 5,
                                      -11.202907 9.801651 5,
                                      -11.040173 10.096096 5,
                                      -10.845494 10.370469 5,
                                      -10.621321 10.621321 5,
                                      -10.370469 10.845494 5,
                                      -10.096096 11.040173 5,
                                      -9.801651 11.202907 5,
                                      -9.4908371 11.33165 5,
                                      -9.1675625 11.424784 5,
                                      -8.8358936 11.481136 5,
                                      8.5 -11.5 5,
                                      8.5 11.5 5,
                                      11.5 -8.5 5,
                                      11.481136 -8.8358936 5,
                                      11.424784 -9.1675625 5,
                                      11.33165 -9.4908371 5,
                                      11.202907 -9.801651 5,
                                      11.040173 -10.096096 5,
                                      10.845494 -10.370469 5,
                                      10.621321 -10.621321 5,
                                      10.370469 -10.845494 5,
                                      10.096096 -11.040173 5,
                                      9.801651 -11.202907 5,
                                      9.4908371 -11.33165 5,
                                      9.1675625 -11.424784 5,
                                      8.8358936 -11.481136 5,
                                      11.5 8.5 5,
                                      11.481136 8.8358936 5,
                                      11.424784 9.1675625 5,
                                      11.33165 9.4908371 5,
                                      11.202907 9.801651 5,
                                      11.040173 10.096096 5,
                                      10.845494 10.370469 5,
                                      10.621321 10.621321 5,
                                      10.370469 10.845494 5,
                                      10.096096 11.040173 5,
                                      9.801651 11.202907 5,
                                      9.4908371 11.33165 5,
                                      9.1675625 11.424784 5,
                                      8.8358936 11.481136 5,
                                      -11.5 -8.5 2,
                                      -8.5 -11.5 2,
                                      -11.481136 -8.8358936 2,
                                      -11.424784 -9.1675625 2,
                                      -11.33165 -9.4908371 2,
                                      -11.202907 -9.801651 2,
                                      -11.040173 -10.096096 2,
                                      -10.845494 -10.370469 2,
                                      -10.621321 -10.621321 2,
                                      -10.370469 -10.845494 2,
                                      -10.096096 -11.040173 2,
                                      -9.801651 -11.202907 2,
                                      -9.4908371 -11.33165 2,
                                      -9.1675625 -11.424784 2,
                                      -8.8358936 -11.481136 2,
                                      -11.5 -8.5 5,
                                      -8.5 -11.5 5,
                                      -11.481136 -8.8358936 5,
                                      -11.424784 -9.1675625 5,
                                      -11.33165 -9.4908371 5,
                                      -11.202907 -9.801651 5,
                                      -11.040173 -10.096096 5,
                                      -10.845494 -10.370469 5,
                                      -10.621321 -10.621321 5,
                                      -10.370469 -10.845494 5,
                                      -10.096096 -11.040173 5,
                                      -9.801651 -11.202907 5,
                                      -9.4908371 -11.33165 5,
                                      -9.1675625 -11.424784 5,
                                      -8.8358936 -11.481136 5,
                                      -11.5 8.5 2,
                                      -8.5 11.5 2,
                                      -11.481136 8.8358936 2,
                                      -11.424784 9.1675625 2,
                                      -11.33165 9.4908371 2,
                                      -11.202907 9.801651 2,
                                      -11.040173 10.096096 2,
                                      -10.845494 10.370469 2,
                                      -10.621321 10.621321 2,
                                      -10.370469 10.845494 2,
                                      -10.096096 11.040173 2,
                                      -9.801651 11.202907 2,
                                      -9.4908371 11.33165 2,
                                      -9.1675625 11.424784 2,
                                      -8.8358936 11.481136 2,
                                      -11.5 8.5 5,
                                      -8.5 11.5 5,
                                      -11.481136 8.8358936 5,
                                      -11.424784 9.1675625 5,
                                      -11.33165 9.4908371 5,
                                      -11.202907 9.801651 5,
                                      -11.040173 10.096096 5,
                                      -10.845494 10.370469 5,
                                      -10.621321 10.621321 5,
                                      -10.370469 10.845494 5,
                                      -10.096096 11.040173 5,
                                      -9.801651 11.202907 5,
                                      -9.4908371 11.33165 5,
                                      -9.1675625 11.424784 5,
                                      -8.8358936 11.481136 5,
                                      -11.5 -8.5 2,
                                      -11.5 8.5 2,
                                      -8.5 -11.5 2,
                                      -11.481136 -8.8358936 2,
                                      -11.424784 -9.1675625 2,
                                      -11.33165 -9.4908371 2,
                                      -11.202907 -9.801651 2,
                                      -11.040173 -10.096096 2,
                                      -10.845494 -10.370469 2,
                                      -10.621321 -10.621321 2,
                                      -10.370469 -10.845494 2,
                                      -10.096096 -11.040173 2,
                                      -9.801651 -11.202907 2,
                                      -9.4908371 -11.33165 2,
                                      -9.1675625 -11.424784 2,
                                      -8.8358936 -11.481136 2,
                                      -8.5 11.5 2,
                                      -11.481136 8.8358936 2,
                                      -11.424784 9.1675625 2,
                                      -11.33165 9.4908371 2,
                                      -11.202907 9.801651 2,
                                      -11.040173 10.096096 2,
                                      -10.845494 10.370469 2,
                                      -10.621321 10.621321 2,
                                      -10.370469 10.845494 2,
                                      -10.096096 11.040173 2,
                                      -9.801651 11.202907 2,
                                      -9.4908371 11.33165 2,
                                      -9.1675625 11.424784 2,
                                      -8.8358936 11.481136 2,
                                      8.5 -11.5 2,
                                      8.5 11.5 2,
                                      11.5 -8.5 2,
                                      11.481136 -8.8358936 2,
                                      11.424784 -9.1675625 2,
                                      11.33165 -9.4908371 2,
                                      11.202907 -9.801651 2,
                                      11.040173 -10.096096 2,
                                      10.845494 -10.370469 2,
                                      10.621321 -10.621321 2,
                                      10.370469 -10.845494 2,
                                      10.096096 -11.040173 2,
                                      9.801651 -11.202907 2,
                                      9.4908371 -11.33165 2,
                                      9.1675625 -11.424784 2,
                                      8.8358936 -11.481136 2,
                                      11.5 8.5 2,
                                      11.481136 8.8358936 2,
                                      11.424784 9.1675625 2,
                                      11.33165 9.4908371 2,
                                      11.202907 9.801651 2,
                                      11.040173 10.096096 2,
                                      10.845494 10.370469 2,
                                      10.621321 10.621321 2,
                                      10.370469 10.845494 2,
                                      10.096096 11.040173 2,
                                      9.801651 11.202907 2,
                                      9.4908371 11.33165 2,
                                      9.1675625 11.424784 2,
                                      8.8358936 11.481136 2,
                                      -8.5 -11.5 2,
                                      8.5 -11.5 2,
                                      -8.5 -11.5 5,
                                      8.5 -11.5 5,
                                      -8.5 11.5 2,
                                      8.5 11.5 2,
                                      -8.5 11.5 5,
                                      8.5 11.5 5,
                                      11.5 -8.5 2,
                                      8.5 -11.5 2,
                                      11.481136 -8.8358936 2,
                                      11.424784 -9.1675625 2,
                                      11.33165 -9.4908371 2,
                                      11.202907 -9.801651 2,
                                      11.040173 -10.096096 2,
                                      10.845494 -10.370469 2,
                                      10.621321 -10.621321 2,
                                      10.370469 -10.845494 2,
                                      10.096096 -11.040173 2,
                                      9.801651 -11.202907 2,
                                      9.4908371 -11.33165 2,
                                      9.1675625 -11.424784 2,
                                      8.8358936 -11.481136 2,
                                      11.5 -8.5 5,
                                      8.5 -11.5 5,
                                      11.481136 -8.8358936 5,
                                      11.424784 -9.1675625 5,
                                      11.33165 -9.4908371 5,
                                      11.202907 -9.801651 5,
                                      11.040173 -10.096096 5,
                                      10.845494 -10.370469 5,
                                      10.621321 -10.621321 5,
                                      10.370469 -10.845494 5,
                                      10.096096 -11.040173 5,
                                      9.801651 -11.202907 5,
                                      9.4908371 -11.33165 5,
                                      9.1675625 -11.424784 5,
                                      8.8358936 -11.481136 5,
                                      11.5 8.5 2,
                                      8.5 11.5 2,
                                      11.481136 8.8358936 2,
                                      11.424784 9.1675625 2,
                                      11.33165 9.4908371 2,
                                      11.202907 9.801651 2,
                                      11.040173 10.096096 2,
                                      10.845494 10.370469 2,
                                      10.621321 10.621321 2,
                                      10.370469 10.845494 2,
                                      10.096096 11.040173 2,
                                      9.801651 11.202907 2,
                                      9.4908371 11.33165 2,
                                      9.1675625 11.424784 2,
                                      8.8358936 11.481136 2,
                                      11.5 8.5 5,
                                      8.5 11.5 5,
                                      11.481136 8.8358936 5,
                                      11.424784 9.1675625 5,
                                      11.33165 9.4908371 5,
                                      11.202907 9.801651 5,
                                      11.040173 10.096096 5,
                                      10.845494 10.370469 5,
                                      10.621321 10.621321 5,
                                      10.370469 10.845494 5,
                                      10.096096 11.040173 5,
                                      9.801651 11.202907 5,
                                      9.4908371 11.33165 5,
                                      9.1675625 11.424784 5,
                                      8.8358936 11.481136 5,
                                      11.5 -8.5 5,
                                      11.5 8.5 5,
                                      11.5 -8.5 2,
                                      11.5 8.5 2,
                                      -11.5 -8.5 5,
                                      -11.5 8.5 5,
                                      -11.5 -8.5 2,
                                      -11.5 8.5 2,
                                      -8.5 -11.5 5,
                                      -8.5 11.5 5,
                                      8.5 -11.5 5,
                                      8.5 11.5 5,
                                      11.5 -8.5 5,
                                      11.5 8.5 5,
                                      -8.5 -11.5 2,
                                      -8.5 11.5 2,
                                      8.5 -11.5 2,
                                      8.5 11.5 2,
                                      11.5 -8.5 2,
                                      11.5 8.5 2 ]

                                }
                                coordIndex [ 0, 1, -1, 2, 0, -1, 3, 1,
                                    -1, 2, 3, -1, 4, 7, 8, 9,
                                    10, 11, 12, 13, 14, 15, 16, 17,
                                    18, 19, 6, -1, 5, 21, 22, 23,
                                    24, 25, 26, 27, 28, 29, 30, 31,
                                    32, 33, 20, -1, 6, 34, -1, 20,
                                    35, -1, 36, 37, 38, 39, 40, 41,
                                    42, 43, 44, 45, 46, 47, 48, 49,
                                    34, -1, 50, 51, 52, 53, 54, 55,
                                    56, 57, 58, 59, 60, 61, 62, 63,
                                    35, -1, 36, 50, -1, 64, 66, 67,
                                    68, 69, 70, 71, 72, 73, 74, 75,
                                    76, 77, 78, 65, -1, 65, 80, -1,
                                    94, 96, 97, 98, 99, 100, 101, 102,
                                    103, 104, 105, 106, 107, 108, 95, -1,
                                    95, 110, -1, 126, 154, -1, 140, 155,
                                    -1, 156, 157, 158, 159, 160, 161, 162,
                                    163, 164, 165, 166, 167, 168, 169, 154,
                                    -1, 170, 171, 172, 173, 174, 175, 176,
                                    177, 178, 179, 180, 181, 182, 183, 155,
                                    -1, 156, 170, -1, 185, 187, -1, 189,
                                    191, -1, 192, 207, -1, 222, 237, -1 ]

                              }

                            }

                        },
                          
                        DEF _+15 Group {
                          children 
                            Shape {
                              appearance 
                              Appearance {
                                material 
                                Material {
                                  diffuseColor 0.86666667 0.83529413 0.65882355

                                }

                              }
                              geometry 
                              IndexedFaceSet {
                                coord 
                                USE _+14
                                normal 
                                Normal {
                                  vector [ -1 0 0,
                                      -1 0 0,
                                      -1 0 0,
                                      -1 0 0,
                                      0 0 1,
                                      0 0 1,
                                      0 0 1,
                                      0 0 1,
                                      0 0 1,
                                      0 0 1,
                                      0 0 1,
                                      0 0 1,
                                      0 0 1,
                                      0 0 1,
                                      0 0 1,
                                      0 0 1,
                                      0 0 1,
                                      0 0 1,
                                      0 0 1,
                                      0 0 1,
                                      0 0 1,
                                      0 0 1,
                                      0 0 1,
                                      0 0 1,
                                      0 0 1,
                                      0 0 1,
                                      0 0 1,
                                      0 0 1,
                                      0 0 1,
                                      0 0 1,
                                      0 0 1,
                                      0 0 1,
                                      0 0 1,
                                      0 0 1,
                                      0 0 1,
                                      0 0 1,
                                      0 0 1,
                                      0 0 1,
                                      0 0 1,
                                      0 0 1,
                                      0 0 1,
                                      0 0 1,
                                      0 0 1,
                                      0 0 1,
                                      0 0 1,
                                      0 0 1,
                                      0 0 1,
                                      0 0 1,
                                      0 0 1,
                                      0 0 1,
                                      0 0 1,
                                      0 0 1,
                                      0 0 1,
                                      0 0 1,
                                      0 0 1,
                                      0 0 1,
                                      0 0 1,
                                      0 0 1,
                                      0 0 1,
                                      0 0 1,
                                      0 0 1,
                                      0 0 1,
                                      0 0 1,
                                      0 0 1,
                                      -1 0 0,
                                      -6.1232343e-017 -1 0,
                                      -0.99371219 -0.11196449 0,
                                      -0.97492802 -0.22252095 0,
                                      -0.94388336 -0.33027905 0,
                                      -0.90096891 -0.43388376 0,
                                      -0.84672421 -0.53203207 0,
                                      -0.7818315 -0.6234898 0,
                                      -0.70710683 -0.70710683 0,
                                      -0.6234898 -0.7818315 0,
                                      -0.53203207 -0.84672421 0,
                                      -0.43388376 -0.90096891 0,
                                      -0.33027905 -0.94388336 0,
                                      -0.22252095 -0.97492802 0,
                                      -0.11196449 -0.99371219 0,
                                      -1 0 0,
                                      -6.1232343e-017 -1 0,
                                      -0.99371219 -0.11196449 0,
                                      -0.97492802 -0.22252095 0,
                                      -0.94388336 -0.33027905 0,
                                      -0.90096891 -0.43388376 0,
                                      -0.84672421 -0.53203207 0,
                                      -0.7818315 -0.6234898 0,
                                      -0.70710683 -0.70710683 0,
                                      -0.6234898 -0.7818315 0,
                                      -0.53203207 -0.84672421 0,
                                      -0.43388376 -0.90096891 0,
                                      -0.33027905 -0.94388336 0,
                                      -0.22252095 -0.97492802 0,
                                      -0.11196449 -0.99371219 0,
                                      -1 0 0,
                                      -6.1232343e-017 1 0,
                                      -0.99371219 0.11196449 0,
                                      -0.97492802 0.22252095 0,
                                      -0.94388336 0.33027905 0,
                                      -0.90096891 0.43388376 0,
                                      -0.84672421 0.53203207 0,
                                      -0.7818315 0.6234898 0,
                                      -0.70710683 0.70710683 0,
                                      -0.6234898 0.7818315 0,
                                      -0.53203207 0.84672421 0,
                                      -0.43388376 0.90096891 0,
                                      -0.33027905 0.94388336 0,
                                      -0.22252095 0.97492802 0,
                                      -0.11196449 0.99371219 0,
                                      -1 0 0,
                                      -6.1232343e-017 1 0,
                                      -0.99371219 0.11196449 0,
                                      -0.97492802 0.22252095 0,
                                      -0.94388336 0.33027905 0,
                                      -0.90096891 0.43388376 0,
                                      -0.84672421 0.53203207 0,
                                      -0.7818315 0.6234898 0,
                                      -0.70710683 0.70710683 0,
                                      -0.6234898 0.7818315 0,
                                      -0.53203207 0.84672421 0,
                                      -0.43388376 0.90096891 0,
                                      -0.33027905 0.94388336 0,
                                      -0.22252095 0.97492802 0,
                                      -0.11196449 0.99371219 0,
                                      0 0 -1,
                                      0 0 -1,
                                      0 0 -1,
                                      0 0 -1,
                                      0 0 -1,
                                      0 0 -1,
                                      0 0 -1,
                                      0 0 -1,
                                      0 0 -1,
                                      0 0 -1,
                                      0 0 -1,
                                      0 0 -1,
                                      0 0 -1,
                                      0 0 -1,
                                      0 0 -1,
                                      0 0 -1,
                                      0 0 -1,
                                      0 0 -1,
                                      0 0 -1,
                                      0 0 -1,
                                      0 0 -1,
                                      0 0 -1,
                                      0 0 -1,
                                      0 0 -1,
                                      0 0 -1,
                                      0 0 -1,
                                      0 0 -1,
                                      0 0 -1,
                                      0 0 -1,
                                      0 0 -1,
                                      0 0 -1,
                                      0 0 -1,
                                      0 0 -1,
                                      0 0 -1,
                                      0 0 -1,
                                      0 0 -1,
                                      0 0 -1,
                                      0 0 -1,
                                      0 0 -1,
                                      0 0 -1,
                                      0 0 -1,
                                      0 0 -1,
                                      0 0 -1,
                                      0 0 -1,
                                      0 0 -1,
                                      0 0 -1,
                                      0 0 -1,
                                      0 0 -1,
                                      0 0 -1,
                                      0 0 -1,
                                      0 0 -1,
                                      0 0 -1,
                                      0 0 -1,
                                      0 0 -1,
                                      0 0 -1,
                                      0 0 -1,
                                      0 0 -1,
                                      0 0 -1,
                                      0 0 -1,
                                      0 0 -1,
                                      0 -1 0,
                                      0 -1 0,
                                      0 -1 0,
                                      0 -1 0,
                                      0 1 0,
                                      0 1 0,
                                      0 1 0,
                                      0 1 0,
                                      1 0 0,
                                      6.1232343e-017 -1 0,
                                      0.99371219 -0.11196449 0,
                                      0.97492802 -0.22252095 0,
                                      0.94388336 -0.33027905 0,
                                      0.90096891 -0.43388376 0,
                                      0.84672421 -0.53203207 0,
                                      0.7818315 -0.6234898 0,
                                      0.70710683 -0.70710683 0,
                                      0.6234898 -0.7818315 0,
                                      0.53203207 -0.84672421 0,
                                      0.43388376 -0.90096891 0,
                                      0.33027905 -0.94388336 0,
                                      0.22252095 -0.97492802 0,
                                      0.11196449 -0.99371219 0,
                                      1 0 0,
                                      6.1232343e-017 -1 0,
                                      0.99371219 -0.11196449 0,
                                      0.97492802 -0.22252095 0,
                                      0.94388336 -0.33027905 0,
                                      0.90096891 -0.43388376 0,
                                      0.84672421 -0.53203207 0,
                                      0.7818315 -0.6234898 0,
                                      0.70710683 -0.70710683 0,
                                      0.6234898 -0.7818315 0,
                                      0.53203207 -0.84672421 0,
                                      0.43388376 -0.90096891 0,
                                      0.33027905 -0.94388336 0,
                                      0.22252095 -0.97492802 0,
                                      0.11196449 -0.99371219 0,
                                      1 0 0,
                                      6.1232343e-017 1 0,
                                      0.99371219 0.11196449 0,
                                      0.97492802 0.22252095 0,
                                      0.94388336 0.33027905 0,
                                      0.90096891 0.43388376 0,
                                      0.84672421 0.53203207 0,
                                      0.7818315 0.6234898 0,
                                      0.70710683 0.70710683 0,
                                      0.6234898 0.7818315 0,
                                      0.53203207 0.84672421 0,
                                      0.43388376 0.90096891 0,
                                      0.33027905 0.94388336 0,
                                      0.22252095 0.97492802 0,
                                      0.11196449 0.99371219 0,
                                      1 0 0,
                                      6.1232343e-017 1 0,
                                      0.99371219 0.11196449 0,
                                      0.97492802 0.22252095 0,
                                      0.94388336 0.33027905 0,
                                      0.90096891 0.43388376 0,
                                      0.84672421 0.53203207 0,
                                      0.7818315 0.6234898 0,
                                      0.70710683 0.70710683 0,
                                      0.6234898 0.7818315 0,
                                      0.53203207 0.84672421 0,
                                      0.43388376 0.90096891 0,
                                      0.33027905 0.94388336 0,
                                      0.22252095 0.97492802 0,
                                      0.11196449 0.99371219 0,
                                      1 0 0,
                                      1 0 0,
                                      1 0 0,
                                      1 0 0 ]

                                }
                                color 
                                Color {
                                  color [ 0.86666667 0.83529413 0.65882355,
                                      0.86666667 0.83529413 0.65882355,
                                      0.86666667 0.83529413 0.65882355,
                                      0.86666667 0.83529413 0.65882355,
                                      0.86666667 0.83529413 0.65882355,
                                      0.86666667 0.83529413 0.65882355,
                                      0.86666667 0.83529413 0.65882355,
                                      0.86666667 0.83529413 0.65882355,
                                      0.86666667 0.83529413 0.65882355,
                                      0.86666667 0.83529413 0.65882355 ]

                                }
                                colorPerVertex FALSE
                                coordIndex [ 3, 2, 1, -1, 2, 0, 1, -1,
                                    41, 43, 42, -1, 29, 28, 5, -1,
                                    15, 13, 14, -1, 30, 29, 5, -1,
                                    39, 34, 45, -1, 39, 45, 43, -1,
                                    39, 43, 41, -1, 39, 41, 40, -1,
                                    31, 30, 5, -1, 9, 10, 11, -1,
                                    9, 11, 12, -1, 9, 12, 13, -1,
                                    33, 32, 31, -1, 18, 15, 16, -1,
                                    18, 16, 17, -1, 18, 13, 15, -1,
                                    20, 5, 4, -1, 20, 31, 5, -1,
                                    20, 33, 31, -1, 36, 6, 34, -1,
                                    36, 38, 37, -1, 36, 39, 38, -1,
                                    36, 34, 39, -1, 36, 20, 4, -1,
                                    7, 8, 9, -1, 7, 18, 19, -1,
                                    36, 4, 6, -1, 7, 9, 13, -1,
                                    7, 13, 18, -1, 50, 35, 20, -1,
                                    50, 20, 36, -1, 4, 19, 6, -1,
                                    4, 7, 19, -1, 53, 50, 51, -1,
                                    53, 51, 52, -1, 61, 62, 63, -1,
                                    61, 63, 35, -1, 60, 35, 50, -1,
                                    60, 61, 35, -1, 60, 50, 53, -1,
                                    22, 21, 5, -1, 55, 53, 54, -1,
                                    55, 60, 53, -1, 57, 55, 56, -1,
                                    57, 58, 59, -1, 57, 59, 60, -1,
                                    57, 60, 55, -1, 24, 23, 22, -1,
                                    45, 47, 46, -1, 45, 48, 47, -1,
                                    45, 49, 48, -1, 45, 34, 49, -1,
                                    43, 45, 44, -1, 27, 22, 5, -1,
                                    27, 24, 22, -1, 27, 25, 24, -1,
                                    27, 26, 25, -1, 28, 27, 5, -1,
                                    81, 64, 66, -1, 81, 79, 64, -1,
                                    82, 66, 67, -1, 82, 81, 66, -1,
                                    83, 67, 68, -1, 83, 82, 67, -1,
                                    84, 68, 69, -1, 84, 83, 68, -1,
                                    85, 69, 70, -1, 85, 70, 71, -1,
                                    85, 84, 69, -1, 86, 85, 71, -1,
                                    87, 71, 72, -1, 87, 86, 71, -1,
                                    88, 72, 73, -1, 88, 73, 74, -1,
                                    88, 87, 72, -1, 89, 88, 74, -1,
                                    90, 74, 75, -1, 90, 89, 74, -1,
                                    91, 75, 76, -1, 91, 90, 75, -1,
                                    92, 76, 77, -1, 92, 91, 76, -1,
                                    93, 77, 78, -1, 93, 92, 77, -1,
                                    80, 78, 65, -1, 80, 93, 78, -1,
                                    94, 111, 96, -1, 109, 111, 94, -1,
                                    96, 112, 97, -1, 111, 112, 96, -1,
                                    97, 113, 98, -1, 112, 113, 97, -1,
                                    98, 114, 99, -1, 113, 114, 98, -1,
                                    99, 115, 100, -1, 100, 115, 101, -1,
                                    114, 115, 99, -1, 115, 116, 101, -1,
                                    101, 117, 102, -1, 116, 117, 101, -1,
                                    102, 118, 103, -1, 103, 118, 104, -1,
                                    117, 118, 102, -1, 118, 119, 104, -1,
                                    104, 120, 105, -1, 119, 120, 104, -1,
                                    105, 121, 106, -1, 120, 121, 105, -1,
                                    106, 122, 107, -1, 121, 122, 106, -1,
                                    107, 123, 108, -1, 122, 123, 107, -1,
                                    108, 110, 95, -1, 123, 110, 108, -1,
                                    163, 161, 162, -1, 148, 149, 125, -1,
                                    133, 135, 134, -1, 149, 150, 125, -1,
                                    154, 159, 165, -1, 165, 159, 163, -1,
                                    163, 159, 161, -1, 161, 159, 160, -1,
                                    150, 151, 125, -1, 130, 129, 131, -1,
                                    131, 129, 132, -1, 132, 129, 133, -1,
                                    152, 153, 151, -1, 135, 138, 136, -1,
                                    136, 138, 137, -1, 133, 138, 135, -1,
                                    125, 140, 124, -1, 151, 140, 125, -1,
                                    153, 140, 151, -1, 126, 156, 154, -1,
                                    158, 156, 157, -1, 159, 156, 158, -1,
                                    154, 156, 159, -1, 140, 156, 124, -1,
                                    128, 127, 129, -1, 138, 127, 139, -1,
                                    124, 156, 126, -1, 129, 127, 133, -1,
                                    133, 127, 138, -1, 155, 170, 140, -1,
                                    140, 170, 156, -1, 139, 124, 126, -1,
                                    127, 124, 139, -1, 170, 173, 171, -1,
                                    171, 173, 172, -1, 182, 181, 183, -1,
                                    183, 181, 155, -1, 155, 180, 170, -1,
                                    181, 180, 155, -1, 170, 180, 173, -1,
                                    141, 142, 125, -1, 173, 175, 174, -1,
                                    180, 175, 173, -1, 175, 177, 176, -1,
                                    178, 177, 179, -1, 179, 177, 180, -1,
                                    180, 177, 175, -1, 143, 144, 142, -1,
                                    167, 165, 166, -1, 168, 165, 167, -1,
                                    169, 165, 168, -1, 154, 165, 169, -1,
                                    165, 163, 164, -1, 142, 147, 125, -1,
                                    144, 147, 142, -1, 145, 147, 144, -1,
                                    146, 147, 145, -1, 147, 148, 125, -1,
                                    185, 187, 184, -1, 184, 187, 186, -1,
                                    191, 189, 188, -1, 191, 188, 190, -1,
                                    192, 209, 194, -1, 207, 209, 192, -1,
                                    194, 210, 195, -1, 209, 210, 194, -1,
                                    195, 211, 196, -1, 210, 211, 195, -1,
                                    196, 212, 197, -1, 211, 212, 196, -1,
                                    197, 213, 198, -1, 198, 213, 199, -1,
                                    212, 213, 197, -1, 213, 214, 199, -1,
                                    199, 215, 200, -1, 214, 215, 199, -1,
                                    200, 216, 201, -1, 201, 216, 202, -1,
                                    215, 216, 200, -1, 216, 217, 202, -1,
                                    202, 218, 203, -1, 217, 218, 202, -1,
                                    203, 219, 204, -1, 218, 219, 203, -1,
                                    204, 220, 205, -1, 219, 220, 204, -1,
                                    205, 221, 206, -1, 220, 221, 205, -1,
                                    206, 208, 193, -1, 221, 208, 206, -1,
                                    239, 222, 224, -1, 239, 237, 222, -1,
                                    240, 224, 225, -1, 240, 239, 224, -1,
                                    241, 225, 226, -1, 241, 240, 225, -1,
                                    242, 226, 227, -1, 242, 241, 226, -1,
                                    243, 227, 228, -1, 243, 228, 229, -1,
                                    243, 242, 227, -1, 244, 243, 229, -1,
                                    245, 229, 230, -1, 245, 244, 229, -1,
                                    246, 230, 231, -1, 246, 231, 232, -1,
                                    246, 245, 230, -1, 247, 246, 232, -1,
                                    248, 232, 233, -1, 248, 247, 232, -1,
                                    249, 233, 234, -1, 249, 248, 233, -1,
                                    250, 234, 235, -1, 250, 249, 234, -1,
                                    251, 235, 236, -1, 251, 250, 235, -1,
                                    238, 236, 223, -1, 238, 251, 236, -1,
                                    254, 255, 253, -1, 252, 254, 253, -1 ]
                                colorIndex [ 0, 0, 1, 1, 1, 1, 1, 1,
                                    1, 1, 1, 1, 1, 1, 1, 1,
                                    1, 1, 1, 1, 1, 1, 1, 1,
                                    1, 1, 1, 1, 1, 1, 1, 1,
                                    1, 1, 1, 1, 1, 1, 1, 1,
                                    1, 1, 1, 1, 1, 1, 1, 1,
                                    1, 1, 1, 1, 1, 1, 1, 1,
                                    1, 1, 1, 1, 2, 2, 2, 2,
                                    2, 2, 2, 2, 2, 2, 2, 2,
                                    2, 2, 2, 2, 2, 2, 2, 2,
                                    2, 2, 2, 2, 2, 2, 2, 2,
                                    3, 3, 3, 3, 3, 3, 3, 3,
                                    3, 3, 3, 3, 3, 3, 3, 3,
                                    3, 3, 3, 3, 3, 3, 3, 3,
                                    3, 3, 3, 3, 4, 4, 4, 4,
                                    4, 4, 4, 4, 4, 4, 4, 4,
                                    4, 4, 4, 4, 4, 4, 4, 4,
                                    4, 4, 4, 4, 4, 4, 4, 4,
                                    4, 4, 4, 4, 4, 4, 4, 4,
                                    4, 4, 4, 4, 4, 4, 4, 4,
                                    4, 4, 4, 4, 4, 4, 4, 4,
                                    4, 4, 4, 4, 4, 4, 5, 5,
                                    6, 6, 7, 7, 7, 7, 7, 7,
                                    7, 7, 7, 7, 7, 7, 7, 7,
                                    7, 7, 7, 7, 7, 7, 7, 7,
                                    7, 7, 7, 7, 7, 7, 8, 8,
                                    8, 8, 8, 8, 8, 8, 8, 8,
                                    8, 8, 8, 8, 8, 8, 8, 8,
                                    8, 8, 8, 8, 8, 8, 8, 8,
                                    8, 8, 9, 9 ]
                                ccw TRUE
                                solid FALSE
                                convex TRUE
                                creaseAngle 0

                              }

                            }

                        },
                          
                        DEF _+16 Group {
                          children 
                            Shape {
                              appearance 
                              Appearance {
                                material 
                                Material {
                                  emissiveColor 0.098039217 0.098039217 0.098039217

                                }

                              }
                              geometry 
                              PointSet {
                                coord 
                                USE _+14

                              }

                            }

                        } ]

                    },
                      
                    USE _+15,
                      
                    Group {
                      children [ 
                        USE _+13,
                          
                        USE _+16 ]

                    },
                      
                    USE _+16 ]

                }

            }

        },
          
        Group {
          children 
            Transform {
              translation 0 0 0
              rotation 0 0 1  0
              scale 1 1 1
              scaleOrientation 0 0 1  0
              center 0 0 0
              children 
                Switch {
                  whichChoice 0
                  choice [ 
                    Group {
                      children [ 
                        DEF _+17 Group {
                          children 
                            Shape {
                              appearance 
                              Appearance {
                                material 
                                Material {
                                  diffuseColor 0.098039217 0.098039217 0.098039217
                                  shininess 1

                                }

                              }
                              geometry 
                              IndexedLineSet {
                                coord 
                                DEF _+18 Coordinate {
                                  point [ -12 -10 2,
                                      -12 10 2,
                                      -12 -10 0,
                                      -12 10 0,
                                      -12 -10 2,
                                      -12 10 2,
                                      -10 -12 2,
                                      -10 12 2,
                                      10 -12 2,
                                      10 12 2,
                                      12 -10 2,
                                      12 10 2,
                                      -12 -10 0,
                                      -10 -12 0,
                                      -12 -10 2,
                                      -10 -12 2,
                                      -12 10 0,
                                      -10 12 0,
                                      -12 10 2,
                                      -10 12 2,
                                      -12 -10 0,
                                      -12 10 0,
                                      -10 -12 0,
                                      -10 12 0,
                                      10 -12 0,
                                      10 12 0,
                                      12 -10 0,
                                      12 10 0,
                                      -10 -12 0,
                                      10 -12 0,
                                      -10 -12 2,
                                      10 -12 2,
                                      -10 12 0,
                                      10 12 0,
                                      -10 12 2,
                                      10 12 2,
                                      12 -10 0,
                                      10 -12 0,
                                      12 -10 2,
                                      10 -12 2,
                                      12 10 0,
                                      10 12 0,
                                      12 10 2,
                                      10 12 2,
                                      12 -10 2,
                                      12 10 2,
                                      12 -10 0,
                                      12 10 0,
                                      -12 -10 2,
                                      -12 10 2,
                                      -12 -10 0,
                                      -12 10 0,
                                      -10 -12 2,
                                      -10 12 2,
                                      10 -12 2,
                                      10 12 2,
                                      12 -10 2,
                                      12 10 2,
                                      -10 -12 0,
                                      -10 12 0,
                                      10 -12 0,
                                      10 12 0,
                                      12 -10 0,
                                      12 10 0 ]

                                }
                                coordIndex [ 0, 1, -1, 2, 0, -1, 3, 1,
                                    -1, 2, 3, -1, 4, 6, -1, 5,
                                    7, -1, 6, 8, -1, 7, 9, -1,
                                    10, 8, -1, 11, 9, -1, 10, 11,
                                    -1, 12, 13, -1, 13, 15, -1, 16,
                                    17, -1, 17, 19, -1, 22, 24, -1,
                                    23, 25, -1, 26, 24, -1, 27, 25,
                                    -1, 26, 27, -1, 29, 31, -1, 33,
                                    35, -1, 36, 38, -1, 40, 42, -1 ]

                              }

                            }

                        },
                          
                        DEF _+19 Group {
                          children 
                            Shape {
                              appearance 
                              Appearance {
                                material 
                                Material {
                                  diffuseColor 0.30000001 0.30000001 0.30000001

                                }

                              }
                              geometry 
                              IndexedFaceSet {
                                coord 
                                USE _+18
                                normal 
                                Normal {
                                  vector [ -1 0 0,
                                      -1 0 0,
                                      -1 0 0,
                                      -1 0 0,
                                      0 0 1,
                                      0 0 1,
                                      0 0 1,
                                      0 0 1,
                                      0 0 1,
                                      0 0 1,
                                      0 0 1,
                                      0 0 1,
                                      -0.70710683 -0.70710683 0,
                                      -0.70710683 -0.70710683 0,
                                      -0.70710683 -0.70710683 0,
                                      -0.70710683 -0.70710683 0,
                                      -0.70710683 0.70710683 0,
                                      -0.70710683 0.70710683 0,
                                      -0.70710683 0.70710683 0,
                                      -0.70710683 0.70710683 0,
                                      0 0 -1,
                                      0 0 -1,
                                      0 0 -1,
                                      0 0 -1,
                                      0 0 -1,
                                      0 0 -1,
                                      0 0 -1,
                                      0 0 -1,
                                      0 -1 0,
                                      0 -1 0,
                                      0 -1 0,
                                      0 -1 0,
                                      0 1 0,
                                      0 1 0,
                                      0 1 0,
                                      0 1 0,
                                      0.70710683 -0.70710683 0,
                                      0.70710683 -0.70710683 0,
                                      0.70710683 -0.70710683 0,
                                      0.70710683 -0.70710683 0,
                                      0.70710683 0.70710683 0,
                                      0.70710683 0.70710683 0,
                                      0.70710683 0.70710683 0,
                                      0.70710683 0.70710683 0,
                                      1 0 0,
                                      1 0 0,
                                      1 0 0,
                                      1 0 0 ]

                                }
                                color 
                                Color {
                                  color [ 0.30000001 0.30000001 0.30000001,
                                      0.30000001 0.30000001 0.30000001,
                                      0.30000001 0.30000001 0.30000001,
                                      0.30000001 0.30000001 0.30000001,
                                      0.30000001 0.30000001 0.30000001,
                                      0.30000001 0.30000001 0.30000001,
                                      0.30000001 0.30000001 0.30000001,
                                      0.30000001 0.30000001 0.30000001,
                                      0.30000001 0.30000001 0.30000001,
                                      0.30000001 0.30000001 0.30000001 ]

                                }
                                colorPerVertex FALSE
                                coordIndex [ 3, 0, 1, -1, 2, 0, 3, -1,
                                    11, 5, 4, -1, 11, 4, 6, -1,
                                    11, 7, 5, -1, 11, 6, 8, -1,
                                    11, 8, 10, -1, 9, 7, 11, -1,
                                    12, 13, 14, -1, 13, 15, 14, -1,
                                    19, 17, 16, -1, 19, 16, 18, -1,
                                    21, 27, 20, -1, 20, 27, 22, -1,
                                    23, 27, 21, -1, 22, 27, 24, -1,
                                    24, 27, 26, -1, 23, 25, 27, -1,
                                    29, 31, 28, -1, 28, 31, 30, -1,
                                    35, 33, 32, -1, 35, 32, 34, -1,
                                    37, 36, 38, -1, 39, 37, 38, -1,
                                    40, 41, 42, -1, 41, 43, 42, -1,
                                    44, 47, 45, -1, 44, 46, 47, -1 ]
                                colorIndex [ 0, 0, 1, 1, 1, 1, 1, 1,
                                    2, 2, 3, 3, 4, 4, 4, 4,
                                    4, 4, 5, 5, 6, 6, 7, 7,
                                    8, 8, 9, 9 ]
                                ccw TRUE
                                solid FALSE
                                convex TRUE
                                creaseAngle 0

                              }

                            }

                        },
                          
                        DEF _+20 Group {
                          children 
                            Shape {
                              appearance 
                              Appearance {
                                material 
                                Material {
                                  emissiveColor 0.098039217 0.098039217 0.098039217

                                }

                              }
                              geometry 
                              PointSet {
                                coord 
                                USE _+18

                              }

                            }

                        } ]

                    },
                      
                    USE _+19,
                      
                    Group {
                      children [ 
                        USE _+17,
                          
                        USE _+20 ]

                    },
                      
                    USE _+20 ]

                }

            }

        },
          
        Group {
          children 
            Transform {
              translation -9 -9 4.0999999
              rotation 0 0 1  0
              scale 1 1 1
              scaleOrientation 0 0 1  0
              center 0 0 0
              children 
                Switch {
                  whichChoice 0
                  choice [ 
                    Group {
                      children [ 
                        DEF _+21 Group {
                          children 
                            Shape {
                              appearance 
                              Appearance {
                                material 
                                Material {
                                  diffuseColor 0.098039217 0.098039217 0.098039217
                                  shininess 1

                                }

                              }
                              geometry 
                              IndexedLineSet {
                                coord 
                                DEF _+22 Coordinate {
                                  point [ 0 0 0,
                                      0 0 1,
                                      0 18 1,
                                      0 18 0,
                                      18 0 0,
                                      18 0 1,
                                      18 18 1,
                                      18 18 0,
                                      0 0 0,
                                      18 0 0,
                                      18 0 1,
                                      0 0 1,
                                      0 18 0,
                                      18 18 0,
                                      18 18 1,
                                      0 18 1,
                                      0 0 0,
                                      0 18 0,
                                      18 18 0,
                                      18 0 0,
                                      0 0 1,
                                      0 18 1,
                                      18 18 1,
                                      18 0 1,
                                      0 0 1,
                                      0 0 0,
                                      0 18 1,
                                      0 18 0,
                                      18 0 1,
                                      18 0 0,
                                      18 18 1,
                                      18 18 0 ]

                                }
                                coordIndex [ 0, 1, -1, 1, 2, -1, 3, 2,
                                    -1, 0, 3, -1, 4, 5, -1, 5,
                                    6, -1, 7, 6, -1, 4, 7, -1,
                                    8, 9, -1, 11, 10, -1, 12, 13,
                                    -1, 15, 14, -1 ]

                              }

                            }

                        },
                          
                        DEF _+23 Group {
                          children 
                            Shape {
                              appearance 
                              Appearance {
                                material 
                                Material {

                                }

                              }
                              geometry 
                              IndexedFaceSet {
                                coord 
                                USE _+22
                                normal 
                                USE _+3
                                coordIndex [ 3, 0, 2, -1, 0, 1, 2, -1,
                                    4, 7, 6, -1, 5, 4, 6, -1,
                                    8, 9, 11, -1, 9, 10, 11, -1,
                                    13, 12, 15, -1, 14, 13, 15, -1,
                                    17, 18, 16, -1, 16, 18, 19, -1,
                                    22, 21, 20, -1, 22, 20, 23, -1 ]
                                ccw TRUE
                                solid FALSE
                                convex TRUE
                                creaseAngle 0

                              }

                            }

                        },
                          
                        DEF _+24 Group {
                          children 
                            Shape {
                              appearance 
                              Appearance {
                                material 
                                Material {
                                  emissiveColor 0.098039217 0.098039217 0.098039217

                                }

                              }
                              geometry 
                              PointSet {
                                coord 
                                USE _+22

                              }

                            }

                        } ]

                    },
                      
                    USE _+23,
                      
                    Group {
                      children [ 
                        USE _+21,
                          
                        USE _+24 ]

                    },
                      
                    USE _+24 ]

                }

            }

        } ]

    }

}
