#VRML V2.0 utf8


Group {
  children 
    Group {
      children [ 
        Switch {
          whichChoice 0
          choice 
            Group {
              children [ 
                Switch {
                  whichChoice 0
                  choice 
                    Group {

                    }

                },
                  
                Switch {
                  whichChoice 0
                  choice 
                    Group {

                    }

                } ]

            }

        },
          
        Group {
          children 
            Transform {
              translation -12.5 -17.5 3
              rotation 0 0 1  0
              scale 1 1 1
              scaleOrientation 0 0 1  0
              center 0 0 0
              children 
                Switch {
                  whichChoice -1
                  choice [ 
                    Group {
                      children [ 
                        DEF _+0 Group {
                          children 
                            Shape {
                              appearance 
                              Appearance {
                                material 
                                Material {
                                  diffuseColor 0.77254903 0.77254903 0.77254903
                                  shininess 1

                                }

                              }
                              geometry 
                              IndexedLineSet {
                                coord 
                                DEF _+1 Coordinate {
                                  point [ 0 0 0,
                                      0 0 1,
                                      0 35 1,
                                      0 35 0,
                                      25 0 0,
                                      25 0 1,
                                      25 35 1,
                                      25 35 0,
                                      0 0 0,
                                      25 0 0,
                                      25 0 1,
                                      0 0 1,
                                      0 35 0,
                                      25 35 0,
                                      25 35 1,
                                      0 35 1,
                                      0 0 0,
                                      0 35 0,
                                      25 35 0,
                                      25 0 0,
                                      0 0 1,
                                      0 35 1,
                                      25 35 1,
                                      25 0 1,
                                      0 0 1,
                                      0 0 0,
                                      0 35 1,
                                      0 35 0,
                                      25 0 1,
                                      25 0 0,
                                      25 35 1,
                                      25 35 0 ]

                                }
                                coordIndex [ 0, 1, -1, 1, 2, -1, 3, 2,
                                    -1, 0, 3, -1, 4, 5, -1, 5,
                                    6, -1, 7, 6, -1, 4, 7, -1,
                                    8, 9, -1, 11, 10, -1, 12, 13,
                                    -1, 15, 14, -1 ]

                              }

                            }

                        },
                          
                        DEF _+2 Group {
                          children 
                            Shape {
                              appearance 
                              Appearance {
                                material 
                                Material {
                                  diffuseColor 0.17647059 0.3764706 0.69411767

                                }

                              }
                              geometry 
                              IndexedFaceSet {
                                coord 
                                USE _+1
                                normal 
                                Normal {
                                  vector [ -1 0 0,
                                      -1 0 0,
                                      -1 0 0,
                                      -1 0 0,
                                      1 0 0,
                                      1 0 0,
                                      1 0 0,
                                      1 0 0,
                                      0 -1 0,
                                      0 -1 0,
                                      0 -1 0,
                                      0 -1 0,
                                      0 1 0,
                                      0 1 0,
                                      0 1 0,
                                      0 1 0,
                                      0 0 -1,
                                      0 0 -1,
                                      0 0 -1,
                                      0 0 -1,
                                      0 0 1,
                                      0 0 1,
                                      0 0 1,
                                      0 0 1 ]

                                }
                                coordIndex [ 3, 1, 2, -1, 0, 1, 3, -1,
                                    5, 7, 6, -1, 5, 4, 7, -1,
                                    9, 10, 8, -1, 8, 10, 11, -1,
                                    14, 13, 12, -1, 14, 12, 15, -1,
                                    17, 18, 16, -1, 16, 18, 19, -1,
                                    22, 21, 20, -1, 22, 20, 23, -1 ]
                                ccw TRUE
                                solid FALSE
                                convex TRUE
                                creaseAngle 0

                              }

                            }

                        },
                          
                        DEF _+3 Group {
                          children 
                            Shape {
                              appearance 
                              Appearance {
                                material 
                                Material {
                                  emissiveColor 0.098039217 0.098039217 0.098039217

                                }

                              }
                              geometry 
                              PointSet {
                                coord 
                                USE _+1

                              }

                            }

                        } ]

                    },
                      
                    USE _+2,
                      
                    Group {
                      children [ 
                        USE _+0,
                          
                        USE _+3 ]

                    },
                      
                    USE _+3 ]

                }

            }

        },
          
        Group {
          children 
            Transform {
              translation -12.5 -17.5 4
              rotation 0 0 1  0
              scale 1 1 1
              scaleOrientation 0 0 1  0
              center 0 0 0
              children [ 
                Switch {
                  whichChoice -1
                  choice [ 
                    Group {
                      children [ 
                        DEF _+4 Group {
                          children 
                            Shape {
                              appearance 
                              Appearance {
                                material 
                                Material {
                                  diffuseColor 1 1 1
                                  shininess 1

                                }

                              }
                              geometry 
                              IndexedLineSet {
                                coord 
                                DEF _+5 Coordinate {
                                  point [ 6.749146 24.898161 0,
                                      22.749146 24.898161 0,
                                      22.749146 24.898161 0,
                                      22.749146 12.898161 0,
                                      22.749146 12.898161 0,
                                      6.749146 12.898161 0,
                                      6.749146 12.898161 0,
                                      6.749146 24.898161 0,
                                      6.749146 24.898161 0,
                                      22.749146 24.898161 0,
                                      22.749146 12.898161 0,
                                      6.749146 12.898161 0 ]

                                }
                                coordIndex [ 0, 1, -1, 2, 3, -1, 4, 5,
                                    -1, 6, 7, -1 ]

                              }

                            }

                        },
                          
                        DEF _+6 Group {

                        },
                          
                        DEF _+7 Group {
                          children 
                            Shape {
                              appearance 
                              Appearance {
                                material 
                                Material {
                                  emissiveColor 1 1 1

                                }

                              }
                              geometry 
                              PointSet {
                                coord 
                                USE _+5

                              }

                            }

                        } ]

                    },
                      
                    USE _+6,
                      
                    Group {
                      children [ 
                        USE _+4,
                          
                        USE _+7 ]

                    },
                      
                    USE _+7 ]

                },
                  
                Group {

                } ]

            }

        },
          
        Group {
          children 
            Transform {
              translation -12.5 -17.5 3
              rotation 0 0 1  0
              scale 1 1 1
              scaleOrientation 0 0 1  0
              center 0 0 0
              children 
                Switch {
                  whichChoice 0
                  choice [ 
                    Group {
                      children [ 
                        DEF _+8 Group {
                          children 
                            Shape {
                              appearance 
                              Appearance {
                                material 
                                Material {
                                  diffuseColor 0.77254903 0.77254903 0.77254903
                                  shininess 1

                                }

                              }
                              geometry 
                              IndexedLineSet {
                                coord 
                                DEF _+9 Coordinate {
                                  point [ 0 0 0,
                                      0 0 1,
                                      0 35 1,
                                      0 35 0,
                                      0 0 0,
                                      25 0 0,
                                      25 0 1,
                                      0 0 1,
                                      0 0 1,
                                      0 35 1,
                                      25 35 1,
                                      25 0 1,
                                      22.749146 12.898161 1,
                                      6.749146 12.898161 1,
                                      22.749146 24.898161 1,
                                      6.749146 24.898161 1,
                                      0 35 0,
                                      25 35 0,
                                      25 35 1,
                                      0 35 1,
                                      0 0 0,
                                      0 35 0,
                                      25 35 0,
                                      25 0 0,
                                      25 0 0,
                                      25 0 1,
                                      25 35 1,
                                      25 35 0,
                                      22.749146 12.898161 1,
                                      22.749146 12.898161 3.4000001,
                                      6.749146 12.898161 1,
                                      6.749146 12.898161 3.4000001,
                                      22.749146 24.898161 1,
                                      22.749146 24.898161 3.4000001,
                                      22.749146 12.898161 1,
                                      22.749146 12.898161 3.4000001,
                                      6.749146 24.898161 1,
                                      6.749146 24.898161 3.4000001,
                                      22.749146 24.898161 1,
                                      22.749146 24.898161 3.4000001,
                                      6.749146 12.898161 1,
                                      6.749146 12.898161 3.4000001,
                                      6.749146 24.898161 1,
                                      6.749146 24.898161 3.4000001,
                                      6.749146 24.898161 3.4000001,
                                      22.749146 24.898161 3.4000001,
                                      22.749146 12.898161 3.4000001,
                                      6.749146 12.898161 3.4000001,
                                      0 0 1,
                                      0 0 0,
                                      0 35 1,
                                      0 35 0,
                                      25 0 0,
                                      25 0 1,
                                      25 35 1,
                                      22.749146 12.898161 1,
                                      6.749146 12.898161 1,
                                      22.749146 24.898161 1,
                                      6.749146 24.898161 1,
                                      25 35 0,
                                      22.749146 12.898161 3.4000001,
                                      6.749146 12.898161 3.4000001,
                                      22.749146 24.898161 3.4000001,
                                      6.749146 24.898161 3.4000001 ]

                                }
                                coordIndex [ 0, 1, -1, 1, 2, -1, 3, 2,
                                    -1, 0, 3, -1, 4, 5, -1, 5,
                                    6, -1, 7, 6, -1, 9, 10, -1,
                                    11, 10, -1, 12, 13, -1, 14, 12,
                                    -1, 15, 14, -1, 13, 15, -1, 16,
                                    17, -1, 17, 18, -1, 23, 22, -1,
                                    28, 29, -1, 29, 31, -1, 30, 31,
                                    -1, 32, 33, -1, 33, 35, -1, 36,
                                    37, -1, 37, 39, -1, 41, 43, -1 ]

                              }

                            }

                        },
                          
                        DEF _+10 Group {
                          children 
                            Shape {
                              appearance 
                              Appearance {
                                material 
                                Material {
                                  diffuseColor 0.17647059 0.3764706 0.69411767

                                }

                              }
                              geometry 
                              IndexedFaceSet {
                                coord 
                                USE _+9
                                normal 
                                Normal {
                                  vector [ -1 0 0,
                                      -1 0 0,
                                      -1 0 0,
                                      -1 0 0,
                                      0 -1 0,
                                      0 -1 0,
                                      0 -1 0,
                                      0 -1 0,
                                      0 0 1,
                                      0 0 1,
                                      0 0 1,
                                      0 0 1,
                                      0 0 1,
                                      0 0 1,
                                      0 0 1,
                                      0 0 1,
                                      0 1 0,
                                      0 1 0,
                                      0 1 0,
                                      0 1 0,
                                      0 0 -1,
                                      0 0 -1,
                                      0 0 -1,
                                      0 0 -1,
                                      1 0 0,
                                      1 0 0,
                                      1 0 0,
                                      1 0 0,
                                      0 -1 0,
                                      0 -1 0,
                                      0 -1 0,
                                      0 -1 0,
                                      1 0 0,
                                      1 0 0,
                                      1 0 0,
                                      1 0 0,
                                      0 1 0,
                                      0 1 0,
                                      0 1 0,
                                      0 1 0,
                                      -1 0 0,
                                      -1 0 0,
                                      -1 0 0,
                                      -1 0 0,
                                      0 0 1,
                                      0 0 1,
                                      0 0 1,
                                      0 0 1 ]

                                }
                                color 
                                Color {
                                  color [ 0.17647059 0.3764706 0.69411767,
                                      0.17647059 0.3764706 0.69411767,
                                      0.17647059 0.3764706 0.69411767,
                                      0.17647059 0.3764706 0.69411767,
                                      0.17647059 0.3764706 0.69411767,
                                      0.17647059 0.3764706 0.69411767,
                                      0.86666667 0.86666667 0.86666667,
                                      0.86666667 0.86666667 0.86666667,
                                      0.86666667 0.86666667 0.86666667,
                                      0.86666667 0.86666667 0.86666667,
                                      0.86666667 0.86666667 0.86666667 ]

                                }
                                colorPerVertex FALSE
                                coordIndex [ 3, 1, 2, -1, 0, 1, 3, -1,
                                    5, 6, 4, -1, 4, 6, 7, -1,
                                    11, 13, 8, -1, 9, 13, 15, -1,
                                    9, 8, 13, -1, 12, 13, 11, -1,
                                    10, 15, 14, -1, 10, 9, 15, -1,
                                    11, 10, 14, -1, 11, 14, 12, -1,
                                    18, 17, 16, -1, 18, 16, 19, -1,
                                    21, 22, 20, -1, 20, 22, 23, -1,
                                    25, 27, 26, -1, 25, 24, 27, -1,
                                    30, 28, 29, -1, 30, 29, 31, -1,
                                    34, 32, 33, -1, 34, 33, 35, -1,
                                    38, 36, 37, -1, 38, 37, 39, -1,
                                    42, 40, 41, -1, 42, 41, 43, -1,
                                    46, 44, 47, -1, 45, 44, 46, -1 ]
                                colorIndex [ 0, 0, 1, 1, 2, 2, 2, 2,
                                    2, 2, 2, 2, 3, 3, 4, 4,
                                    5, 5, 6, 6, 7, 7, 8, 8,
                                    9, 9, 10, 10 ]
                                ccw TRUE
                                solid FALSE
                                convex TRUE
                                creaseAngle 0

                              }

                            }

                        },
                          
                        DEF _+11 Group {
                          children 
                            Shape {
                              appearance 
                              Appearance {
                                material 
                                Material {
                                  emissiveColor 0.098039217 0.098039217 0.098039217

                                }

                              }
                              geometry 
                              PointSet {
                                coord 
                                USE _+9

                              }

                            }

                        } ]

                    },
                      
                    USE _+10,
                      
                    Group {
                      children [ 
                        USE _+8,
                          
                        USE _+11 ]

                    },
                      
                    USE _+11 ]

                }

            }

        } ]

    }

}
