(module GY-NEO6MV2-ANT (layer F.Cu) (tedit 58CC4D43)
  (fp_text reference "GPS ANT" (at 0 0) (layer F.SilkS)
    (effects (font (size 1 1) (thickness 0.15)))
  )
  (fp_text value GY-NEO6MV2-ANT (at 0 0) (layer F.Fab)
    (effects (font (size 1 1) (thickness 0.15)))
  )
  (fp_line (start 2.54 -12.446) (end 2.54 -12.446) (layer F.SilkS) (width 0.15))
  (fp_line (start -12.192 -12.446) (end 2.54 -12.446) (layer F.SilkS) (width 0.15))
  (fp_line (start -12.446 -12.192) (end -12.192 -12.446) (layer F.SilkS) (width 0.15))
  (fp_line (start -12.446 12.192) (end -12.446 -12.192) (layer F.SilkS) (width 0.15))
  (fp_line (start -12.192 12.446) (end -12.446 12.192) (layer F.SilkS) (width 0.15))
  (fp_line (start 12.192 12.446) (end -12.192 12.446) (layer F.SilkS) (width 0.15))
  (fp_line (start 12.446 12.192) (end 12.192 12.446) (layer F.SilkS) (width 0.15))
  (fp_line (start 12.446 -12.192) (end 12.446 12.192) (layer F.SilkS) (width 0.15))
  (fp_line (start 12.192 -12.446) (end 12.446 -12.192) (layer F.SilkS) (width 0.15))
  (fp_line (start 2.54 -12.446) (end 12.192 -12.446) (layer F.SilkS) (width 0.15))
  (pad 3 smd rect (at -5.079999 10.414) (size 4 7) (layers F.Cu F.Paste F.Mask))
  (pad 4 smd rect (at 6 10.4) (size 4 7) (layers F.Cu F.Paste F.Mask))
  (pad 2 smd rect (at 5.079999 -10.414) (size 4 7) (layers F.Cu F.Paste F.Mask))
  (pad 1 smd rect (at -5.079999 -10.414) (size 4 7) (layers F.Cu F.Paste F.Mask))
  (model ${KIPRJMOD}/libs/GY-NEO6MV2.3dshapes/GY-NEO6MV2-ANT.wrl
    (at (xyz 0 0 0))
    (scale (xyz 0.4 0.4 0.4))
    (rotate (xyz 0 0 0))
  )
)
