(module LOGO (layer F.Cu)
  (at 0 0)
 (fp_text reference "G***" (at 0 0) (layer F.SilkS) hide
  (effects (font (thickness 0.3)))
  )
  (fp_text value "LOGO" (at 0.75 0) (layer F.SilkS) hide
  (effects (font (thickness 0.3)))
  )
  (fp_poly (pts (xy -3.398727 3.928386) (xy -3.339836 3.933927) (xy -3.325137 3.936432) (xy -3.242298 3.958407) (xy -3.177488 3.989679) (xy -3.123995 4.033800) (xy -3.108127 4.051264) (xy -3.078655 4.089591)
     (xy -3.056027 4.129704) (xy -3.039417 4.175562) (xy -3.027999 4.231120) (xy -3.020947 4.300337) (xy -3.017434 4.387168) (xy -3.016622 4.489450) (xy -3.016986 4.575367) (xy -3.018056 4.640394)
     (xy -3.020250 4.689039) (xy -3.023987 4.725808) (xy -3.029684 4.755210) (xy -3.037759 4.781754) (xy -3.045666 4.802589) (xy -3.087296 4.877086) (xy -3.145427 4.938826) (xy -3.214747 4.982758)
     (xy -3.248765 4.995550) (xy -3.309361 5.008497) (xy -3.385857 5.017553) (xy -3.468974 5.022189) (xy -3.549437 5.021872) (xy -3.615026 5.016493) (xy -3.719400 4.992063) (xy -3.805286 4.950492)
     (xy -3.872471 4.891931) (xy -3.920742 4.816533) (xy -3.931896 4.789594) (xy -3.943128 4.744077) (xy -3.951789 4.679236) (xy -3.957753 4.601028) (xy -3.960891 4.515413) (xy -3.960912 4.505338)
     (xy -3.770607 4.505338) (xy -3.764777 4.595272) (xy -3.751628 4.674703) (xy -3.731642 4.737620) (xy -3.723077 4.754708) (xy -3.689143 4.793344) (xy -3.637657 4.819685) (xy -3.566623 4.834445)
     (xy -3.489583 4.838421) (xy -3.406483 4.834853) (xy -3.344281 4.823899) (xy -3.327901 4.818368) (xy -3.285708 4.794623) (xy -3.254354 4.759419) (xy -3.231714 4.708798) (xy -3.215658 4.638803)
     (xy -3.209873 4.598807) (xy -3.202460 4.513203) (xy -3.203553 4.430841) (xy -3.209825 4.362887) (xy -3.223653 4.275103) (xy -3.243923 4.209539) (xy -3.273886 4.163215) (xy -3.316790 4.133152)
     (xy -3.375884 4.116371) (xy -3.454417 4.109893) (xy -3.486150 4.109508) (xy -3.572985 4.113468) (xy -3.638822 4.127086) (xy -3.687066 4.152970) (xy -3.721119 4.193727) (xy -3.744385 4.251963)
     (xy -3.758361 4.318000) (xy -3.768630 4.410911) (xy -3.770607 4.505338) (xy -3.960912 4.505338) (xy -3.961077 4.428347) (xy -3.958183 4.345789) (xy -3.952082 4.273696) (xy -3.943994 4.223803)
     (xy -3.913348 4.127763) (xy -3.867961 4.051690) (xy -3.806546 3.994005) (xy -3.727814 3.953129) (xy -3.721100 3.950670) (xy -3.677587 3.940436) (xy -3.616188 3.932824) (xy -3.544308 3.928101)
     (xy -3.469353 3.926533) (xy -3.398727 3.928386) )(layer F.SilkS) (width  0.010000)
  )
  (fp_poly (pts (xy -2.590800 4.335171) (xy -2.590757 4.446214) (xy -2.590501 4.534763) (xy -2.589841 4.603725) (xy -2.588585 4.656008) (xy -2.586544 4.694518) (xy -2.583527 4.722161) (xy -2.579342 4.741845)
     (xy -2.573799 4.756476) (xy -2.566707 4.768960) (xy -2.561844 4.776311) (xy -2.535032 4.808492) (xy -2.506240 4.832480) (xy -2.501519 4.835152) (xy -2.449171 4.849159) (xy -2.380697 4.848034)
     (xy -2.299942 4.832343) (xy -2.210749 4.802654) (xy -2.173171 4.786807) (xy -2.082800 4.746399) (xy -2.082800 3.937000) (xy -1.879600 3.937000) (xy -1.879600 5.016500) (xy -2.032903 5.016500)
     (xy -2.057228 4.959752) (xy -2.081552 4.903005) (xy -2.196207 4.962329) (xy -2.250740 4.989803) (xy -2.291976 5.007480) (xy -2.328859 5.017832) (xy -2.370332 5.023333) (xy -2.425339 5.026454)
     (xy -2.428606 5.026593) (xy -2.485918 5.028375) (xy -2.526014 5.027050) (xy -2.557021 5.021247) (xy -2.587065 5.009599) (xy -2.616200 4.994975) (xy -2.687158 4.944756) (xy -2.739033 4.878119)
     (xy -2.772225 4.794489) (xy -2.779875 4.758983) (xy -2.783888 4.722584) (xy -2.787386 4.664394) (xy -2.790257 4.588018) (xy -2.792388 4.497063) (xy -2.793667 4.395134) (xy -2.794000 4.307434)
     (xy -2.794000 3.937000) (xy -2.590800 3.937000) (xy -2.590800 4.335171) )(layer F.SilkS) (width  0.010000)
  )
  (fp_poly (pts (xy 0.393700 5.017712) (xy 0.314635 5.013931) (xy 0.235571 5.010150) (xy 0.216093 4.957284) (xy 0.203052 4.925388) (xy 0.192432 4.913521) (xy 0.179110 4.917458) (xy 0.172954 4.921720)
     (xy 0.150677 4.933701) (xy 0.111370 4.950934) (xy 0.062027 4.970429) (xy 0.040221 4.978488) (xy -0.046986 5.004825) (xy -0.131085 5.020582) (xy -0.205675 5.024916) (xy -0.260350 5.018101)
     (xy -0.336129 4.988369) (xy -0.398183 4.941955) (xy -0.447452 4.877378) (xy -0.484879 4.793153) (xy -0.511401 4.687799) (xy -0.523764 4.602655) (xy -0.531063 4.512449) (xy -0.531055 4.457700)
     (xy -0.323770 4.457700) (xy -0.322828 4.549103) (xy -0.319370 4.619625) (xy -0.312576 4.673725) (xy -0.301628 4.715866) (xy -0.285706 4.750507) (xy -0.264223 4.781814) (xy -0.237554 4.808832)
     (xy -0.210971 4.826253) (xy -0.165034 4.835934) (xy -0.103475 4.836489) (xy -0.034276 4.828175) (xy 0.006856 4.819227) (xy 0.058951 4.804693) (xy 0.110624 4.788498) (xy 0.136525 4.779401)
     (xy 0.190500 4.759049) (xy 0.190500 4.144562) (xy 0.123825 4.128648) (xy 0.081261 4.120928) (xy 0.022970 4.113550) (xy -0.041391 4.107647) (xy -0.072511 4.105620) (xy -0.144733 4.103387)
     (xy -0.196987 4.107361) (xy -0.234389 4.119734) (xy -0.262053 4.142697) (xy -0.285092 4.178445) (xy -0.296383 4.201596) (xy -0.307020 4.227271) (xy -0.314510 4.253886) (xy -0.319392 4.286469)
     (xy -0.322204 4.330053) (xy -0.323484 4.389667) (xy -0.323770 4.457700) (xy -0.531055 4.457700) (xy -0.531050 4.427869) (xy -0.523836 4.334870) (xy -0.508398 4.225122) (xy -0.486691 4.137222)
     (xy -0.457165 4.068060) (xy -0.418274 4.014526) (xy -0.368467 3.973509) (xy -0.334390 3.954436) (xy -0.302779 3.939762) (xy -0.275593 3.930458) (xy -0.246119 3.925673) (xy -0.207641 3.924554)
     (xy -0.153446 3.926250) (xy -0.123299 3.927648) (xy -0.017402 3.936612) (xy 0.069889 3.952140) (xy 0.101600 3.960983) (xy 0.143320 3.974255) (xy 0.174050 3.983813) (xy 0.187277 3.987631)
     (xy 0.187325 3.987636) (xy 0.188247 3.975589) (xy 0.189064 3.941765) (xy 0.189734 3.889785) (xy 0.190217 3.823271) (xy 0.190471 3.745847) (xy 0.190500 3.708400) (xy 0.190500 3.429000)
     (xy 0.393700 3.429000) (xy 0.393700 5.017712) )(layer F.SilkS) (width  0.010000)
  )
  (fp_poly (pts (xy 1.227185 3.920327) (xy 1.264373 3.923653) (xy 1.293127 3.929782) (xy 1.319101 3.939417) (xy 1.337816 3.948210) (xy 1.403836 3.994388) (xy 1.453465 4.058198) (xy 1.483683 4.135674)
     (xy 1.484985 4.141468) (xy 1.488789 4.172473) (xy 1.492089 4.226028) (xy 1.494802 4.299287) (xy 1.496847 4.389401) (xy 1.498140 4.493525) (xy 1.498599 4.608812) (xy 1.498600 4.610725)
     (xy 1.498600 5.016500) (xy 1.336801 5.016500) (xy 1.320800 4.959350) (xy 1.310094 4.925695) (xy 1.301088 4.905159) (xy 1.298154 4.902200) (xy 1.284227 4.907245) (xy 1.253720 4.920540)
     (xy 1.212942 4.939325) (xy 1.208433 4.941451) (xy 1.142864 4.968751) (xy 1.069943 4.993202) (xy 0.997474 5.012674) (xy 0.933258 5.025036) (xy 0.890143 5.028350) (xy 0.848160 5.023792)
     (xy 0.800538 5.013524) (xy 0.789011 5.010178) (xy 0.720108 4.975800) (xy 0.664176 4.921271) (xy 0.633677 4.870450) (xy 0.621880 4.837936) (xy 0.614576 4.797986) (xy 0.610953 4.744241)
     (xy 0.610157 4.686300) (xy 0.611230 4.656458) (xy 0.802482 4.656458) (xy 0.802615 4.712741) (xy 0.811917 4.764994) (xy 0.829308 4.805012) (xy 0.840770 4.817928) (xy 0.877125 4.833011)
     (xy 0.932859 4.836972) (xy 1.004661 4.830101) (xy 1.089219 4.812688) (xy 1.171575 4.788870) (xy 1.295400 4.748607) (xy 1.295400 4.492973) (xy 1.254125 4.499989) (xy 1.225135 4.503483)
     (xy 1.177610 4.507667) (xy 1.118384 4.511991) (xy 1.060450 4.515564) (xy 0.977439 4.521445) (xy 0.916058 4.529309) (xy 0.872544 4.540505) (xy 0.843133 4.556380) (xy 0.824063 4.578282)
     (xy 0.812602 4.604348) (xy 0.802482 4.656458) (xy 0.611230 4.656458) (xy 0.613275 4.599652) (xy 0.623582 4.532875) (xy 0.642510 4.481098) (xy 0.671491 4.439452) (xy 0.687472 4.423381)
     (xy 0.714103 4.401311) (xy 0.742247 4.384591) (xy 0.775814 4.372504) (xy 0.818715 4.364330) (xy 0.874860 4.359351) (xy 0.948160 4.356849) (xy 1.042526 4.356105) (xy 1.053692 4.356100)
     (xy 1.295400 4.356100) (xy 1.295400 4.267400) (xy 1.294308 4.218474) (xy 1.289384 4.186225) (xy 1.278155 4.161965) (xy 1.258343 4.137225) (xy 1.239039 4.116912) (xy 1.221166 4.104623)
     (xy 1.197787 4.098342) (xy 1.161963 4.096056) (xy 1.115468 4.095750) (xy 1.061617 4.096481) (xy 0.991184 4.098479) (xy 0.912940 4.101447) (xy 0.835654 4.105086) (xy 0.828675 4.105456)
     (xy 0.647700 4.115163) (xy 0.647700 3.976079) (xy 0.695325 3.963378) (xy 0.805305 3.940875) (xy 0.935932 3.926127) (xy 1.083545 3.919529) (xy 1.104900 3.919281) (xy 1.175911 3.919104)
     (xy 1.227185 3.920327) )(layer F.SilkS) (width  0.010000)
  )
  (fp_poly (pts (xy 3.548017 3.933191) (xy 3.627442 3.939970) (xy 3.690854 3.952962) (xy 3.742785 3.973244) (xy 3.787765 4.001893) (xy 3.805557 4.016578) (xy 3.854662 4.073990) (xy 3.891976 4.150205)
     (xy 3.917819 4.246347) (xy 3.932510 4.363537) (xy 3.936460 4.476750) (xy 3.931703 4.610360) (xy 3.916174 4.722096) (xy 3.889176 4.813398) (xy 3.850012 4.885708) (xy 3.797985 4.940466)
     (xy 3.732397 4.979114) (xy 3.685682 4.995325) (xy 3.612922 5.010011) (xy 3.525840 5.019443) (xy 3.435089 5.023001) (xy 3.351322 5.020065) (xy 3.319818 5.016613) (xy 3.239680 5.000558)
     (xy 3.175702 4.975424) (xy 3.119209 4.937462) (xy 3.101720 4.922377) (xy 3.058409 4.873730) (xy 3.025569 4.813711) (xy 3.001556 4.738145) (xy 2.984726 4.642856) (xy 2.981663 4.617392)
     (xy 2.973666 4.494752) (xy 2.975221 4.439497) (xy 3.177841 4.439497) (xy 3.177894 4.557004) (xy 3.187644 4.652042) (xy 3.207477 4.725776) (xy 3.237780 4.779370) (xy 3.278940 4.813987)
     (xy 3.305973 4.825247) (xy 3.336031 4.830268) (xy 3.383679 4.833726) (xy 3.441131 4.835178) (xy 3.475735 4.834928) (xy 3.537802 4.832913) (xy 3.580506 4.829098) (xy 3.609875 4.822413)
     (xy 3.631936 4.811788) (xy 3.640835 4.805622) (xy 3.670330 4.781409) (xy 3.692319 4.756198) (xy 3.707883 4.725894) (xy 3.718099 4.686401) (xy 3.724046 4.633623) (xy 3.726803 4.563465)
     (xy 3.727450 4.476750) (xy 3.726415 4.380890) (xy 3.722692 4.306727) (xy 3.715347 4.250621) (xy 3.703449 4.208929) (xy 3.686067 4.178010) (xy 3.662268 4.154222) (xy 3.641255 4.139840)
     (xy 3.592714 4.120382) (xy 3.529758 4.109249) (xy 3.459377 4.106149) (xy 3.388563 4.110790) (xy 3.324309 4.122878) (xy 3.273604 4.142120) (xy 3.253550 4.156080) (xy 3.227082 4.185376)
     (xy 3.207627 4.220318) (xy 3.193983 4.265409) (xy 3.184948 4.325148) (xy 3.179320 4.404037) (xy 3.177841 4.439497) (xy 2.975221 4.439497) (xy 2.976962 4.377684) (xy 2.990814 4.269575)
     (xy 3.014486 4.173811) (xy 3.047240 4.093780) (xy 3.088341 4.032869) (xy 3.114039 4.008895) (xy 3.156370 3.979981) (xy 3.199461 3.959099) (xy 3.248580 3.945031) (xy 3.308996 3.936554)
     (xy 3.385977 3.932451) (xy 3.448050 3.931547) (xy 3.548017 3.933191) )(layer F.SilkS) (width  0.010000)
  )
  (fp_poly (pts (xy -4.711266 3.533886) (xy -4.627916 3.536485) (xy -4.522778 3.541267) (xy -4.518516 3.541477) (xy -4.430983 3.545684) (xy -4.348924 3.549413) (xy -4.276764 3.552480) (xy -4.218928 3.554700)
     (xy -4.179840 3.555890) (xy -4.168775 3.556041) (xy -4.114800 3.556000) (xy -4.114800 3.721100) (xy -4.439485 3.721100) (xy -4.546214 3.721384) (xy -4.630479 3.722456) (xy -4.695212 3.724638)
     (xy -4.743346 3.728257) (xy -4.777812 3.733637) (xy -4.801542 3.741104) (xy -4.817468 3.750983) (xy -4.828524 3.763597) (xy -4.828981 3.764276) (xy -4.832205 3.781253) (xy -4.834972 3.818910)
     (xy -4.837071 3.872527) (xy -4.838288 3.937385) (xy -4.838506 3.976323) (xy -4.838700 4.174396) (xy -4.684307 4.182698) (xy -4.607050 4.186198) (xy -4.522722 4.188969) (xy -4.443522 4.190654)
     (xy -4.400144 4.191000) (xy -4.340579 4.191773) (xy -4.286454 4.193851) (xy -4.245486 4.196873) (xy -4.230688 4.198937) (xy -4.208338 4.204685) (xy -4.196499 4.214975) (xy -4.191832 4.236610)
     (xy -4.191001 4.276392) (xy -4.191000 4.279825) (xy -4.191000 4.352776) (xy -4.238625 4.360648) (xy -4.270367 4.363807) (xy -4.320331 4.366399) (xy -4.381342 4.368135) (xy -4.438650 4.368725)
     (xy -4.514813 4.369587) (xy -4.597279 4.371742) (xy -4.674057 4.374825) (xy -4.714875 4.377131) (xy -4.838700 4.385330) (xy -4.838700 5.016500) (xy -5.043371 5.016500) (xy -5.039461 4.365625)
     (xy -5.038568 4.220411) (xy -5.037716 4.098380) (xy -5.036804 3.997314) (xy -5.035730 3.914998) (xy -5.034392 3.849215) (xy -5.032691 3.797746) (xy -5.030524 3.758377) (xy -5.027790 3.728889)
     (xy -5.024388 3.707066) (xy -5.020217 3.690691) (xy -5.015175 3.677547) (xy -5.009162 3.665418) (xy -5.007330 3.661975) (xy -4.982255 3.623159) (xy -4.953772 3.590083) (xy -4.945285 3.582595)
     (xy -4.920859 3.565174) (xy -4.895162 3.551914) (xy -4.864774 3.542485) (xy -4.826275 3.536557) (xy -4.776245 3.533800) (xy -4.711266 3.533886) )(layer F.SilkS) (width  0.010000)
  )
  (fp_poly (pts (xy -1.024707 3.921528) (xy -0.972738 3.927128) (xy -0.934966 3.935554) (xy -0.870675 3.970056) (xy -0.812730 4.023822) (xy -0.767442 4.090715) (xy -0.760344 4.105381) (xy -0.752157 4.124201)
     (xy -0.745575 4.142559) (xy -0.740392 4.163412) (xy -0.736403 4.189718) (xy -0.733400 4.224436) (xy -0.731179 4.270523) (xy -0.729533 4.330937) (xy -0.728256 4.408636) (xy -0.727142 4.506578)
     (xy -0.726298 4.594225) (xy -0.722346 5.016500) (xy -0.927100 5.016500) (xy -0.927100 4.622392) (xy -0.927290 4.501482) (xy -0.928132 4.403322) (xy -0.930036 4.325260) (xy -0.933411 4.264648)
     (xy -0.938665 4.218835) (xy -0.946209 4.185171) (xy -0.956452 4.161006) (xy -0.969802 4.143690) (xy -0.986669 4.130574) (xy -1.004612 4.120471) (xy -1.061184 4.103838) (xy -1.132437 4.102768)
     (xy -1.213446 4.116677) (xy -1.299284 4.144981) (xy -1.331817 4.159237) (xy -1.435100 4.207705) (xy -1.435100 5.016500) (xy -1.625600 5.016500) (xy -1.625600 3.937000) (xy -1.549400 3.937000)
     (xy -1.509212 3.938688) (xy -1.481601 3.943075) (xy -1.473200 3.948149) (xy -1.468662 3.966198) (xy -1.457417 3.996900) (xy -1.454054 4.005122) (xy -1.434907 4.050946) (xy -1.370948 4.011591)
     (xy -1.278846 3.962540) (xy -1.191188 3.933078) (xy -1.099928 3.920675) (xy -1.079500 3.920000) (xy -1.024707 3.921528) )(layer F.SilkS) (width  0.010000)
  )
  (fp_poly (pts (xy 2.044700 3.937000) (xy 2.336800 3.937000) (xy 2.336800 4.114800) (xy 2.042715 4.114800) (xy 2.046882 4.422775) (xy 2.048639 4.531935) (xy 2.051289 4.618608) (xy 2.055827 4.685706)
     (xy 2.063250 4.736140) (xy 2.074554 4.772824) (xy 2.090735 4.798669) (xy 2.112789 4.816588) (xy 2.141711 4.829492) (xy 2.178498 4.840294) (xy 2.190750 4.843442) (xy 2.218964 4.850658)
     (xy 2.258134 4.860738) (xy 2.270125 4.863833) (xy 2.324100 4.877779) (xy 2.324100 5.016500) (xy 2.200275 5.015942) (xy 2.132510 5.013566) (xy 2.073219 5.007616) (xy 2.030241 4.998924)
     (xy 2.025650 4.997422) (xy 1.984245 4.976038) (xy 1.943758 4.944931) (xy 1.934384 4.935550) (xy 1.911801 4.908449) (xy 1.893826 4.879415) (xy 1.879950 4.845285) (xy 1.869666 4.802896)
     (xy 1.862464 4.749083) (xy 1.857838 4.680682) (xy 1.855278 4.594531) (xy 1.854277 4.487466) (xy 1.854200 4.436344) (xy 1.854200 4.114800) (xy 1.651000 4.114800) (xy 1.651000 3.976339)
     (xy 1.851038 3.933353) (xy 1.868494 3.785951) (xy 1.885950 3.638550) (xy 1.965325 3.634768) (xy 2.044700 3.630987) (xy 2.044700 3.937000) )(layer F.SilkS) (width  0.010000)
  )
  (fp_poly (pts (xy 2.730500 5.016500) (xy 2.540000 5.016500) (xy 2.540000 3.937000) (xy 2.730500 3.937000) (xy 2.730500 5.016500) )(layer F.SilkS) (width  0.010000)
  )
  (fp_poly (pts (xy 4.779193 3.921528) (xy 4.831162 3.927128) (xy 4.868934 3.935554) (xy 4.933225 3.970056) (xy 4.991170 4.023822) (xy 5.036458 4.090715) (xy 5.043556 4.105381) (xy 5.051743 4.124201)
     (xy 5.058325 4.142559) (xy 5.063508 4.163412) (xy 5.067497 4.189718) (xy 5.070500 4.224436) (xy 5.072721 4.270523) (xy 5.074367 4.330937) (xy 5.075644 4.408636) (xy 5.076758 4.506578)
     (xy 5.077602 4.594225) (xy 5.081554 5.016500) (xy 4.876800 5.016500) (xy 4.876800 4.622392) (xy 4.876610 4.501482) (xy 4.875768 4.403322) (xy 4.873864 4.325260) (xy 4.870489 4.264648)
     (xy 4.865235 4.218835) (xy 4.857691 4.185171) (xy 4.847448 4.161006) (xy 4.834098 4.143690) (xy 4.817231 4.130574) (xy 4.799288 4.120471) (xy 4.742716 4.103838) (xy 4.671463 4.102768)
     (xy 4.590454 4.116677) (xy 4.504616 4.144981) (xy 4.472083 4.159237) (xy 4.368800 4.207705) (xy 4.368800 5.016500) (xy 4.178300 5.016500) (xy 4.178300 3.937000) (xy 4.254500 3.937000)
     (xy 4.294688 3.938688) (xy 4.322299 3.943075) (xy 4.330700 3.948149) (xy 4.335238 3.966198) (xy 4.346483 3.996900) (xy 4.349846 4.005122) (xy 4.368993 4.050946) (xy 4.432952 4.011591)
     (xy 4.525054 3.962540) (xy 4.612712 3.933078) (xy 4.703972 3.920675) (xy 4.724400 3.920000) (xy 4.779193 3.921528) )(layer F.SilkS) (width  0.010000)
  )
  (fp_poly (pts (xy 2.642687 3.596727) (xy 2.749550 3.600450) (xy 2.749550 3.816350) (xy 2.647780 3.819990) (xy 2.583543 3.820031) (xy 2.543672 3.814647) (xy 2.530305 3.807925) (xy 2.522319 3.787420)
     (xy 2.517102 3.750233) (xy 2.514867 3.704952) (xy 2.515825 3.660164) (xy 2.520188 3.624458) (xy 2.525407 3.609427) (xy 2.540134 3.600788) (xy 2.572630 3.596508) (xy 2.626187 3.596232)
     (xy 2.642687 3.596727) )(layer F.SilkS) (width  0.010000)
  )
  (fp_poly (pts (xy 1.792288 2.008707) (xy 1.867073 2.034060) (xy 1.928028 2.078863) (xy 1.977025 2.144588) (xy 2.015936 2.232705) (xy 2.022780 2.253487) (xy 2.033661 2.291333) (xy 2.041352 2.327985)
     (xy 2.046370 2.369002) (xy 2.049231 2.419944) (xy 2.050452 2.486368) (xy 2.050598 2.552700) (xy 2.047647 2.677844) (xy 2.038603 2.781044) (xy 2.022535 2.865222) (xy 1.998512 2.933305)
     (xy 1.965604 2.988217) (xy 1.922880 3.032881) (xy 1.889991 3.057416) (xy 1.862007 3.074187) (xy 1.834507 3.085000) (xy 1.800295 3.091464) (xy 1.752172 3.095187) (xy 1.713885 3.096765)
     (xy 1.653554 3.097789) (xy 1.602194 3.095357) (xy 1.551761 3.088306) (xy 1.494210 3.075472) (xy 1.421497 3.055692) (xy 1.412875 3.053228) (xy 1.384300 3.045037) (xy 1.384300 3.632200)
     (xy 1.092200 3.632200) (xy 1.092200 2.310103) (xy 1.384300 2.310103) (xy 1.384300 2.830130) (xy 1.425575 2.842987) (xy 1.471136 2.856176) (xy 1.509039 2.863713) (xy 1.551066 2.867379)
     (xy 1.595896 2.868726) (xy 1.640432 2.868469) (xy 1.668329 2.863655) (xy 1.688297 2.851372) (xy 1.706515 2.831726) (xy 1.726705 2.803102) (xy 1.741146 2.769684) (xy 1.750661 2.726943)
     (xy 1.756069 2.670352) (xy 1.758193 2.595382) (xy 1.758266 2.546350) (xy 1.754326 2.447010) (xy 1.743099 2.370255) (xy 1.723980 2.314161) (xy 1.696360 2.276805) (xy 1.667566 2.259053)
     (xy 1.629149 2.252624) (xy 1.575486 2.254904) (xy 1.514767 2.264812) (xy 1.455184 2.281271) (xy 1.431925 2.290105) (xy 1.384300 2.310103) (xy 1.092200 2.310103) (xy 1.092200 2.006600)
     (xy 1.332983 2.006600) (xy 1.359154 2.057899) (xy 1.385325 2.109199) (xy 1.423180 2.082244) (xy 1.496055 2.042855) (xy 1.584051 2.015322) (xy 1.678692 2.002106) (xy 1.701800 2.001334)
     (xy 1.792288 2.008707) )(layer F.SilkS) (width  0.010000)
  )
  (fp_poly (pts (xy -3.276600 2.056771) (xy -3.241971 2.043605) (xy -3.186914 2.026956) (xy -3.117445 2.011906) (xy -3.044547 2.000393) (xy -2.979205 1.994358) (xy -2.960575 1.993900) (xy -2.866675 2.001809)
     (xy -2.790137 2.026236) (xy -2.728178 2.068228) (xy -2.707839 2.089053) (xy -2.675640 2.131087) (xy -2.651025 2.177424) (xy -2.632912 2.232307) (xy -2.620219 2.299977) (xy -2.611866 2.384675)
     (xy -2.606963 2.484828) (xy -2.605735 2.617742) (xy -2.612250 2.729050) (xy -2.627185 2.821544) (xy -2.651217 2.898016) (xy -2.685022 2.961256) (xy -2.729276 3.014057) (xy -2.736959 3.021344)
     (xy -2.776599 3.052257) (xy -2.818648 3.076623) (xy -2.840296 3.085065) (xy -2.913627 3.096630) (xy -2.996416 3.095895) (xy -3.076203 3.083395) (xy -3.109621 3.073432) (xy -3.157296 3.054383)
     (xy -3.202813 3.033176) (xy -3.221721 3.022943) (xy -3.255523 3.005753) (xy -3.276549 3.006132) (xy -3.292348 3.026413) (xy -3.301888 3.047727) (xy -3.317782 3.086100) (xy -3.568700 3.086100)
     (xy -3.568700 2.263133) (xy -3.276600 2.263133) (xy -3.276600 2.521769) (xy -3.276521 2.608961) (xy -3.276045 2.674198) (xy -3.274811 2.720926) (xy -3.272460 2.752593) (xy -3.268634 2.772643)
     (xy -3.262973 2.784522) (xy -3.255117 2.791677) (xy -3.248025 2.795770) (xy -3.192981 2.818726) (xy -3.129288 2.835211) (xy -3.065353 2.843941) (xy -3.009586 2.843634) (xy -2.978648 2.836883)
     (xy -2.948797 2.812085) (xy -2.925402 2.763703) (xy -2.908803 2.692805) (xy -2.899338 2.600460) (xy -2.898544 2.584581) (xy -2.898076 2.468847) (xy -2.907781 2.375672) (xy -2.927612 2.305326)
     (xy -2.952701 2.263328) (xy -2.971881 2.244206) (xy -2.992903 2.233987) (xy -3.024116 2.230142) (xy -3.062833 2.229967) (xy -3.119712 2.233391) (xy -3.178717 2.240967) (xy -3.209925 2.247108)
     (xy -3.276600 2.263133) (xy -3.568700 2.263133) (xy -3.568700 1.498600) (xy -3.276600 1.498600) (xy -3.276600 2.056771) )(layer F.SilkS) (width  0.010000)
  )
  (fp_poly (pts (xy -1.073058 2.008692) (xy -0.986835 2.015768) (xy -0.919134 2.029024) (xy -0.866658 2.049659) (xy -0.826111 2.078870) (xy -0.794194 2.117854) (xy -0.773789 2.154533) (xy -0.755325 2.209093)
     (xy -0.742908 2.278864) (xy -0.737000 2.355180) (xy -0.738066 2.429375) (xy -0.746569 2.492783) (xy -0.754269 2.519100) (xy -0.775149 2.564412) (xy -0.801177 2.599724) (xy -0.835525 2.626194)
     (xy -0.881365 2.644981) (xy -0.941866 2.657245) (xy -1.020201 2.664144) (xy -1.119540 2.666836) (xy -1.158969 2.667000) (xy -1.374945 2.667000) (xy -1.368066 2.718283) (xy -1.350668 2.780610)
     (xy -1.318591 2.825706) (xy -1.285211 2.846670) (xy -1.257904 2.851621) (xy -1.207011 2.854733) (xy -1.134281 2.855956) (xy -1.041464 2.855244) (xy -1.000125 2.854430) (xy -0.749300 2.848753)
     (xy -0.749300 3.045466) (xy -0.809625 3.059654) (xy -0.882683 3.073521) (xy -0.968540 3.084501) (xy -1.061729 3.092415) (xy -1.156781 3.097082) (xy -1.248230 3.098321) (xy -1.330608 3.095952)
     (xy -1.398446 3.089795) (xy -1.443486 3.080576) (xy -1.506173 3.053508) (xy -1.557246 3.014063) (xy -1.597379 2.960407) (xy -1.627246 2.890707) (xy -1.647519 2.803127) (xy -1.658872 2.695833)
     (xy -1.661978 2.566993) (xy -1.660512 2.489389) (xy -1.658751 2.451100) (xy -1.371600 2.451100) (xy -1.223376 2.451100) (xy -1.156101 2.450426) (xy -1.109497 2.448020) (xy -1.078861 2.443306)
     (xy -1.059490 2.435706) (xy -1.051926 2.430081) (xy -1.034117 2.398792) (xy -1.028734 2.355128) (xy -1.034786 2.308282) (xy -1.051282 2.267448) (xy -1.071877 2.244919) (xy -1.096296 2.238042)
     (xy -1.137775 2.234846) (xy -1.188294 2.235013) (xy -1.239829 2.238228) (xy -1.284358 2.244173) (xy -1.313858 2.252530) (xy -1.317481 2.254624) (xy -1.342214 2.284696) (xy -1.360873 2.332008)
     (xy -1.370692 2.388614) (xy -1.371530 2.409825) (xy -1.371600 2.451100) (xy -1.658751 2.451100) (xy -1.655813 2.387254) (xy -1.647981 2.306177) (xy -1.635874 2.241892) (xy -1.618344 2.190134)
     (xy -1.594249 2.146638) (xy -1.562444 2.107139) (xy -1.556124 2.100449) (xy -1.520191 2.067939) (xy -1.480724 2.043572) (xy -1.433556 2.026304) (xy -1.374516 2.015091) (xy -1.299436 2.008892)
     (xy -1.204149 2.006661) (xy -1.181101 2.006600) (xy -1.073058 2.008692) )(layer F.SilkS) (width  0.010000)
  )
  (fp_poly (pts (xy 0.387350 1.596680) (xy 0.517877 1.599800) (xy 0.638847 1.607901) (xy 0.745270 1.620512) (xy 0.832151 1.637162) (xy 0.841375 1.639501) (xy 0.889000 1.651979) (xy 0.889000 1.879982)
     (xy 0.585602 1.871461) (xy 0.282205 1.862940) (xy 0.250069 1.895075) (xy 0.223660 1.937120) (xy 0.208669 1.993608) (xy 0.205359 2.056164) (xy 0.213994 2.116412) (xy 0.234838 2.165977)
     (xy 0.241269 2.174839) (xy 0.250817 2.185116) (xy 0.262963 2.192755) (xy 0.281548 2.198299) (xy 0.310412 2.202294) (xy 0.353396 2.205283) (xy 0.414341 2.207811) (xy 0.490983 2.210241)
     (xy 0.574373 2.213035) (xy 0.636740 2.216061) (xy 0.682459 2.219861) (xy 0.715905 2.224975) (xy 0.741455 2.231945) (xy 0.763481 2.241313) (xy 0.770296 2.244797) (xy 0.831422 2.285989)
     (xy 0.878211 2.339011) (xy 0.911747 2.406452) (xy 0.933117 2.490902) (xy 0.943408 2.594950) (xy 0.944740 2.660650) (xy 0.941973 2.757729) (xy 0.932993 2.834729) (xy 0.916376 2.896511)
     (xy 0.890698 2.947939) (xy 0.854537 2.993878) (xy 0.844030 3.004737) (xy 0.809789 3.035586) (xy 0.774116 3.059016) (xy 0.732998 3.075942) (xy 0.682424 3.087275) (xy 0.618382 3.093929)
     (xy 0.536860 3.096816) (xy 0.439019 3.096897) (xy 0.364480 3.095988) (xy 0.296305 3.094685) (xy 0.239633 3.093122) (xy 0.199598 3.091433) (xy 0.184150 3.090239) (xy 0.152574 3.085198)
     (xy 0.106155 3.076518) (xy 0.054843 3.066060) (xy 0.053975 3.065876) (xy -0.038100 3.046267) (xy -0.038100 2.806399) (xy 0.013254 2.814611) (xy 0.041678 2.817211) (xy 0.090670 2.819622)
     (xy 0.155398 2.821695) (xy 0.231029 2.823278) (xy 0.312731 2.824220) (xy 0.323243 2.824286) (xy 0.410459 2.824706) (xy 0.475943 2.824595) (xy 0.523361 2.823585) (xy 0.556380 2.821307)
     (xy 0.578668 2.817392) (xy 0.593890 2.811472) (xy 0.605715 2.803177) (xy 0.614788 2.794961) (xy 0.631667 2.776793) (xy 0.641547 2.756772) (xy 0.646265 2.727715) (xy 0.647656 2.682436)
     (xy 0.647700 2.666193) (xy 0.646223 2.610726) (xy 0.640929 2.573684) (xy 0.630518 2.548219) (xy 0.623432 2.538231) (xy 0.613535 2.527344) (xy 0.601476 2.519295) (xy 0.583330 2.513487)
     (xy 0.555173 2.509320) (xy 0.513079 2.506197) (xy 0.453124 2.503517) (xy 0.378957 2.500934) (xy 0.286899 2.497235) (xy 0.215816 2.492332) (xy 0.161282 2.485154) (xy 0.118874 2.474629)
     (xy 0.084166 2.459685) (xy 0.052733 2.439250) (xy 0.022905 2.414681) (xy -0.008675 2.379183) (xy -0.038661 2.333071) (xy -0.050969 2.308317) (xy -0.069890 2.246284) (xy -0.082140 2.168075)
     (xy -0.087801 2.080390) (xy -0.086958 1.989931) (xy -0.079695 1.903399) (xy -0.066097 1.827497) (xy -0.046248 1.768926) (xy -0.044135 1.764690) (xy -0.003740 1.709836) (xy 0.054839 1.661026)
     (xy 0.124387 1.624240) (xy 0.126218 1.623520) (xy 0.157422 1.612542) (xy 0.188717 1.604930) (xy 0.225600 1.600121) (xy 0.273566 1.597550) (xy 0.338111 1.596651) (xy 0.387350 1.596680) )(layer F.SilkS) (width  0.010000)
  )
  (fp_poly (pts (xy 2.699073 1.995792) (xy 2.772726 1.998102) (xy 2.826532 2.001277) (xy 2.866042 2.006124) (xy 2.896808 2.013450) (xy 2.924384 2.024062) (xy 2.938016 2.030510) (xy 3.004036 2.076688)
     (xy 3.053665 2.140498) (xy 3.083883 2.217974) (xy 3.085185 2.223768) (xy 3.088998 2.254799) (xy 3.092309 2.308301) (xy 3.095030 2.381348) (xy 3.097076 2.471015) (xy 3.098362 2.574376)
     (xy 3.098800 2.686675) (xy 3.098800 3.086100) (xy 2.861357 3.086100) (xy 2.838450 3.035300) (xy 2.820495 3.000046) (xy 2.806241 2.986527) (xy 2.791606 2.992299) (xy 2.782670 3.001898)
     (xy 2.764171 3.015790) (xy 2.729832 3.035195) (xy 2.689040 3.055002) (xy 2.608903 3.082281) (xy 2.523962 3.096034) (xy 2.441821 3.095857) (xy 2.370087 3.081344) (xy 2.349500 3.073109)
     (xy 2.285002 3.035931) (xy 2.237875 2.990288) (xy 2.205892 2.940050) (xy 2.193135 2.911505) (xy 2.185013 2.879755) (xy 2.180540 2.838161) (xy 2.178734 2.780085) (xy 2.178553 2.755560)
     (xy 2.178775 2.722919) (xy 2.476514 2.722919) (xy 2.477547 2.770670) (xy 2.484804 2.812597) (xy 2.497819 2.838905) (xy 2.527748 2.852908) (xy 2.574289 2.856129) (xy 2.631339 2.849155)
     (xy 2.692796 2.832572) (xy 2.733675 2.816251) (xy 2.806700 2.782705) (xy 2.806700 2.603500) (xy 2.733675 2.604571) (xy 2.644208 2.608483) (xy 2.573128 2.617078) (xy 2.522640 2.629955)
     (xy 2.494952 2.646715) (xy 2.493904 2.648052) (xy 2.481901 2.678870) (xy 2.476514 2.722919) (xy 2.178775 2.722919) (xy 2.178982 2.692657) (xy 2.181604 2.647970) (xy 2.187583 2.614336)
     (xy 2.198081 2.584593) (xy 2.210495 2.558824) (xy 2.250183 2.501168) (xy 2.304701 2.457563) (xy 2.327560 2.443792) (xy 2.347902 2.433729) (xy 2.370219 2.426700) (xy 2.399004 2.422033)
     (xy 2.438750 2.419054) (xy 2.493950 2.417090) (xy 2.569096 2.415468) (xy 2.588094 2.415102) (xy 2.809725 2.410855) (xy 2.803625 2.347368) (xy 2.790524 2.288684) (xy 2.769861 2.256365)
     (xy 2.756605 2.244959) (xy 2.740739 2.237306) (xy 2.717389 2.232743) (xy 2.681685 2.230606) (xy 2.628753 2.230233) (xy 2.580774 2.230645) (xy 2.506588 2.232090) (xy 2.429668 2.234624)
     (xy 2.359948 2.237867) (xy 2.314575 2.240833) (xy 2.209800 2.249225) (xy 2.209800 2.058384) (xy 2.271541 2.040048) (xy 2.379502 2.014681) (xy 2.499277 1.999825) (xy 2.635754 1.994972)
     (xy 2.699073 1.995792) )(layer F.SilkS) (width  0.010000)
  )
  (fp_poly (pts (xy 3.663805 2.000310) (xy 3.743942 2.005210) (xy 3.827959 2.012984) (xy 3.908826 2.023046) (xy 3.979511 2.034814) (xy 4.001956 2.039547) (xy 4.089400 2.059435) (xy 4.089400 2.247633)
     (xy 3.855656 2.244591) (xy 3.773246 2.243616) (xy 3.712331 2.243414) (xy 3.669011 2.244386) (xy 3.639384 2.246929) (xy 3.619550 2.251444) (xy 3.605606 2.258330) (xy 3.593652 2.267985)
     (xy 3.589504 2.271824) (xy 3.562867 2.309494) (xy 3.544577 2.365857) (xy 3.534342 2.442554) (xy 3.531872 2.541224) (xy 3.533108 2.590358) (xy 3.538732 2.678209) (xy 3.548944 2.744216)
     (xy 3.564895 2.791701) (xy 3.587733 2.823986) (xy 3.618608 2.844393) (xy 3.621410 2.845591) (xy 3.644919 2.851698) (xy 3.681960 2.855347) (xy 3.735661 2.856635) (xy 3.809149 2.855654)
     (xy 3.880869 2.853424) (xy 4.102100 2.845423) (xy 4.102100 3.032542) (xy 4.052029 3.052576) (xy 4.011301 3.065723) (xy 3.958976 3.078539) (xy 3.921854 3.085609) (xy 3.867430 3.091917)
     (xy 3.799974 3.095979) (xy 3.725483 3.097848) (xy 3.649950 3.097581) (xy 3.579372 3.095232) (xy 3.519743 3.090855) (xy 3.477058 3.084506) (xy 3.466101 3.081437) (xy 3.405305 3.053033)
     (xy 3.358125 3.013321) (xy 3.324678 2.969855) (xy 3.296553 2.922222) (xy 3.275526 2.871444) (xy 3.260479 2.812551) (xy 3.250294 2.740573) (xy 3.243853 2.650540) (xy 3.241837 2.601647)
     (xy 3.241544 2.456864) (xy 3.251818 2.334267) (xy 3.273249 2.232687) (xy 3.306424 2.150951) (xy 3.351930 2.087891) (xy 3.410358 2.042334) (xy 3.482293 2.013111) (xy 3.543300 2.001464)
     (xy 3.594580 1.998867) (xy 3.663805 2.000310) )(layer F.SilkS) (width  0.010000)
  )
  (fp_poly (pts (xy 4.775002 2.008329) (xy 4.855099 2.014099) (xy 4.917785 2.024786) (xy 4.966958 2.041263) (xy 5.006513 2.064404) (xy 5.032760 2.087207) (xy 5.064911 2.126917) (xy 5.087791 2.174835)
     (xy 5.103111 2.236218) (xy 5.112582 2.316319) (xy 5.114040 2.336800) (xy 5.115370 2.427152) (xy 5.105582 2.498119) (xy 5.083697 2.553605) (xy 5.048787 2.597465) (xy 5.020192 2.621050)
     (xy 4.988519 2.638777) (xy 4.949771 2.651429) (xy 4.899953 2.659784) (xy 4.835068 2.664623) (xy 4.751122 2.666726) (xy 4.692679 2.667000) (xy 4.479755 2.667000) (xy 4.486634 2.718283)
     (xy 4.504017 2.780580) (xy 4.536055 2.825645) (xy 4.569489 2.846621) (xy 4.596549 2.851527) (xy 4.646796 2.854678) (xy 4.718069 2.856011) (xy 4.808212 2.855463) (xy 4.848225 2.854721)
     (xy 5.092700 2.849435) (xy 5.092700 3.047020) (xy 5.045075 3.059624) (xy 4.985962 3.071652) (xy 4.910061 3.081755) (xy 4.823218 3.089680) (xy 4.731280 3.095178) (xy 4.640092 3.097996)
     (xy 4.555501 3.097884) (xy 4.483351 3.094590) (xy 4.429490 3.087864) (xy 4.422592 3.086366) (xy 4.357110 3.062126) (xy 4.303377 3.022446) (xy 4.260883 2.965994) (xy 4.229117 2.891434)
     (xy 4.207570 2.797433) (xy 4.195731 2.682656) (xy 4.193090 2.545771) (xy 4.194338 2.489389) (xy 4.196062 2.451100) (xy 4.483100 2.451100) (xy 4.631324 2.451100) (xy 4.698599 2.450426)
     (xy 4.745203 2.448020) (xy 4.775839 2.443306) (xy 4.795210 2.435706) (xy 4.802774 2.430081) (xy 4.819224 2.400239) (xy 4.824465 2.357416) (xy 4.819446 2.310933) (xy 4.805118 2.270111)
     (xy 4.783930 2.245177) (xy 4.758637 2.238177) (xy 4.716382 2.234908) (xy 4.665279 2.235060) (xy 4.613442 2.238324) (xy 4.568987 2.244387) (xy 4.540026 2.252939) (xy 4.537219 2.254624)
     (xy 4.512486 2.284696) (xy 4.493827 2.332008) (xy 4.484008 2.388614) (xy 4.483170 2.409825) (xy 4.483100 2.451100) (xy 4.196062 2.451100) (xy 4.198883 2.388454) (xy 4.206136 2.308622)
     (xy 4.217219 2.245646) (xy 4.233252 2.195276) (xy 4.255357 2.153266) (xy 4.284655 2.115368) (xy 4.296392 2.102729) (xy 4.332700 2.069566) (xy 4.371913 2.044704) (xy 4.418259 2.027065)
     (xy 4.475966 2.015572) (xy 4.549261 2.009147) (xy 4.642371 2.006713) (xy 4.673599 2.006600) (xy 4.775002 2.008329) )(layer F.SilkS) (width  0.010000)
  )
  (fp_poly (pts (xy -4.775200 2.181972) (xy -4.775087 2.322635) (xy -4.774703 2.439993) (xy -4.773988 2.536140) (xy -4.772880 2.613170) (xy -4.771315 2.673177) (xy -4.769233 2.718256) (xy -4.766570 2.750500)
     (xy -4.763264 2.772004) (xy -4.759254 2.784861) (xy -4.757193 2.788397) (xy -4.749901 2.796320) (xy -4.738919 2.802419) (xy -4.721013 2.806990) (xy -4.692948 2.810330) (xy -4.651491 2.812734)
     (xy -4.593406 2.814499) (xy -4.515460 2.815921) (xy -4.446043 2.816888) (xy -4.152900 2.820727) (xy -4.152900 3.086100) (xy -4.505325 3.085008) (xy -4.599109 3.084362) (xy -4.685958 3.083090)
     (xy -4.762219 3.081298) (xy -4.824241 3.079094) (xy -4.868370 3.076583) (xy -4.890953 3.073874) (xy -4.891499 3.073721) (xy -4.962800 3.041499) (xy -5.015575 2.992866) (xy -5.050859 2.926537)
     (xy -5.067835 2.855561) (xy -5.070246 2.826262) (xy -5.072499 2.774542) (xy -5.074542 2.703378) (xy -5.076322 2.615751) (xy -5.077785 2.514637) (xy -5.078879 2.403016) (xy -5.079550 2.283866)
     (xy -5.079745 2.187575) (xy -5.080000 1.600200) (xy -4.775200 1.600200) (xy -4.775200 2.181972) )(layer F.SilkS) (width  0.010000)
  )
  (fp_poly (pts (xy -3.733800 3.086100) (xy -4.025900 3.086100) (xy -4.025900 2.006600) (xy -3.733800 2.006600) (xy -3.733800 3.086100) )(layer F.SilkS) (width  0.010000)
  )
  (fp_poly (pts (xy -1.779022 2.000077) (xy -1.727200 2.008832) (xy -1.727200 2.292350) (xy -1.863725 2.292811) (xy -1.940770 2.294962) (xy -1.999010 2.302123) (xy -2.044857 2.316252) (xy -2.084721 2.339310)
     (xy -2.124075 2.372375) (xy -2.159000 2.405052) (xy -2.159000 3.086100) (xy -2.451100 3.086100) (xy -2.451100 2.006600) (xy -2.199142 2.006600) (xy -2.178109 2.069924) (xy -2.157075 2.133249)
     (xy -2.110413 2.095904) (xy -2.031874 2.046001) (xy -1.944237 2.012226) (xy -1.854844 1.996701) (xy -1.779022 2.000077) )(layer F.SilkS) (width  0.010000)
  )
  (fp_poly (pts (xy -3.872481 1.628338) (xy -3.727450 1.631950) (xy -3.727450 1.898650) (xy -3.875167 1.902214) (xy -3.939694 1.903309) (xy -3.983195 1.902588) (xy -4.010009 1.899577) (xy -4.024473 1.893807)
     (xy -4.030742 1.885301) (xy -4.035116 1.860726) (xy -4.037589 1.819981) (xy -4.038251 1.770680) (xy -4.037193 1.720435) (xy -4.034503 1.676862) (xy -4.030272 1.647573) (xy -4.027862 1.641038)
     (xy -4.015433 1.633569) (xy -3.987489 1.629142) (xy -3.940762 1.627492) (xy -3.872481 1.628338) )(layer F.SilkS) (width  0.010000)
  )
  (fp_poly (pts (xy 0.118751 -5.010508) (xy 0.228128 -5.007434) (xy 0.327124 -5.002357) (xy 0.410639 -4.995278) (xy 0.469900 -4.986906) (xy 0.747804 -4.923149) (xy 1.010239 -4.839410) (xy 1.257790 -4.735387)
     (xy 1.491044 -4.610780) (xy 1.710588 -4.465287) (xy 1.917007 -4.298607) (xy 2.044662 -4.178521) (xy 2.220355 -3.986846) (xy 2.376637 -3.781018) (xy 2.515333 -3.558491) (xy 2.587956 -3.421736)
     (xy 2.695302 -3.180079) (xy 2.780480 -2.927955) (xy 2.843992 -2.663771) (xy 2.865999 -2.538220) (xy 2.875281 -2.459743) (xy 2.882194 -2.362683) (xy 2.886683 -2.253447) (xy 2.888697 -2.138441)
     (xy 2.888181 -2.024071) (xy 2.885084 -1.916746) (xy 2.879351 -1.822870) (xy 2.872440 -1.758950) (xy 2.821863 -1.488678) (xy 2.748449 -1.227706) (xy 2.653032 -0.977220) (xy 2.536446 -0.738406)
     (xy 2.399525 -0.512447) (xy 2.243104 -0.300528) (xy 2.068016 -0.103834) (xy 1.875095 0.076450) (xy 1.665175 0.239139) (xy 1.439091 0.383050) (xy 1.318432 0.448524) (xy 1.255255 0.479692)
     (xy 1.188043 0.510784) (xy 1.120938 0.540122) (xy 1.058083 0.566026) (xy 1.003621 0.586817) (xy 0.961695 0.600815) (xy 0.936448 0.606343) (xy 0.931366 0.605400) (xy 0.925459 0.592398)
     (xy 0.911572 0.558331) (xy 0.890737 0.505883) (xy 0.863983 0.437736) (xy 0.832342 0.356574) (xy 0.796843 0.265080) (xy 0.758517 0.165938) (xy 0.718394 0.061831) (xy 0.677505 -0.044557)
     (xy 0.636880 -0.150544) (xy 0.597550 -0.253446) (xy 0.560544 -0.350580) (xy 0.526894 -0.439261) (xy 0.497630 -0.516808) (xy 0.473781 -0.580536) (xy 0.456379 -0.627762) (xy 0.446454 -0.655803)
     (xy 0.444500 -0.662499) (xy 0.452300 -0.670843) (xy 0.476154 -0.664718) (xy 0.516735 -0.643731) (xy 0.574721 -0.607493) (xy 0.650787 -0.555614) (xy 0.739876 -0.491873) (xy 0.815714 -0.437128)
     (xy 0.873862 -0.396243) (xy 0.916837 -0.367690) (xy 0.947154 -0.349939) (xy 0.967331 -0.341461) (xy 0.979883 -0.340725) (xy 0.984552 -0.343152) (xy 0.989245 -0.350085) (xy 0.993105 -0.363848)
     (xy 0.996210 -0.386668) (xy 0.998636 -0.420773) (xy 1.000461 -0.468390) (xy 1.001762 -0.531746) (xy 1.002616 -0.613070) (xy 1.003099 -0.714589) (xy 1.003288 -0.838531) (xy 1.003300 -0.885651)
     (xy 1.003414 -1.022353) (xy 1.003360 -1.136150) (xy 1.002539 -1.229534) (xy 1.000357 -1.304997) (xy 0.996216 -1.365030) (xy 0.989518 -1.412125) (xy 0.979669 -1.448774) (xy 0.966070 -1.477468)
     (xy 0.948125 -1.500699) (xy 0.925237 -1.520958) (xy 0.896810 -1.540739) (xy 0.862247 -1.562531) (xy 0.837453 -1.578159) (xy 0.723900 -1.650683) (xy 0.723825 -1.717517) (xy 0.717649 -1.819385)
     (xy 0.700432 -1.936014) (xy 0.673830 -2.060165) (xy 0.639501 -2.184602) (xy 0.599101 -2.302085) (xy 0.578326 -2.353215) (xy 0.522242 -2.467980) (xy 0.455434 -2.578827) (xy 0.380734 -2.682538)
     (xy 0.300978 -2.775896) (xy 0.218997 -2.855683) (xy 0.137627 -2.918681) (xy 0.059701 -2.961672) (xy 0.034002 -2.971320) (xy 0.006339 -2.978769) (xy -0.017321 -2.979032) (xy -0.045323 -2.970579)
     (xy -0.086012 -2.951881) (xy -0.094302 -2.947815) (xy -0.173613 -2.898299) (xy -0.255663 -2.827927) (xy -0.337104 -2.740505) (xy -0.414585 -2.639837) (xy -0.484757 -2.529727) (xy -0.520403 -2.463800)
     (xy -0.591725 -2.299927) (xy -0.648317 -2.121973) (xy -0.687967 -1.937958) (xy -0.706088 -1.790700) (xy -0.711260 -1.738568) (xy -0.717513 -1.694567) (xy -0.723729 -1.666134) (xy -0.725504 -1.661583)
     (xy -0.740541 -1.646189) (xy -0.772220 -1.621895) (xy -0.815241 -1.592593) (xy -0.845330 -1.573591) (xy -0.882055 -1.551412) (xy -0.912616 -1.532293) (xy -0.937579 -1.513776) (xy -0.957506 -1.493406)
     (xy -0.972962 -1.468725) (xy -0.984511 -1.437278) (xy -0.992717 -1.396609) (xy -0.998144 -1.344260) (xy -1.001356 -1.277776) (xy -1.002918 -1.194700) (xy -1.003393 -1.092576) (xy -1.003345 -0.968948)
     (xy -1.003300 -0.885696) (xy -1.003070 -0.743716) (xy -1.002355 -0.625767) (xy -1.001119 -0.530484) (xy -0.999323 -0.456503) (xy -0.996931 -0.402458) (xy -0.993906 -0.366984) (xy -0.990211 -0.348718)
     (xy -0.988655 -0.346035) (xy -0.981334 -0.340199) (xy -0.972209 -0.338285) (xy -0.958698 -0.341845) (xy -0.938219 -0.352430) (xy -0.908189 -0.371590) (xy -0.866027 -0.400877) (xy -0.809149 -0.441841)
     (xy -0.734973 -0.496035) (xy -0.717007 -0.509205) (xy -0.627717 -0.573372) (xy -0.556928 -0.621287) (xy -0.503954 -0.653341) (xy -0.468104 -0.669921) (xy -0.448690 -0.671417) (xy -0.444500 -0.663085)
     (xy -0.448885 -0.650016) (xy -0.461359 -0.615915) (xy -0.480902 -0.563457) (xy -0.506494 -0.495320) (xy -0.537115 -0.414182) (xy -0.571745 -0.322719) (xy -0.609364 -0.223610) (xy -0.648953 -0.119530)
     (xy -0.689491 -0.013157) (xy -0.729957 0.092832) (xy -0.769333 0.195759) (xy -0.806598 0.292947) (xy -0.840732 0.381720) (xy -0.870716 0.459399) (xy -0.895528 0.523308) (xy -0.914149 0.570770)
     (xy -0.923342 0.593725) (xy -0.929684 0.603616) (xy -0.941181 0.607104) (xy -0.962209 0.603311) (xy -0.997144 0.591363) (xy -1.050361 0.570385) (xy -1.060450 0.566300) (xy -1.199200 0.507030)
     (xy -1.323635 0.446967) (xy -1.444442 0.380848) (xy -1.482208 0.358667) (xy -1.707513 0.209940) (xy -1.915832 0.042808) (xy -2.106409 -0.141599) (xy -2.278490 -0.342150) (xy -2.431321 -0.557713)
     (xy -2.564147 -0.787158) (xy -2.676213 -1.029353) (xy -2.766765 -1.283169) (xy -2.835048 -1.547472) (xy -2.865690 -1.714953) (xy -2.876858 -1.809978) (xy -2.884445 -1.923200) (xy -2.888450 -2.047670)
     (xy -2.888874 -2.176437) (xy -2.885718 -2.302554) (xy -2.878980 -2.419071) (xy -2.868661 -2.519037) (xy -2.865690 -2.539548) (xy -2.811096 -2.812274) (xy -2.733795 -3.074392) (xy -2.634375 -3.325000)
     (xy -2.513424 -3.563199) (xy -2.371532 -3.788088) (xy -2.209286 -3.998765) (xy -2.027277 -4.194329) (xy -1.826093 -4.373881) (xy -1.606321 -4.536520) (xy -1.526660 -4.588313) (xy -1.306080 -4.712277)
     (xy -1.068446 -4.817701) (xy -0.814267 -4.904393) (xy -0.544053 -4.972159) (xy -0.469900 -4.986906) (xy -0.405343 -4.995846) (xy -0.320564 -5.002783) (xy -0.220665 -5.007717) (xy -0.110746 -5.010650)
     (xy 0.004093 -5.011580) (xy 0.118751 -5.010508) )(layer F.SilkS) (width  0.010000)
  )
  (fp_poly (pts (xy -2.868387 -3.672263) (xy -2.880459 -3.642817) (xy -2.900003 -3.598807) (xy -2.925215 -3.544382) (xy -2.933243 -3.527426) (xy -3.019448 -3.332618) (xy -3.089347 -3.143529) (xy -3.141461 -2.969727)
     (xy -3.181350 -2.821540) (xy -3.263900 -2.799467) (xy -3.351740 -2.773850) (xy -3.454177 -2.740569) (xy -3.562758 -2.702628) (xy -3.669031 -2.663035) (xy -3.764543 -2.624794) (xy -3.808843 -2.605687)
     (xy -3.935959 -2.543117) (xy -4.050630 -2.474989) (xy -4.150147 -2.403387) (xy -4.231804 -2.330394) (xy -4.292892 -2.258093) (xy -4.320588 -2.211848) (xy -4.346349 -2.132979) (xy -4.350569 -2.049715)
     (xy -4.333452 -1.969195) (xy -4.312395 -1.924089) (xy -4.249036 -1.838714) (xy -4.160594 -1.755606) (xy -4.047295 -1.674887) (xy -3.909365 -1.596679) (xy -3.747030 -1.521105) (xy -3.560518 -1.448285)
     (xy -3.350053 -1.378343) (xy -3.241675 -1.346141) (xy -3.188999 -1.328954) (xy -3.159109 -1.313803) (xy -3.149601 -1.299465) (xy -3.149600 -1.299370) (xy -3.144644 -1.268339) (xy -3.130813 -1.218277)
     (xy -3.109666 -1.153310) (xy -3.082763 -1.077566) (xy -3.051662 -0.995172) (xy -3.017922 -0.910256) (xy -2.983103 -0.826943) (xy -2.948762 -0.749361) (xy -2.916459 -0.681638) (xy -2.915685 -0.680094)
     (xy -2.882553 -0.614088) (xy -2.853396 -0.555916) (xy -2.830123 -0.509390) (xy -2.814638 -0.478321) (xy -2.808939 -0.466725) (xy -2.807143 -0.462450) (xy -2.808476 -0.459889) (xy -2.816220 -0.459577)
     (xy -2.833657 -0.462051) (xy -2.864071 -0.467846) (xy -2.910745 -0.477498) (xy -2.976962 -0.491542) (xy -3.028950 -0.502622) (xy -3.333537 -0.573900) (xy -3.613944 -0.652781) (xy -3.870243 -0.739312)
     (xy -4.102503 -0.833535) (xy -4.310795 -0.935498) (xy -4.495190 -1.045243) (xy -4.655758 -1.162816) (xy -4.792568 -1.288262) (xy -4.905692 -1.421626) (xy -4.995199 -1.562953) (xy -5.061160 -1.712287)
     (xy -5.092877 -1.819582) (xy -5.110279 -1.922187) (xy -5.118118 -2.038179) (xy -5.116396 -2.157417) (xy -5.105111 -2.269755) (xy -5.092877 -2.333319) (xy -5.043165 -2.488047) (xy -4.970111 -2.634670)
     (xy -4.873630 -2.773245) (xy -4.753632 -2.903830) (xy -4.610030 -3.026480) (xy -4.442737 -3.141253) (xy -4.251665 -3.248205) (xy -4.036727 -3.347392) (xy -3.797834 -3.438873) (xy -3.534900 -3.522702)
     (xy -3.247836 -3.598938) (xy -3.077445 -3.638129) (xy -3.008598 -3.653082) (xy -2.948779 -3.665923) (xy -2.902239 -3.675752) (xy -2.873227 -3.681668) (xy -2.865591 -3.683001) (xy -2.868387 -3.672263) )(layer F.SilkS) (width  0.010000)
  )
  (fp_poly (pts (xy 2.894018 -3.680061) (xy 2.937273 -3.671905) (xy 2.996505 -3.659528) (xy 3.067387 -3.643926) (xy 3.145593 -3.626092) (xy 3.226797 -3.607022) (xy 3.306672 -3.587712) (xy 3.380893 -3.569155)
     (xy 3.445133 -3.552348) (xy 3.475238 -3.544042) (xy 3.737928 -3.463531) (xy 3.976291 -3.377525) (xy 4.190885 -3.285621) (xy 4.382267 -3.187415) (xy 4.550995 -3.082503) (xy 4.697627 -2.970480)
     (xy 4.822720 -2.850942) (xy 4.926833 -2.723486) (xy 5.010522 -2.587708) (xy 5.074346 -2.443203) (xy 5.098934 -2.367721) (xy 5.112418 -2.317535) (xy 5.121543 -2.272080) (xy 5.127112 -2.224087)
     (xy 5.129926 -2.166283) (xy 5.130789 -2.091400) (xy 5.130800 -2.079016) (xy 5.128753 -1.974211) (xy 5.121648 -1.887230) (xy 5.108038 -1.810755) (xy 5.086476 -1.737469) (xy 5.055515 -1.660054)
     (xy 5.042104 -1.630441) (xy 4.983457 -1.517074) (xy 4.917161 -1.416537) (xy 4.837187 -1.320374) (xy 4.776123 -1.257300) (xy 4.635491 -1.134472) (xy 4.470672 -1.019244) (xy 4.281724 -0.911641)
     (xy 4.068707 -0.811688) (xy 3.831677 -0.719410) (xy 3.570692 -0.634832) (xy 3.285811 -0.557979) (xy 3.009900 -0.495616) (xy 2.933818 -0.479886) (xy 2.879202 -0.468868) (xy 2.842656 -0.462073)
     (xy 2.820782 -0.459013) (xy 2.810184 -0.459200) (xy 2.807465 -0.462145) (xy 2.808938 -0.466725) (xy 2.815792 -0.480645) (xy 2.832149 -0.513447) (xy 2.856102 -0.561321) (xy 2.885746 -0.620456)
     (xy 2.915684 -0.680094) (xy 2.947315 -0.746268) (xy 2.981182 -0.822622) (xy 3.015723 -0.905031) (xy 3.049374 -0.989370) (xy 3.080572 -1.071514) (xy 3.107753 -1.147337) (xy 3.129354 -1.212714)
     (xy 3.143811 -1.263519) (xy 3.149562 -1.295627) (xy 3.149600 -1.297358) (xy 3.160473 -1.309287) (xy 3.193753 -1.324609) (xy 3.250427 -1.343726) (xy 3.298825 -1.357965) (xy 3.474225 -1.411840)
     (xy 3.639893 -1.471018) (xy 3.793350 -1.534290) (xy 3.932113 -1.600450) (xy 4.053702 -1.668291) (xy 4.155636 -1.736604) (xy 4.235434 -1.804183) (xy 4.253149 -1.822457) (xy 4.316417 -1.905039)
     (xy 4.354609 -1.987854) (xy 4.368043 -2.070568) (xy 4.357036 -2.152846) (xy 4.321906 -2.234355) (xy 4.262970 -2.314761) (xy 4.180546 -2.393730) (xy 4.074952 -2.470928) (xy 3.946506 -2.546021)
     (xy 3.795525 -2.618676) (xy 3.622326 -2.688557) (xy 3.427228 -2.755331) (xy 3.340579 -2.781853) (xy 3.182309 -2.828761) (xy 3.133689 -2.998706) (xy 3.080646 -3.166518) (xy 3.017816 -3.335824)
     (xy 2.949311 -3.495949) (xy 2.912894 -3.571875) (xy 2.890719 -3.618747) (xy 2.875635 -3.655850) (xy 2.869441 -3.678405) (xy 2.871066 -3.683000) (xy 2.894018 -3.680061) )(layer F.SilkS) (width  0.010000)
  )
)
